\relax 
\catcode `"\active 
\select@language{russian}
\@writefile{toc}{\select@language{russian}}
\@writefile{lof}{\select@language{russian}}
\@writefile{lot}{\select@language{russian}}
\@writefile{toc}{\contentsline {section}{\numberline {1}}{1}}
\@writefile{toc}{\contentsline {section}{\numberline {2}\IeC {\CYRYA }\IeC {\CYRR }\IeC {\CYRD } \IeC {\cyrv } \IeC {\cyrs }\IeC {\cyri }\IeC {\cyrs }\IeC {\cyrt }\IeC {\cyre }\IeC {\cyrm }\IeC {\cyrn }\IeC {\cyro }\IeC {\cyrm } \IeC {\cyrp }\IeC {\cyrr }\IeC {\cyre }\IeC {\cyrd }\IeC {\cyrs }\IeC {\cyrt }\IeC {\cyra }\IeC {\cyrv }\IeC {\cyrl }\IeC {\cyre }\IeC {\cyrn }\IeC {\cyri }\IeC {\cyri }}{2}}
\@writefile{toc}{\contentsline {subsection}{\numberline {2.1}\IeC {\CYRO }\IeC {\cyrs }\IeC {\cyrn }\IeC {\cyro }\IeC {\cyrv }\IeC {\cyrn }\IeC {\cyrery }\IeC {\cyre } \IeC {\cyrp }\IeC {\cyro }\IeC {\cyrn }\IeC {\cyrya }\IeC {\cyrt }\IeC {\cyri }}{3}}
\@writefile{toc}{\contentsline {subsection}{\numberline {2.2}\IeC {\CYRI }\IeC {\cyrs }\IeC {\cyrt }\IeC {\cyro }\IeC {\cyrch }\IeC {\cyrn }\IeC {\cyri }\IeC {\cyrk } \IeC {\cyrerev }\IeC {\cyrn }\IeC {\cyre }\IeC {\cyrr }\IeC {\cyrg }\IeC {\cyri }\IeC {\cyri } \IeC {\CYRYA }\IeC {\CYRR }\IeC {\CYRD }}{3}}
\@writefile{toc}{\contentsline {subsection}{\numberline {2.3}\IeC {\CYRR }\IeC {\cyra }\IeC {\cyrd }\IeC {\cyri }\IeC {\cyro }\IeC {\cyra }\IeC {\cyrk }\IeC {\cyrt }\IeC {\cyri }\IeC {\cyrv }\IeC {\cyrn }\IeC {\cyrery }\IeC {\cyrishrt } \IeC {\cyrr }\IeC {\cyra }\IeC {\cyrs }\IeC {\cyrp }\IeC {\cyra }\IeC {\cyrd }}{3}}
\@writefile{toc}{\contentsline {subsection}{\numberline {2.4}\IeC {\CYREREV }\IeC {\cyrn }\IeC {\cyre }\IeC {\cyrr }\IeC {\cyrg }\IeC {\cyro }\IeC {\cyro }\IeC {\cyrb }\IeC {\cyrm }\IeC {\cyre }\IeC {\cyrn }\IeC {\cyrn }\IeC {\cyro }\IeC {\cyre } \IeC {\cyri } \IeC {\cyrp }\IeC {\cyrr }\IeC {\cyro }\IeC {\cyrp }\IeC {\cyru }\IeC {\cyrl }\IeC {\cyrsftsn }\IeC {\cyrs }\IeC {\cyri }\IeC {\cyrv }\IeC {\cyrn }\IeC {\cyro }\IeC {\cyre } \IeC {\cyru }\IeC {\cyrs }\IeC {\cyrt }\IeC {\cyrr }\IeC {\cyro }\IeC {\cyrishrt }\IeC {\cyrs }\IeC {\cyrt }\IeC {\cyrv }\IeC {\cyra } \IeC {\cyrt }\IeC {\cyre }\IeC {\cyrp }\IeC {\cyrl }\IeC {\cyro }\IeC {\cyrv }\IeC {\cyro }\IeC {\cyrg }\IeC {\cyro } \IeC {\CYRYA }\IeC {\CYRR }\IeC {\CYRD }}{4}}
\@writefile{toc}{\contentsline {subsection}{\numberline {2.5}\IeC {\CYRO }\IeC {\cyrs }\IeC {\cyro }\IeC {\cyrb }\IeC {\cyre }\IeC {\cyrn }\IeC {\cyrn }\IeC {\cyro }\IeC {\cyrs }\IeC {\cyrt }\IeC {\cyri } \IeC {\cyrt }\IeC {\cyre }\IeC {\cyrp }\IeC {\cyrl }\IeC {\cyro }\IeC {\cyrp }\IeC {\cyre }\IeC {\cyrr }\IeC {\cyre }\IeC {\cyro }\IeC {\cyrs }\IeC {\cyra } \IeC {\CYRYA }\IeC {\CYRR }\IeC {\CYRD } \IeC {\cyrr }\IeC {\cyra }\IeC {\cyrz }\IeC {\cyrl }\IeC {\cyri }\IeC {\cyrch }\IeC {\cyrn }\IeC {\cyrery }\IeC {\cyrh } \IeC {\cyrs }\IeC {\cyrh }\IeC {\cyre }\IeC {\cyrm }}{4}}
\@writefile{toc}{\contentsline {subsection}{\numberline {2.6}\IeC {\CYRU }\IeC {\cyrd }\IeC {\cyre }\IeC {\cyrl }\IeC {\cyrsftsn }\IeC {\cyrn }\IeC {\cyrery }\IeC {\cyrishrt } \IeC {\cyri }\IeC {\cyrm }\IeC {\cyrp }\IeC {\cyru }\IeC {\cyrl }\IeC {\cyrsftsn }\IeC {\cyrs }}{4}}
\@writefile{toc}{\contentsline {subsection}{\numberline {2.7}\IeC {\CYREREV }\IeC {\cyrl }\IeC {\cyre }\IeC {\cyrk }\IeC {\cyrt }\IeC {\cyrr }\IeC {\cyro }\IeC {\cyrr }\IeC {\cyra }\IeC {\cyrk }\IeC {\cyre }\IeC {\cyrt }\IeC {\cyrn }\IeC {\cyrery }\IeC {\cyrishrt } \IeC {\cyrd }\IeC {\cyrv }\IeC {\cyri }\IeC {\cyrg }\IeC {\cyra }\IeC {\cyrt }\IeC {\cyre }\IeC {\cyrl }\IeC {\cyrsftsn }}{5}}
\@writefile{toc}{\contentsline {subsubsection}{\numberline {2.7.1}\IeC {\CYRP }\IeC {\cyra }\IeC {\cyrr }\IeC {\cyra }\IeC {\cyrm }\IeC {\cyre }\IeC {\cyrt }\IeC {\cyrr }\IeC {\cyrery } \IeC {\cyrs }\IeC {\cyru }\IeC {\cyrshch }\IeC {\cyre }\IeC {\cyrs }\IeC {\cyrt }\IeC {\cyrv }\IeC {\cyru }\IeC {\cyryu }\IeC {\cyrshch }\IeC {\cyri }\IeC {\cyrh } \IeC {\cyrerev }\IeC {\cyrl }\IeC {\cyre }\IeC {\cyrk }\IeC {\cyrt }\IeC {\cyrr }\IeC {\cyro }\IeC {\cyrr }\IeC {\cyra }\IeC {\cyrk }\IeC {\cyre }\IeC {\cyrt }\IeC {\cyrn }\IeC {\cyrery }\IeC {\cyrh } \IeC {\cyrd }\IeC {\cyrv }\IeC {\cyri }\IeC {\cyrg }\IeC {\cyra }\IeC {\cyrt }\IeC {\cyre }\IeC {\cyrl }\IeC {\cyre }\IeC {\cyrishrt }}{5}}
\@writefile{toc}{\contentsline {subsection}{\numberline {2.8}\IeC {\CYRYA }\IeC {\cyrd }\IeC {\cyre }\IeC {\cyrr }\IeC {\cyrn }\IeC {\cyra }\IeC {\cyrya } \IeC {\cyrerev }\IeC {\cyrl }\IeC {\cyre }\IeC {\cyrk }\IeC {\cyrt }\IeC {\cyrr }\IeC {\cyro }\IeC {\cyrd }\IeC {\cyrv }\IeC {\cyri }\IeC {\cyrg }\IeC {\cyra }\IeC {\cyrt }\IeC {\cyre }\IeC {\cyrl }\IeC {\cyrsftsn }\IeC {\cyrn }\IeC {\cyra }\IeC {\cyrya } \IeC {\cyru }\IeC {\cyrs }\IeC {\cyrt }\IeC {\cyra }\IeC {\cyrn }\IeC {\cyro }\IeC {\cyrv }\IeC {\cyrk }\IeC {\cyra }}{5}}
\@writefile{toc}{\contentsline {section}{\numberline {3}}{5}}
\@writefile{toc}{\contentsline {subsection}{\numberline {3.1}\IeC {\CYRP }\IeC {\cyrr }\IeC {\cyre }\IeC {\cyro }\IeC {\cyrb }\IeC {\cyrr }\IeC {\cyra }\IeC {\cyrz }\IeC {\cyro }\IeC {\cyrv }\IeC {\cyra }\IeC {\cyrn }\IeC {\cyri }\IeC {\cyre } \IeC {\cyrt }\IeC {\cyre }\IeC {\cyrp }\IeC {\cyrl }\IeC {\cyro }\IeC {\cyrv }\IeC {\cyro }\IeC {\cyrishrt } \IeC {\cyrerev }\IeC {\cyrn }\IeC {\cyre }\IeC {\cyrr }\IeC {\cyrg }\IeC {\cyri }\IeC {\cyri } \IeC {\cyrv } \IeC {\cyrerev }\IeC {\cyrl }\IeC {\cyre }\IeC {\cyrk }\IeC {\cyrt }\IeC {\cyrr }\IeC {\cyri }\IeC {\cyrch }\IeC {\cyre }\IeC {\cyrs }\IeC {\cyrk }\IeC {\cyru }\IeC {\cyryu }}{6}}
\@writefile{toc}{\contentsline {subsubsection}{\numberline {3.1.1}\IeC {\CYRM }\IeC {\cyra }\IeC {\cyrsh }\IeC {\cyri }\IeC {\cyrn }\IeC {\cyra } \IeC {\cyrs } \IeC {\cyrzh }\IeC {\cyri }\IeC {\cyrd }\IeC {\cyrk }\IeC {\cyri }\IeC {\cyrm } \IeC {\cyrr }\IeC {\cyra }\IeC {\cyrb }\IeC {\cyro }\IeC {\cyrch }\IeC {\cyri }\IeC {\cyrm } \IeC {\cyrt }\IeC {\cyre }\IeC {\cyrl }\IeC {\cyro }\IeC {\cyrm }}{6}}
\@writefile{toc}{\contentsline {subsection}{\numberline {3.2}\IeC {\CYRB }\IeC {\cyre }\IeC {\cyrz }\IeC {\cyrm }\IeC {\cyra }\IeC {\cyrsh }\IeC {\cyri }\IeC {\cyrn }\IeC {\cyrn }\IeC {\cyra }\IeC {\cyrya } \IeC {\cyrs }\IeC {\cyrh }\IeC {\cyre }\IeC {\cyrm }\IeC {\cyra } \IeC {\cyrs } \IeC {\cyrt }\IeC {\cyre }\IeC {\cyrr }\IeC {\cyrm }\IeC {\cyro }\IeC {\cyrerev }\IeC {\cyrm }\IeC {\cyri }\IeC {\cyrs }\IeC {\cyrs }\IeC {\cyri }\IeC {\cyro }\IeC {\cyro }\IeC {\cyrn }\IeC {\cyrery }\IeC {\cyrm } \IeC {\cyrp }\IeC {\cyrr }\IeC {\cyre }\IeC {\cyro }\IeC {\cyrb }\IeC {\cyrr }\IeC {\cyra }\IeC {\cyrz }\IeC {\cyro }\IeC {\cyrv }\IeC {\cyra }\IeC {\cyrt }\IeC {\cyre }\IeC {\cyrl }\IeC {\cyre }\IeC {\cyrm }}{6}}
\@writefile{toc}{\contentsline {subsection}{\numberline {3.3}\IeC {\CYRG }\IeC {\cyre }\IeC {\cyrn }\IeC {\cyre }\IeC {\cyrr }\IeC {\cyra }\IeC {\cyrt }\IeC {\cyro }\IeC {\cyrr }\IeC {\cyrery } \IeC {\cyrz }\IeC {\cyra } \IeC {\cyrs }\IeC {\cyrch }\IeC {\cyre }\IeC {\cyrt } \IeC {\cyrerev }\IeC {\cyrf }\IeC {\cyrf }\IeC {\cyre }\IeC {\cyrk }\IeC {\cyrt }\IeC {\cyra } \IeC {\CYRR }\IeC {\cyri }\IeC {\cyrch }\IeC {\cyra }\IeC {\cyrr }\IeC {\cyrd }\IeC {\cyrs }\IeC {\cyro }\IeC {\cyrn }\IeC {\cyra }}{7}}
\@writefile{toc}{\contentsline {subsection}{\numberline {3.4}\IeC {\CYRR }\IeC {\cyra }\IeC {\cyrd }\IeC {\cyri }\IeC {\cyro }\IeC {\cyri }\IeC {\cyrz }\IeC {\cyro }\IeC {\cyrt }\IeC {\cyro }\IeC {\cyrp }\IeC {\cyrn }\IeC {\cyrery }\IeC {\cyrishrt } \IeC {\cyri }\IeC {\cyrs }\IeC {\cyrt }\IeC {\cyro }\IeC {\cyrch }\IeC {\cyrn }\IeC {\cyri }\IeC {\cyrk } \IeC {\cyrt }\IeC {\cyre }\IeC {\cyrp }\IeC {\cyrl }\IeC {\cyra }}{7}}
\@writefile{toc}{\contentsline {subsubsection}{\numberline {3.4.1}\IeC {\CYRT }\IeC {\cyre }\IeC {\cyrp }\IeC {\cyrl }\IeC {\cyro }\IeC {\cyrv }\IeC {\cyrery }\IeC {\cyrd }\IeC {\cyre }\IeC {\cyrl }\IeC {\cyre }\IeC {\cyrn }\IeC {\cyri }\IeC {\cyre } \IeC {\cyrp }\IeC {\cyrr }\IeC {\cyri } \IeC {\cyrr }\IeC {\cyra }\IeC {\cyrd }\IeC {\cyri }\IeC {\cyro }\IeC {\cyra }\IeC {\cyrk }\IeC {\cyrt }\IeC {\cyri }\IeC {\cyrv }\IeC {\cyrn }\IeC {\cyro }\IeC {\cyrm } \IeC {\cyrr }\IeC {\cyra }\IeC {\cyrs }\IeC {\cyrp }\IeC {\cyra }\IeC {\cyrd }\IeC {\cyre }}{7}}
\@writefile{toc}{\contentsline {subsubsection}{\numberline {3.4.2}\IeC {\CYRO }\IeC {\cyrs }\IeC {\cyrn }\IeC {\cyro }\IeC {\cyrv }\IeC {\cyrn }\IeC {\cyrery }\IeC {\cyre } \IeC {\cyrh }\IeC {\cyra }\IeC {\cyrr }\IeC {\cyra }\IeC {\cyrk }\IeC {\cyrt }\IeC {\cyre }\IeC {\cyrr }\IeC {\cyri }\IeC {\cyrs }\IeC {\cyrt }\IeC {\cyri }\IeC {\cyrk }\IeC {\cyri } \IeC {\cyrm }\IeC {\cyra }\IeC {\cyrt }\IeC {\cyre }\IeC {\cyrr }\IeC {\cyri }\IeC {\cyra }\IeC {\cyrl }\IeC {\cyro }\IeC {\cyrv }, \IeC {\cyrs }\IeC {\cyro }\IeC {\cyrd }\IeC {\cyre }\IeC {\cyrr }\IeC {\cyrzh }\IeC {\cyra }\IeC {\cyrshch }\IeC {\cyri }\IeC {\cyrh } \IeC {\cyrr }\IeC {\cyra }\IeC {\cyrd }\IeC {\cyri }\IeC {\cyro }\IeC {\cyra }\IeC {\cyrk }\IeC {\cyrt }\IeC {\cyri }\IeC {\cyrv }\IeC {\cyrn }\IeC {\cyrery }\IeC {\cyre } \IeC {\cyri }\IeC {\cyrz }\IeC {\cyro }\IeC {\cyrt }\IeC {\cyro }\IeC {\cyrp }\IeC {\cyrery }}{8}}
\@writefile{toc}{\contentsline {subsection}{\numberline {3.5}\IeC {\CYRT }\IeC {\cyre }\IeC {\cyrp }\IeC {\cyrl }\IeC {\cyro }\IeC {\cyrv }\IeC {\cyro }\IeC {\cyrishrt } \IeC {\cyrr }\IeC {\cyra }\IeC {\cyrk }\IeC {\cyre }\IeC {\cyrt }\IeC {\cyrn }\IeC {\cyrery }\IeC {\cyrishrt } \IeC {\cyrd }\IeC {\cyrv }\IeC {\cyri }\IeC {\cyrg }\IeC {\cyra }\IeC {\cyrt }\IeC {\cyre }\IeC {\cyrl }\IeC {\cyrsftsn } \IeC {\cyrs } \IeC {\CYRR }\IeC {\CYRI }\IeC {\CYRT } (\IeC {\cyrt }\IeC {\cyrv }\IeC {\cyre }\IeC {\cyrr }\IeC {\cyrd }\IeC {\cyrery }\IeC {\cyrm })}{8}}
\@writefile{toc}{\contentsline {subsection}{\numberline {3.6}\IeC {\CYRT }\IeC {\cyre }\IeC {\cyrp }\IeC {\cyrl }\IeC {\cyro }\IeC {\cyrv }\IeC {\cyro }\IeC {\cyrishrt } \IeC {\cyrr }\IeC {\cyra }\IeC {\cyrk }\IeC {\cyre }\IeC {\cyrt }\IeC {\cyrn }\IeC {\cyrery }\IeC {\cyrishrt } \IeC {\cyrd }\IeC {\cyrv }\IeC {\cyri }\IeC {\cyrg }\IeC {\cyra }\IeC {\cyrt }\IeC {\cyre }\IeC {\cyrl }\IeC {\cyrsftsn } \IeC {\cyrs } \IeC {\CYRR }\IeC {\CYRI }\IeC {\CYRT } (\IeC {\cyrzh }\IeC {\cyri }\IeC {\cyrd }\IeC {\cyrk }\IeC {\cyri }\IeC {\cyrm })}{8}}
\@writefile{toc}{\contentsline {subsection}{\numberline {3.7}\IeC {\CYRP }\IeC {\cyru }\IeC {\cyrs }\IeC {\cyrt }\IeC {\cyro }\IeC {\cyrt }\IeC {\cyrn }\IeC {\cyrery }\IeC {\cyre } \IeC {\cyru }\IeC {\cyrd }\IeC {\cyre }\IeC {\cyrl }\IeC {\cyrsftsn }\IeC {\cyrn }\IeC {\cyrery }\IeC {\cyre } \IeC {\cyri }\IeC {\cyrm }\IeC {\cyrp }\IeC {\cyru }\IeC {\cyrl }\IeC {\cyrsftsn }\IeC {\cyrs }\IeC {\cyrery } \IeC {\cyrt }\IeC {\cyrya }\IeC {\cyrg }\IeC {\cyri } \IeC {\cyri } \IeC {\cyrt }\IeC {\cyre }\IeC {\cyrp }\IeC {\cyrl }\IeC {\cyro }\IeC {\cyrv }\IeC {\cyrery }\IeC {\cyre } \IeC {\cyrm }\IeC {\cyro }\IeC {\cyrshch }\IeC {\cyrn }\IeC {\cyro }\IeC {\cyrs }\IeC {\cyrt }\IeC {\cyri } \IeC {\cyrn }\IeC {\cyra }\IeC {\cyrg }\IeC {\cyrr }\IeC {\cyre }\IeC {\cyrv }\IeC {\cyra }\IeC {\cyrt }\IeC {\cyre }\IeC {\cyrl }\IeC {\cyrya } \IeC {\CYRR }\IeC {\CYRD } \IeC {\cyrs } \IeC {\CYRR }\IeC {\CYRI }\IeC {\CYRT }}{8}}
\@writefile{toc}{\contentsline {subsection}{\numberline {3.8}\IeC {\CYRR }\IeC {\cyre }\IeC {\cyrg }\IeC {\cyru }\IeC {\cyrl }\IeC {\cyri }\IeC {\cyrr }\IeC {\cyro }\IeC {\cyrv }\IeC {\cyra }\IeC {\cyrn }\IeC {\cyri }\IeC {\cyre } \IeC {\CYRR }\IeC {\CYRD } \IeC {\cyrs } \IeC {\CYRR }\IeC {\CYRI }\IeC {\CYRT }}{9}}
\@writefile{toc}{\contentsline {subsection}{\numberline {3.9}\IeC {\CYRV }\IeC {\cyrery }\IeC {\cyrv }\IeC {\cyro }\IeC {\cyrd } \IeC {\cyri }\IeC {\cyrz } \IeC {\cyrerev }\IeC {\cyrk }\IeC {\cyrs }\IeC {\cyrp }\IeC {\cyrl }\IeC {\cyru }\IeC {\cyra }\IeC {\cyrt }\IeC {\cyra }\IeC {\cyrc }\IeC {\cyri }\IeC {\cyri } \IeC {\CYRR }\IeC {\CYRD } \IeC {\cyrs } \IeC {\CYRR }\IeC {\CYRI }\IeC {\CYRT }}{9}}
\@writefile{toc}{\contentsline {section}{\numberline {4}}{9}}
\@writefile{toc}{\contentsline {subsection}{\numberline {4.1}\IeC {\CYRF }\IeC {\cyru }\IeC {\cyrn }\IeC {\cyrk }\IeC {\cyrc }\IeC {\cyri }\IeC {\cyri } \IeC {\cyrr }\IeC {\cyre }\IeC {\cyra }\IeC {\cyrk }\IeC {\cyrt }\IeC {\cyro }\IeC {\cyrr }\IeC {\cyra } \IeC {\cyrya }\IeC {\cyrd }\IeC {\cyre }\IeC {\cyrr }\IeC {\cyrn }\IeC {\cyro }\IeC {\cyrg }\IeC {\cyro } \IeC {\cyrr }\IeC {\cyra }\IeC {\cyrk }\IeC {\cyre }\IeC {\cyrt }\IeC {\cyrn }\IeC {\cyro }\IeC {\cyrg }\IeC {\cyro } \IeC {\cyrd }\IeC {\cyrv }\IeC {\cyri }\IeC {\cyrg }\IeC {\cyra }\IeC {\cyrt }\IeC {\cyre }\IeC {\cyrl }\IeC {\cyrya }}{10}}
\@writefile{toc}{\contentsline {subsection}{\numberline {4.2}\IeC {\CYRR }\IeC {\cyra }\IeC {\cyrb }\IeC {\cyro }\IeC {\cyrch }\IeC {\cyri }\IeC {\cyrishrt } \IeC {\cyrp }\IeC {\cyrr }\IeC {\cyro }\IeC {\cyrc }\IeC {\cyre }\IeC {\cyrs }\IeC {\cyrs } \IeC {\cyrv } \IeC {\cyrr }\IeC {\cyre }\IeC {\cyra }\IeC {\cyrk }\IeC {\cyrt }\IeC {\cyro }\IeC {\cyrr }\IeC {\cyre } \IeC {\CYRYA }\IeC {\CYRR }\IeC {\CYRD }}{10}}
\@writefile{toc}{\contentsline {subsection}{\numberline {4.3}\IeC {\CYRU }\IeC {\cyrr }\IeC {\cyra }\IeC {\cyrv }\IeC {\cyrn }\IeC {\cyre }\IeC {\cyrn }\IeC {\cyri }\IeC {\cyrya } \IeC {\cyrs }\IeC {\cyro }\IeC {\cyrh }\IeC {\cyrr }\IeC {\cyra }\IeC {\cyrn }\IeC {\cyre }\IeC {\cyrn }\IeC {\cyri }\IeC {\cyrya } \IeC {\CYRYA }\IeC {\CYRR }\IeC {\CYRD }}{10}}
\@writefile{toc}{\contentsline {subsection}{\numberline {4.4}\IeC {\CYRT }\IeC {\cyrr }\IeC {\cyre }\IeC {\cyrb }\IeC {\cyru }\IeC {\cyre }\IeC {\cyrm }\IeC {\cyra }\IeC {\cyrya } \IeC {\cyrt }\IeC {\cyre }\IeC {\cyrp }\IeC {\cyrl }\IeC {\cyro }\IeC {\cyrv }\IeC {\cyra }\IeC {\cyrya } \IeC {\cyrm }\IeC {\cyro }\IeC {\cyrshch }\IeC {\cyrn }\IeC {\cyro }\IeC {\cyrs }\IeC {\cyrt }\IeC {\cyrsftsn } \IeC {\cyrn }\IeC {\cyra }\IeC {\cyrg }\IeC {\cyrr }\IeC {\cyre }\IeC {\cyrv }\IeC {\cyra }\IeC {\cyrt }\IeC {\cyre }\IeC {\cyrl }\IeC {\cyrya } \IeC {\cyrr }\IeC {\cyre }\IeC {\cyra }\IeC {\cyrl }\IeC {\cyrsftsn }\IeC {\cyrn }\IeC {\cyro }\IeC {\cyrg }\IeC {\cyro } \IeC {\CYRYA }\IeC {\CYRR }\IeC {\CYRD }}{11}}
\@writefile{toc}{\contentsline {subsection}{\numberline {4.5}\IeC {\CYRN }\IeC {\cyre }\IeC {\cyrishrt }\IeC {\cyrt }\IeC {\cyrr }\IeC {\cyro }\IeC {\cyrn }\IeC {\cyrn }\IeC {\cyro }-\IeC {\cyrf }\IeC {\cyri }\IeC {\cyrz }\IeC {\cyri }\IeC {\cyrch }\IeC {\cyre }\IeC {\cyrs }\IeC {\cyrk }\IeC {\cyri }\IeC {\cyre } \IeC {\cyrp }\IeC {\cyrr }\IeC {\cyro }\IeC {\cyrc }\IeC {\cyre }\IeC {\cyrs }\IeC {\cyrs }\IeC {\cyrery } \IeC {\cyrv } \IeC {\cyrya }\IeC {\cyrd }\IeC {\cyre }\IeC {\cyrr }\IeC {\cyrn }\IeC {\cyro }\IeC {\cyrm } \IeC {\cyrr }\IeC {\cyre }\IeC {\cyra }\IeC {\cyrk }\IeC {\cyrt }\IeC {\cyro }\IeC {\cyrr }\IeC {\cyre } \IeC {\CYRYA }\IeC {\CYRR }\IeC {\CYRD }}{11}}
\@writefile{toc}{\contentsline {subsection}{\numberline {4.6}\IeC {\CYRT }\IeC {\cyre }\IeC {\cyrp }\IeC {\cyrl }\IeC {\cyro }\IeC {\cyrv }\IeC {\cyra }\IeC {\cyrya } \IeC {\cyrm }\IeC {\cyro }\IeC {\cyrshch }\IeC {\cyrn }\IeC {\cyro }\IeC {\cyrs }\IeC {\cyrt }\IeC {\cyrsftsn } \IeC {\cyra }\IeC {\cyrk }\IeC {\cyrt }\IeC {\cyri }\IeC {\cyrv }\IeC {\cyrn }\IeC {\cyro }\IeC {\cyrishrt } \IeC {\cyrz }\IeC {\cyro }\IeC {\cyrn }\IeC {\cyrery }}{11}}
\@writefile{toc}{\contentsline {subsection}{\numberline {4.7}\IeC {\CYRS }\IeC {\cyrv }\IeC {\cyro }\IeC {\cyrishrt }\IeC {\cyrs }\IeC {\cyrt }\IeC {\cyrv }\IeC {\cyra } \IeC {\cyrn }\IeC {\cyre }\IeC {\cyrishrt }\IeC {\cyrt }\IeC {\cyrr }\IeC {\cyro }\IeC {\cyrn }\IeC {\cyro }\IeC {\cyrv }}{12}}
\@writefile{toc}{\contentsline {subsection}{\numberline {4.8}\IeC {\CYRV }\IeC {\cyri }\IeC {\cyrd }\IeC {\cyrery } \IeC {\cyrv }\IeC {\cyrz }\IeC {\cyra }\IeC {\cyri }\IeC {\cyrm }\IeC {\cyro }\IeC {\cyrd }\IeC {\cyre }\IeC {\cyrishrt }\IeC {\cyrs }\IeC {\cyrt }\IeC {\cyrv }\IeC {\cyri }\IeC {\cyrya } \IeC {\cyrn }\IeC {\cyre }\IeC {\cyrishrt }\IeC {\cyrt }\IeC {\cyrr }\IeC {\cyro }\IeC {\cyrn }\IeC {\cyra } \IeC {\cyri } \IeC {\cyrya }\IeC {\cyrd }\IeC {\cyrr }\IeC {\cyra }}{13}}
\@writefile{lot}{\contentsline {table}{\numberline {1}{\ignorespaces \IeC {\CYRM }\IeC {\cyri }\IeC {\cyrk }\IeC {\cyrr }\IeC {\cyro }\IeC {\cyrs }\IeC {\cyrk }\IeC {\cyro }\IeC {\cyrp }\IeC {\cyri }\IeC {\cyrch }\IeC {\cyre }\IeC {\cyrs }\IeC {\cyrk }\IeC {\cyri }\IeC {\cyre } \IeC {\cyrerev }\IeC {\cyrf }\IeC {\cyrf }\IeC {\cyre }\IeC {\cyrk }\IeC {\cyrt }\IeC {\cyri }\IeC {\cyrv }\IeC {\cyrn }\IeC {\cyrery }\IeC {\cyre } \IeC {\cyrs }\IeC {\cyre }\IeC {\cyrch }\IeC {\cyre }\IeC {\cyrn }\IeC {\cyri }\IeC {\cyrya } \IeC {\cyrv }\IeC {\cyrz }\IeC {\cyra }\IeC {\cyri }\IeC {\cyrm }\IeC {\cyro }\IeC {\cyrd }\IeC {\cyre }\IeC {\cyrishrt }\IeC {\cyrs }\IeC {\cyrv }\IeC {\cyri }\IeC {\cyrya } \IeC {\cyrt }\IeC {\cyre }\IeC {\cyrp }\IeC {\cyrl }\IeC {\cyro }\IeC {\cyrv }\IeC {\cyrery }\IeC {\cyrh } \IeC {\cyrn }\IeC {\cyre }\IeC {\cyrishrt }\IeC {\cyrt }\IeC {\cyrr }\IeC {\cyro }\IeC {\cyrn }\IeC {\cyro }\IeC {\cyrv } ($ E=0.025 \IeC {\cyrerev }\IeC {\CYRV } $, $ T_n=297\IeC {\CYRK } $)\relax }}{13}}
\@writefile{lof}{\contentsline {figure}{\numberline {1}{\ignorespaces \IeC {\CYRZ }\IeC {\cyra }\IeC {\cyrv }\IeC {\cyri }\IeC {\cyrs }\IeC {\cyri }\IeC {\cyrm }\IeC {\cyro }\IeC {\cyrs }\IeC {\cyrt }\IeC {\cyrsftsn } \IeC {\cyrerev }\IeC {\cyrf }\IeC {\cyrf }\IeC {\cyre }\IeC {\cyrk }\IeC {\cyrt }\IeC {\cyri }\IeC {\cyrv }\IeC {\cyrn }\IeC {\cyro }\IeC {\cyrg }\IeC {\cyro } \IeC {\cyrm }\IeC {\cyri }\IeC {\cyrk }\IeC {\cyrr }\IeC {\cyro }\IeC {\cyrs }\IeC {\cyrk }\IeC {\cyro }\IeC {\cyrp }\IeC {\cyri }\IeC {\cyrch }\IeC {\cyre }\IeC {\cyrs }\IeC {\cyrk }\IeC {\cyro }\IeC {\cyrg }\IeC {\cyro } \IeC {\cyrs }\IeC {\cyre }\IeC {\cyrch }\IeC {\cyre }\IeC {\cyrn }\IeC {\cyri }\IeC {\cyrya } \IeC {\cyrv }\IeC {\cyrz }\IeC {\cyra }\IeC {\cyri }\IeC {\cyrm }\IeC {\cyro }\IeC {\cyrd }\IeC {\cyre }\IeC {\cyrishrt }\IeC {\cyrs }\IeC {\cyrt }\IeC {\cyrv }\IeC {\cyri }\IeC {\cyrya } \IeC {\cyro }\IeC {\cyrt } \IeC {\cyrerev }\IeC {\cyrn }\IeC {\cyre }\IeC {\cyrr }\IeC {\cyrg }\IeC {\cyri }\IeC {\cyri } \IeC {\cyrn }\IeC {\cyre }\IeC {\cyrishrt }\IeC {\cyrt }\IeC {\cyrr }\IeC {\cyro }\IeC {\cyrn }\IeC {\cyra }. \IeC {\CYRP }\IeC {\cyro }\IeC {\cyrv }\IeC {\cyrery }\IeC {\cyrsh }\IeC {\cyre }\IeC {\cyrn }\IeC {\cyri }\IeC {\cyre } \IeC {\cyrv }\IeC {\cyre }\IeC {\cyrr }\IeC {\cyro }\IeC {\cyrya }\IeC {\cyrt }\IeC {\cyrn }\IeC {\cyro }\IeC {\cyrs }\IeC {\cyrt }\IeC {\cyri } \IeC {\cyrv }\IeC {\cyrz }\IeC {\cyra }\IeC {\cyri }\IeC {\cyrm }\IeC {\cyro }\IeC {\cyrd }\IeC {\cyre }\IeC {\cyrishrt }\IeC {\cyrs }\IeC {\cyrt }\IeC {\cyrv }\IeC {\cyri }\IeC {\cyrya } \IeC {\cyrya }\IeC {\cyrd }\IeC {\cyrr }\IeC {\cyra } \IeC {\cyri } \IeC {\cyrn }\IeC {\cyre }\IeC {\cyrishrt }\IeC {\cyrt }\IeC {\cyrr }\IeC {\cyro }\IeC {\cyrn }\IeC {\cyra }, \IeC {\cyrd }\IeC {\cyrv }\IeC {\cyri }\IeC {\cyrzh }\IeC {\cyru }\IeC {\cyrshch }\IeC {\cyre }\IeC {\cyrg }\IeC {\cyro }\IeC {\cyrs }\IeC {\cyrya } \IeC {\cyri }\IeC {\cyrm }\IeC {\cyre }\IeC {\cyrn }\IeC {\cyrn }\IeC {\cyro } \IeC {\cyrs } \IeC {\cyrerev }\IeC {\cyrt }\IeC {\cyro }\IeC {\cyrishrt } \IeC {\cyrs }\IeC {\cyrk }\IeC {\cyro }\IeC {\cyrr }\IeC {\cyro }\IeC {\cyrs }\IeC {\cyrt }\IeC {\cyrsftsn }\IeC {\cyryu } \IeC {\cyrm }\IeC {\cyro }\IeC {\cyrzh }\IeC {\cyrn }\IeC {\cyro } \IeC {\cyro }\IeC {\cyrb }\IeC {\cyrhrdsn }\IeC {\cyrya }\IeC {\cyrs }\IeC {\cyrn }\IeC {\cyri }\IeC {\cyrt }\IeC {\cyrsftsn } \IeC {\cyrr }\IeC {\cyre }\IeC {\cyrz }\IeC {\cyro }\IeC {\cyrn }\IeC {\cyra }\IeC {\cyrn }\IeC {\cyrs }\IeC {\cyro }\IeC {\cyrm } \IeC {\cyrp }\IeC {\cyrr }\IeC {\cyri } \IeC {\cyrs }\IeC {\cyro }\IeC {\cyrv }\IeC {\cyrp }\IeC {\cyra }\IeC {\cyrd }\IeC {\cyre }\IeC {\cyrn }\IeC {\cyri }\IeC {\cyri } \IeC {\cyri }\IeC {\cyrl }\IeC {\cyri } \IeC {\cyrk }\IeC {\cyrr }\IeC {\cyra }\IeC {\cyrt }\IeC {\cyrn }\IeC {\cyro }\IeC {\cyrs }\IeC {\cyrt }\IeC {\cyri } \IeC {\cyro }\IeC {\cyrd }\IeC {\cyrn }\IeC {\cyro }\IeC {\cyrishrt } \IeC {\cyri }\IeC {\cyrz } \IeC {\cyrn }\IeC {\cyre }\IeC {\cyrs }\IeC {\cyrk }\IeC {\cyro }\IeC {\cyrl }\IeC {\cyrsftsn }\IeC {\cyrk }\IeC {\cyri }\IeC {\cyrh } \IeC {\cyrs }\IeC {\cyro }\IeC {\cyrb }\IeC {\cyrs }\IeC {\cyrt }\IeC {\cyrv }\IeC {\cyre }\IeC {\cyrn }\IeC {\cyrn }\IeC {\cyrery }\IeC {\cyrh } \IeC {\cyrch }\IeC {\cyra }\IeC {\cyrs }\IeC {\cyrt }\IeC {\cyro }\IeC {\cyrt } \IeC {\cyrya }\IeC {\cyrd }\IeC {\cyrr }\IeC {\cyra } \IeC {\cyrs } \IeC {\cyrch }\IeC {\cyra }\IeC {\cyrs }\IeC {\cyrt }\IeC {\cyro }\IeC {\cyrt }\IeC {\cyro }\IeC {\cyrishrt }, \IeC {\cyrs }\IeC {\cyrv }\IeC {\cyro }\IeC {\cyrishrt }\IeC {\cyrs }\IeC {\cyrt }\IeC {\cyrv }\IeC {\cyre }\IeC {\cyrn }\IeC {\cyrn }\IeC {\cyro }\IeC {\cyrishrt } \IeC {\cyrn }\IeC {\cyre }\IeC {\cyrishrt }\IeC {\cyrt }\IeC {\cyrr }\IeC {\cyro }\IeC {\cyrn }\IeC {\cyru } \IeC {\cyrk }\IeC {\cyra }\IeC {\cyrk } \IeC {\cyrv }\IeC {\cyro }\IeC {\cyrl }\IeC {\cyrn }\IeC {\cyre } \IeC {\cyrn }\IeC {\cyra } \IeC {\cyrerev }\IeC {\cyrt }\IeC {\cyro }\IeC {\cyrishrt } \IeC {\cyrs }\IeC {\cyrk }\IeC {\cyro }\IeC {\cyrr }\IeC {\cyro }\IeC {\cyrs }\IeC {\cyrt }\IeC {\cyri }.\relax }}{14}}
\@writefile{toc}{\contentsline {subsection}{\numberline {4.9}\IeC {\CYRP }\IeC {\cyro }\IeC {\cyrl }\IeC {\cyru }\IeC {\cyrch }\IeC {\cyre }\IeC {\cyrn }\IeC {\cyri }\IeC {\cyre } \IeC {\cyrn }\IeC {\cyre }\IeC {\cyrishrt }\IeC {\cyrt }\IeC {\cyrr }\IeC {\cyro }\IeC {\cyrn }\IeC {\cyro }\IeC {\cyrv }}{14}}
\@writefile{lof}{\contentsline {figure}{\numberline {2}{\ignorespaces 1 \IeC {\textendash } \IeC {\cyrg }\IeC {\cyre }\IeC {\cyrn }\IeC {\cyre }\IeC {\cyrr }\IeC {\cyra }\IeC {\cyrt }\IeC {\cyro }\IeC {\cyrr } \IeC {\cyrv }\IeC {\cyrery }\IeC {\cyrs }\IeC {\cyro }\IeC {\cyrk }\IeC {\cyro }\IeC {\cyrerev }\IeC {\cyrn }\IeC {\cyre }\IeC {\cyrr }\IeC {\cyrg }\IeC {\cyre }\IeC {\cyrt }\IeC {\cyri }\IeC {\cyrch }\IeC {\cyre }\IeC {\cyrs }\IeC {\cyrk }\IeC {\cyri }\IeC {\cyrh } \IeC {\cyrerev }\IeC {\cyrl }\IeC {\cyre }\IeC {\cyrk }\IeC {\cyrt }\IeC {\cyrr }\IeC {\cyro }\IeC {\cyrn }\IeC {\cyro }\IeC {\cyrv } 2 \IeC {\textendash } \IeC {\cyrm }\IeC {\cyri }\IeC {\cyrsh }\IeC {\cyre }\IeC {\cyrn }\IeC {\cyrsftsn }, \IeC {\cyri }\IeC {\cyrz }\IeC {\cyrl }\IeC {\cyru }\IeC {\cyrch }\IeC {\cyra }\IeC {\cyryu }\IeC {\cyrshch }\IeC {\cyra }\IeC {\cyrya } \IeC {\cyrg }\IeC {\cyra }\IeC {\cyrm }\IeC {\cyrm }\IeC {\cyra }-\IeC {\cyrk }\IeC {\cyrv }\IeC {\cyra }\IeC {\cyrn }\IeC {\cyrt }\IeC {\cyrery } 3 \IeC {\textendash } \IeC {\cyrg }\IeC {\cyre }\IeC {\cyrn }\IeC {\cyre }\IeC {\cyrr }\IeC {\cyra }\IeC {\cyrt }\IeC {\cyro }\IeC {\cyrr } \IeC {\cyrf }\IeC {\cyro }\IeC {\cyrt }\IeC {\cyro }\IeC {\cyrn }\IeC {\cyro }\IeC {\cyrv } 4 \IeC {\textendash } \IeC {\cyrb }\IeC {\cyre }\IeC {\cyrr }\IeC {\cyri }\IeC {\cyrl }\IeC {\cyrl }\IeC {\cyri }\IeC {\cyre }\IeC {\cyrv }\IeC {\cyra }\IeC {\cyrya } \IeC {\cyrm }\IeC {\cyri }\IeC {\cyrsh }\IeC {\cyre }\IeC {\cyrn }\IeC {\cyrsftsn }, \IeC {\cyro }\IeC {\cyrb }\IeC {\cyrl }\IeC {\cyru }\IeC {\cyrch }\IeC {\cyra }\IeC {\cyre }\IeC {\cyrm }\IeC {\cyra }\IeC {\cyrya } \IeC {\cyrf }\IeC {\cyro }\IeC {\cyrt }\IeC {\cyro }\IeC {\cyrn }\IeC {\cyra }\IeC {\cyrm }\IeC {\cyri }\relax }}{14}}
\@writefile{toc}{\contentsline {subsection}{\numberline {4.10}\IeC {\CYRR }\IeC {\cyre }\IeC {\cyrg }\IeC {\cyri }\IeC {\cyrs }\IeC {\cyrt }\IeC {\cyrr }\IeC {\cyra }\IeC {\cyrc }\IeC {\cyri }\IeC {\cyrya } \IeC {\cyrn }\IeC {\cyre }\IeC {\cyrishrt }\IeC {\cyrt }\IeC {\cyrr }\IeC {\cyro }\IeC {\cyrn }\IeC {\cyro }\IeC {\cyrv }}{14}}
\@writefile{lof}{\contentsline {figure}{\numberline {3}{\ignorespaces 1 \IeC {\textendash } \IeC {\cyri }\IeC {\cyro }\IeC {\cyrn }\IeC {\cyri }\IeC {\cyrz }\IeC {\cyra }\IeC {\cyrc }\IeC {\cyri }\IeC {\cyro }\IeC {\cyrn }\IeC {\cyrn }\IeC {\cyra }\IeC {\cyrya } \IeC {\cyrk }\IeC {\cyra }\IeC {\cyrm }\IeC {\cyre }\IeC {\cyrr }\IeC {\cyra }, \IeC {\cyrs }\IeC {\cyro }\IeC {\cyrd }\IeC {\cyre }\IeC {\cyrr }\IeC {\cyrzh }\IeC {\cyra }\IeC {\cyrshch }\IeC {\cyra }\IeC {\cyrya } \IeC {\cyrm }\IeC {\cyra }\IeC {\cyrt }\IeC {\cyre }\IeC {\cyrr }\IeC {\cyri }\IeC {\cyra }\IeC {\cyrl }\IeC {\cyrery }, \IeC {\cyrv }\IeC {\cyrz }\IeC {\cyra }\IeC {\cyri }\IeC {\cyrm }\IeC {\cyro }\IeC {\cyrd }\IeC {\cyre }\IeC {\cyrishrt }\IeC {\cyrs }\IeC {\cyrt }\IeC {\cyrv }\IeC {\cyru }\IeC {\cyryu }\IeC {\cyrshch }\IeC {\cyri }\IeC {\cyre } \IeC {\cyrs } \IeC {\cyrn }\IeC {\cyre }\IeC {\cyrishrt }\IeC {\cyrt }\IeC {\cyrr }\IeC {\cyro }\IeC {\cyrn }\IeC {\cyra }\IeC {\cyrm }\IeC {\cyri } 2 \IeC {\textendash } \IeC {\cyri }\IeC {\cyro }\IeC {\cyrn }\IeC {\cyri }\IeC {\cyrz }\IeC {\cyra }\IeC {\cyrc }\IeC {\cyri }\IeC {\cyro }\IeC {\cyrn }\IeC {\cyrn }\IeC {\cyra }\IeC {\cyrya } \IeC {\cyrk }\IeC {\cyra }\IeC {\cyrm }\IeC {\cyre }\IeC {\cyrr }\IeC {\cyra }, \IeC {\cyrn }\IeC {\cyre } \IeC {\cyrs }\IeC {\cyro }\IeC {\cyrd }\IeC {\cyre }\IeC {\cyrr }\IeC {\cyrzh }\IeC {\cyra }\IeC {\cyrshch }\IeC {\cyra }\IeC {\cyrya } \IeC {\cyrm }\IeC {\cyra }\IeC {\cyrt }\IeC {\cyre }\IeC {\cyrr }\IeC {\cyri }\IeC {\cyra }\IeC {\cyrl }\IeC {\cyro }\IeC {\cyrv } \IeC {\cyri } \IeC {\cyrs }\IeC {\cyrr }\IeC {\cyre }\IeC {\cyrd }, \IeC {\cyrv }\IeC {\cyrz }\IeC {\cyra }\IeC {\cyri }\IeC {\cyrm }\IeC {\cyro }\IeC {\cyrd }\IeC {\cyre }\IeC {\cyrishrt }\IeC {\cyrs }\IeC {\cyrt }\IeC {\cyrv }\IeC {\cyru }\IeC {\cyryu }\IeC {\cyrshch }\IeC {\cyri }\IeC {\cyrh } \IeC {\cyrs } \IeC {\cyrn }\IeC {\cyre }\IeC {\cyrishrt }\IeC {\cyrt }\IeC {\cyrr }\IeC {\cyro }\IeC {\cyrn }\IeC {\cyra }\IeC {\cyrm }\IeC {\cyri } 3,5 \IeC {\textendash } \IeC {\cyri }\IeC {\cyrs }\IeC {\cyrt }\IeC {\cyro }\IeC {\cyrch }\IeC {\cyrn }\IeC {\cyri }\IeC {\cyrk }\IeC {\cyri } \IeC {\cyrp }\IeC {\cyro }\IeC {\cyrs }\IeC {\cyrt }\IeC {\cyro }\IeC {\cyrya }\IeC {\cyrn }\IeC {\cyrn }\IeC {\cyro }\IeC {\cyrg }\IeC {\cyro } \IeC {\cyrt }\IeC {\cyro }\IeC {\cyrk }\IeC {\cyra } 4 - \IeC {\cyrm }\IeC {\cyri }\IeC {\cyrk }\IeC {\cyrr }\IeC {\cyro }\IeC {\cyra }\IeC {\cyrm }\IeC {\cyrp }\IeC {\cyre }\IeC {\cyrr }\IeC {\cyrm }\IeC {\cyre }\IeC {\cyrt }\IeC {\cyrr }\relax }}{15}}
\@writefile{toc}{\contentsline {section}{\numberline {5}\IeC {\CYRV }\IeC {\cyrz }\IeC {\cyra }\IeC {\cyri }\IeC {\cyrm }\IeC {\cyro }\IeC {\cyrd }\IeC {\cyre }\IeC {\cyrishrt }\IeC {\cyrs }\IeC {\cyrt }\IeC {\cyrv }\IeC {\cyri }\IeC {\cyre } \IeC {\cyrn }\IeC {\cyre }\IeC {\cyrishrt }\IeC {\cyrt }\IeC {\cyrr }\IeC {\cyro }\IeC {\cyrn }\IeC {\cyro }\IeC {\cyrv } \IeC {\cyrs } \IeC {\cyrm }\IeC {\cyra }\IeC {\cyrt }\IeC {\cyre }\IeC {\cyrr }\IeC {\cyri }\IeC {\cyra }\IeC {\cyrl }\IeC {\cyra }\IeC {\cyrm }\IeC {\cyri }}{15}}
\@writefile{toc}{\contentsline {subsection}{\numberline {5.1}\IeC {\CYRM }\IeC {\cyra }\IeC {\cyrk }\IeC {\cyrr }\IeC {\cyro }\IeC {\cyrs }\IeC {\cyrk }\IeC {\cyro }\IeC {\cyrp }\IeC {\cyri }\IeC {\cyrch }\IeC {\cyre }\IeC {\cyrs }\IeC {\cyrk }\IeC {\cyri }\IeC {\cyre } \IeC {\cyrerev }\IeC {\cyrf }\IeC {\cyrf }\IeC {\cyre }\IeC {\cyrk }\IeC {\cyrt }\IeC {\cyri }\IeC {\cyrv }\IeC {\cyrn }\IeC {\cyrery }\IeC {\cyre } \IeC {\cyrs }\IeC {\cyre }\IeC {\cyrch }\IeC {\cyre }\IeC {\cyrn }\IeC {\cyri }\IeC {\cyrya } \IeC {\cyrv }\IeC {\cyrz }\IeC {\cyra }\IeC {\cyri }\IeC {\cyrm }\IeC {\cyro }\IeC {\cyrd }\IeC {\cyre }\IeC {\cyrishrt }\IeC {\cyrs }\IeC {\cyrt }\IeC {\cyrv }\IeC {\cyri }\IeC {\cyrya }}{16}}
\@writefile{toc}{\contentsline {subsection}{\numberline {5.2}\IeC {\CYRP }\IeC {\cyro }\IeC {\cyrg }\IeC {\cyrl }\IeC {\cyro }\IeC {\cyrshch }\IeC {\cyre }\IeC {\cyrn }\IeC {\cyri }\IeC {\cyre } \IeC {\cyrn }\IeC {\cyre }\IeC {\cyrishrt }\IeC {\cyrt }\IeC {\cyrr }\IeC {\cyro }\IeC {\cyrn }\IeC {\cyro }\IeC {\cyrv } \IeC {\cyrv } \IeC {\cyrerev }\IeC {\cyrl }\IeC {\cyre }\IeC {\cyrm }\IeC {\cyre }\IeC {\cyrn }\IeC {\cyrt }\IeC {\cyra }\IeC {\cyrh } \IeC {\cyrs }\IeC {\cyri }\IeC {\cyrs }\IeC {\cyrt }\IeC {\cyre }\IeC {\cyrm }\IeC {\cyrery } \IeC {\cyru }\IeC {\cyrp }\IeC {\cyrr }\IeC {\cyra }\IeC {\cyrv }\IeC {\cyrl }\IeC {\cyre }\IeC {\cyrn }\IeC {\cyri }\IeC {\cyrya } \IeC {\cyri } \IeC {\cyrz }\IeC {\cyra }\IeC {\cyrshch }\IeC {\cyri }\IeC {\cyrt }\IeC {\cyrery } (\IeC {\CYRS }\IeC {\CYRU }\IeC {\CYRZ })}{16}}
\@writefile{toc}{\contentsline {subsection}{\numberline {5.3}\IeC {\CYRR }\IeC {\cyra }\IeC {\cyrs }\IeC {\cyrs }\IeC {\cyre }\IeC {\cyrya }\IeC {\cyrn }\IeC {\cyri }\IeC {\cyre } \IeC {\cyrn }\IeC {\cyre }\IeC {\cyrishrt }\IeC {\cyrt }\IeC {\cyrr }\IeC {\cyro }\IeC {\cyrn }\IeC {\cyro }\IeC {\cyrv } \IeC {\cyrm }\IeC {\cyra }\IeC {\cyrt }\IeC {\cyre }\IeC {\cyrr }\IeC {\cyri }\IeC {\cyra }\IeC {\cyrl }\IeC {\cyra }\IeC {\cyrm }\IeC {\cyri }}{17}}
\@writefile{toc}{\contentsline {subsection}{\numberline {5.4}\IeC {\CYRZ }\IeC {\cyra }\IeC {\cyrm }\IeC {\cyre }\IeC {\cyrd }\IeC {\cyrl }\IeC {\cyre }\IeC {\cyrn }\IeC {\cyri }\IeC {\cyre } \IeC {\cyrn }\IeC {\cyre }\IeC {\cyrishrt }\IeC {\cyrt }\IeC {\cyrr }\IeC {\cyro }\IeC {\cyrn }\IeC {\cyro }\IeC {\cyrv }}{18}}
\@writefile{toc}{\contentsline {subsection}{\numberline {5.5}\IeC {\CYRS }\IeC {\cyrh }\IeC {\cyre }\IeC {\cyrm }\IeC {\cyra } \IeC {\cyrp }\IeC {\cyre }\IeC {\cyrr }\IeC {\cyre }\IeC {\cyrm }\IeC {\cyre }\IeC {\cyrshch }\IeC {\cyre }\IeC {\cyrn }\IeC {\cyri }\IeC {\cyrishrt } \IeC {\cyrn }\IeC {\cyre }\IeC {\cyrishrt }\IeC {\cyrt }\IeC {\cyrr }\IeC {\cyro }\IeC {\cyrn }\IeC {\cyra } \IeC {\cyrv } \IeC {\cyra }\IeC {\cyrk }\IeC {\cyrt }\IeC {\cyri }\IeC {\cyrv }\IeC {\cyrn }\IeC {\cyro }\IeC {\cyrishrt } \IeC {\cyrz }\IeC {\cyro }\IeC {\cyrn }\IeC {\cyre } \IeC {\cyrr }\IeC {\cyre }\IeC {\cyra }\IeC {\cyrk }\IeC {\cyrt }\IeC {\cyro }\IeC {\cyrr }\IeC {\cyra }}{18}}
\@writefile{lof}{\contentsline {figure}{\numberline {4}{\ignorespaces 1 \IeC {\textendash } \IeC {\cyrt }\IeC {\cyro }\IeC {\cyrch }\IeC {\cyrk }\IeC {\cyra } \IeC {\cyrr }\IeC {\cyro }\IeC {\cyrzh }\IeC {\cyrd }\IeC {\cyre }\IeC {\cyrn }\IeC {\cyri }\IeC {\cyrya } \IeC {\cyrb }\IeC {\cyrery }\IeC {\cyrs }\IeC {\cyrt }\IeC {\cyrr }\IeC {\cyro }\IeC {\cyrg }\IeC {\cyro } \IeC {\cyrn }\IeC {\cyre }\IeC {\cyrishrt }\IeC {\cyrt }\IeC {\cyrr }\IeC {\cyro }\IeC {\cyrn }\IeC {\cyra } 2 \IeC {\textendash } \IeC {\cyrt }\IeC {\cyro }\IeC {\cyrch }\IeC {\cyrk }\IeC {\cyra } \IeC {\cyrt }\IeC {\cyre }\IeC {\cyrr }\IeC {\cyrm }\IeC {\cyra }\IeC {\cyrl }\IeC {\cyri }\IeC {\cyrz }\IeC {\cyra }\IeC {\cyrc }\IeC {\cyri }\IeC {\cyri } \IeC {\cyrv } \IeC {\cyrz }\IeC {\cyra }\IeC {\cyrm }\IeC {\cyre }\IeC {\cyrd }\IeC {\cyrl }\IeC {\cyrya }\IeC {\cyryu }\IeC {\cyrshch }\IeC {\cyre }\IeC {\cyrishrt } \IeC {\cyrs }\IeC {\cyrr }\IeC {\cyre }\IeC {\cyrd }\IeC {\cyre } 3 \IeC {\textendash } \IeC {\cyrt }\IeC {\cyro }\IeC {\cyrch }\IeC {\cyrk }\IeC {\cyra } \IeC {\cyrp }\IeC {\cyro }\IeC {\cyrg }\IeC {\cyrl }\IeC {\cyro }\IeC {\cyrshch }\IeC {\cyre }\IeC {\cyrn }\IeC {\cyri }\IeC {\cyrya } \IeC {\cyrn }\IeC {\cyre }\IeC {\cyrishrt }\IeC {\cyrt }\IeC {\cyrr }\IeC {\cyro }\IeC {\cyrn }\IeC {\cyra }\relax }}{19}}
\@writefile{toc}{\contentsline {subsection}{\numberline {5.6}\IeC {\CYRV }\IeC {\cyro }\IeC {\cyrz }\IeC {\cyrr }\IeC {\cyra }\IeC {\cyrs }\IeC {\cyrt } \IeC {\CYRF }\IeC {\cyre }\IeC {\cyrr }\IeC {\cyrm }\IeC {\cyri }}{19}}
\@writefile{toc}{\contentsline {subsection}{\numberline {5.7}\IeC {\CYRP }\IeC {\cyrr }\IeC {\cyro }\IeC {\cyrc }\IeC {\cyre }\IeC {\cyrs }\IeC {\cyrs }\IeC {\cyrery } \IeC {\cyrv } \IeC {\cyrz }\IeC {\cyra }\IeC {\cyrm }\IeC {\cyre }\IeC {\cyrd }\IeC {\cyrl }\IeC {\cyri }\IeC {\cyrt }\IeC {\cyre }\IeC {\cyrl }\IeC {\cyre } \IeC {\cyrn }\IeC {\cyre }\IeC {\cyrishrt }\IeC {\cyrt }\IeC {\cyrr }\IeC {\cyro }\IeC {\cyrn }\IeC {\cyro }\IeC {\cyrv }}{20}}
\@writefile{toc}{\contentsline {subsection}{\numberline {5.8}\IeC {\CYRM }\IeC {\cyra }\IeC {\cyrk }\IeC {\cyrr }\IeC {\cyro }\IeC {\cyrs }\IeC {\cyrk }\IeC {\cyro }\IeC {\cyrp }\IeC {\cyri }\IeC {\cyrch }\IeC {\cyre }\IeC {\cyrs }\IeC {\cyrk }\IeC {\cyra }\IeC {\cyrya } \IeC {\cyrz }\IeC {\cyra }\IeC {\cyrm }\IeC {\cyre }\IeC {\cyrd }\IeC {\cyrl }\IeC {\cyrya }\IeC {\cyryu }\IeC {\cyrshch }\IeC {\cyra }\IeC {\cyrya } \IeC {\cyrs }\IeC {\cyrp }\IeC {\cyro }\IeC {\cyrs }\IeC {\cyro }\IeC {\cyrb }\IeC {\cyrn }\IeC {\cyro }\IeC {\cyrs }\IeC {\cyrt }\IeC {\cyrsftsn }}{20}}
\@writefile{lot}{\contentsline {table}{\numberline {2}{\ignorespaces \IeC {\CYRH }\IeC {\cyra }\IeC {\cyrr }\IeC {\cyra }\IeC {\cyrk }\IeC {\cyrt }\IeC {\cyre }\IeC {\cyrr }\IeC {\cyri }\IeC {\cyrs }\IeC {\cyrt }\IeC {\cyri }\IeC {\cyrk }\IeC {\cyri } \IeC {\cyrzh }\IeC {\cyri }\IeC {\cyrz }\IeC {\cyrn }\IeC {\cyre }\IeC {\cyrn }\IeC {\cyrn }\IeC {\cyro }\IeC {\cyrg }\IeC {\cyro } \IeC {\cyrc }\IeC {\cyri }\IeC {\cyrk }\IeC {\cyrl }\IeC {\cyra } \IeC {\cyrn }\IeC {\cyre }\IeC {\cyrishrt }\IeC {\cyrt }\IeC {\cyrr }\IeC {\cyro }\IeC {\cyrn }\IeC {\cyro }\IeC {\cyrv } \IeC {\cyrs } \IeC {\cyrerev }\IeC {\cyrn }\IeC {\cyre }\IeC {\cyrr }\IeC {\cyrg }\IeC {\cyri }\IeC {\cyre }\IeC {\cyrishrt } $ 0.025 \IeC {\cyrerev }\IeC {\CYRV } $\relax }}{20}}
\@writefile{toc}{\contentsline {subsection}{\numberline {5.9}\IeC {\CYRO }\IeC {\cyrt }\IeC {\cyrr }\IeC {\cyra }\IeC {\cyrzh }\IeC {\cyra }\IeC {\cyrt }\IeC {\cyre }\IeC {\cyrl }\IeC {\cyri } \IeC {\cyrn }\IeC {\cyre }\IeC {\cyrishrt }\IeC {\cyrt }\IeC {\cyrr }\IeC {\cyro }\IeC {\cyrn }\IeC {\cyro }\IeC {\cyrv }}{21}}
\@writefile{toc}{\contentsline {subsection}{\numberline {5.10}\IeC {\CYRF }\IeC {\cyru }\IeC {\cyrn }\IeC {\cyrk }\IeC {\cyrc }\IeC {\cyri }\IeC {\cyrya } \IeC {\cyro }\IeC {\cyrt }\IeC {\cyrr }\IeC {\cyra }\IeC {\cyrzh }\IeC {\cyra }\IeC {\cyrt }\IeC {\cyre }\IeC {\cyrl }\IeC {\cyre }\IeC {\cyrishrt } \IeC {\cyrn }\IeC {\cyre }\IeC {\cyrishrt }\IeC {\cyrt }\IeC {\cyrr }\IeC {\cyro }\IeC {\cyrn }\IeC {\cyro }\IeC {\cyrv }}{21}}
\@writefile{toc}{\contentsline {subsection}{\numberline {5.11}\IeC {\CYRR }\IeC {\cyra }\IeC {\cyrs }\IeC {\cyrp }\IeC {\cyro }\IeC {\cyrl }\IeC {\cyro }\IeC {\cyrzh }\IeC {\cyre }\IeC {\cyrn }\IeC {\cyri }\IeC {\cyre } \IeC {\cyro }\IeC {\cyrt }\IeC {\cyrr }\IeC {\cyra }\IeC {\cyrzh }\IeC {\cyra }\IeC {\cyrt }\IeC {\cyre }\IeC {\cyrl }\IeC {\cyre }\IeC {\cyrishrt } \IeC {\cyrn }\IeC {\cyre }\IeC {\cyrishrt }\IeC {\cyrt }\IeC {\cyrr }\IeC {\cyro }\IeC {\cyrn }\IeC {\cyro }\IeC {\cyrv } \IeC {\cyrv } \IeC {\cyrr }\IeC {\cyre }\IeC {\cyra }\IeC {\cyrk }\IeC {\cyrt }\IeC {\cyro }\IeC {\cyrr }\IeC {\cyre } \IeC {\CYRYA }\IeC {\CYRR }\IeC {\CYRD }}{22}}
\@writefile{lof}{\contentsline {figure}{\numberline {5}{\ignorespaces 1 \IeC {\textendash } \IeC {\cyrt }\IeC {\cyro }\IeC {\cyrr }\IeC {\cyrc }\IeC {\cyre }\IeC {\cyrv }\IeC {\cyro }\IeC {\cyrishrt } \IeC {\cyrv }\IeC {\cyre }\IeC {\cyrr }\IeC {\cyrh }\IeC {\cyrn }\IeC {\cyri }\IeC {\cyrishrt } \IeC {\cyro }\IeC {\cyrt }\IeC {\cyrr }\IeC {\cyra }\IeC {\cyrzh }\IeC {\cyra }\IeC {\cyrt }\IeC {\cyre }\IeC {\cyrl }\IeC {\cyrsftsn } \IeC {\cyrn }\IeC {\cyre }\IeC {\cyrishrt }\IeC {\cyrt }\IeC {\cyrr }\IeC {\cyro }\IeC {\cyrn }\IeC {\cyro }\IeC {\cyrv }, 2 \IeC {\textendash } \IeC {\cyrr }\IeC {\cyra }\IeC {\cyrd }\IeC {\cyri }\IeC {\cyra }\IeC {\cyrl }\IeC {\cyrsftsn }\IeC {\cyrn }\IeC {\cyrery }\IeC {\cyrishrt } \IeC {\cyri }\IeC {\cyrl }\IeC {\cyri } \IeC {\cyrb }\IeC {\cyro }\IeC {\cyrk }\IeC {\cyro }\IeC {\cyrv }\IeC {\cyro }\IeC {\cyrishrt } \IeC {\cyro }\IeC {\cyrt }\IeC {\cyrr }\IeC {\cyra }\IeC {\cyrzh }\IeC {\cyra }\IeC {\cyrt }\IeC {\cyre }\IeC {\cyrl }\IeC {\cyrsftsn } \IeC {\cyrn }\IeC {\cyre }\IeC {\cyrishrt }\IeC {\cyrt }\IeC {\cyrr }\IeC {\cyro }\IeC {\cyrn }\IeC {\cyro }\IeC {\cyrv }, 3 \IeC {\textendash } \IeC {\cyra }\IeC {\cyrk }\IeC {\cyrt }\IeC {\cyri }\IeC {\cyrv }\IeC {\cyrn }\IeC {\cyra }\IeC {\cyrya } \IeC {\cyrz }\IeC {\cyro }\IeC {\cyrn }\IeC {\cyra } \IeC {\cyrr }\IeC {\cyre }\IeC {\cyra }\IeC {\cyrk }\IeC {\cyrt }\IeC {\cyro }\IeC {\cyrr }\IeC {\cyra }, 4 \IeC {\textendash } \IeC {\cyrt }\IeC {\cyro }\IeC {\cyrr }\IeC {\cyrc }\IeC {\cyre }\IeC {\cyrv }\IeC {\cyro }\IeC {\cyrishrt } \IeC {\cyrn }\IeC {\cyri }\IeC {\cyrzh }\IeC {\cyrn }\IeC {\cyri }\IeC {\cyrishrt } \IeC {\cyro }\IeC {\cyrt }\IeC {\cyrr }\IeC {\cyra }\IeC {\cyrzh }\IeC {\cyra }\IeC {\cyrt }\IeC {\cyre }\IeC {\cyrl }\IeC {\cyrsftsn } \IeC {\cyrn }\IeC {\cyre }\IeC {\cyrishrt }\IeC {\cyrt }\IeC {\cyrr }\IeC {\cyro }\IeC {\cyrn }\IeC {\cyro }\IeC {\cyrv }\relax }}{22}}
\@writefile{lot}{\contentsline {table}{\numberline {3}{\ignorespaces \IeC {\CYRN }\IeC {\cyre }\IeC {\cyrishrt }\IeC {\cyrt }\IeC {\cyrr }\IeC {\cyro }\IeC {\cyrn }\IeC {\cyrn }\IeC {\cyro }-\IeC {\cyrf }\IeC {\cyri }\IeC {\cyrz }\IeC {\cyri }\IeC {\cyrch }\IeC {\cyre }\IeC {\cyrs }\IeC {\cyrk }\IeC {\cyri }\IeC {\cyre } \IeC {\cyrh }\IeC {\cyra }\IeC {\cyrr }\IeC {\cyra }\IeC {\cyrk }\IeC {\cyrt }\IeC {\cyre }\IeC {\cyrr }\IeC {\cyri }\IeC {\cyrs }\IeC {\cyrt }\IeC {\cyri }\IeC {\cyrk }\IeC {\cyri } \IeC {\cyrm }\IeC {\cyra }\IeC {\cyrt }\IeC {\cyre }\IeC {\cyrr }\IeC {\cyri }\IeC {\cyra }\IeC {\cyrl }\IeC {\cyro }\IeC {\cyrv } \IeC {\cyro }\IeC {\cyrt }\IeC {\cyrr }\IeC {\cyra }\IeC {\cyrzh }\IeC {\cyra }\IeC {\cyrt }\IeC {\cyre }\IeC {\cyrl }\IeC {\cyrya } \IeC {\cyri } \IeC {\cyrz }\IeC {\cyra }\IeC {\cyrm }\IeC {\cyre }\IeC {\cyrd }\IeC {\cyrl }\IeC {\cyri }\IeC {\cyrt }\IeC {\cyre }\IeC {\cyrl }\IeC {\cyrya }\relax }}{22}}
\@writefile{toc}{\contentsline {section}{\numberline {6}}{22}}
\@writefile{toc}{\contentsline {subsection}{\numberline {6.1}\IeC {\CYRC }\IeC {\cyri }\IeC {\cyrk }\IeC {\cyrl } \IeC {\cyrr }\IeC {\cyra }\IeC {\cyrz }\IeC {\cyrm }\IeC {\cyrn }\IeC {\cyro }\IeC {\cyrzh }\IeC {\cyre }\IeC {\cyrn }\IeC {\cyri }\IeC {\cyrya } \IeC {\cyrn }\IeC {\cyre }\IeC {\cyrishrt }\IeC {\cyrt }\IeC {\cyrr }\IeC {\cyro }\IeC {\cyrn }\IeC {\cyro }\IeC {\cyrv } \IeC {\cyrv } \IeC {\cyrya }\IeC {\cyrd }\IeC {\cyre }\IeC {\cyrr }\IeC {\cyrn }\IeC {\cyro }\IeC {\cyrm } \IeC {\cyrr }\IeC {\cyre }\IeC {\cyra }\IeC {\cyrk }\IeC {\cyrt }\IeC {\cyro }\IeC {\cyrr }\IeC {\cyre }}{23}}
\@writefile{toc}{\contentsline {subsection}{\numberline {6.2}\IeC {\CYRF }\IeC {\cyro }\IeC {\cyrr }\IeC {\cyrm }\IeC {\cyru }\IeC {\cyrl }\IeC {\cyra } \IeC {\cyrch }\IeC {\cyre }\IeC {\cyrt }\IeC {\cyrery }\IeC {\cyrr }\IeC {\cyre }\IeC {\cyrh } \IeC {\cyrs }\IeC {\cyro }\IeC {\cyrm }\IeC {\cyrn }\IeC {\cyro }\IeC {\cyrzh }\IeC {\cyri }\IeC {\cyrt }\IeC {\cyre }\IeC {\cyrl }\IeC {\cyre }\IeC {\cyrishrt }}{23}}
\@writefile{toc}{\contentsline {subsection}{\numberline {6.3}\IeC {\CYRK }\IeC {\cyrr }\IeC {\cyri }\IeC {\cyrt }\IeC {\cyri }\IeC {\cyrch }\IeC {\cyrn }\IeC {\cyro }\IeC {\cyrs }\IeC {\cyrt }\IeC {\cyrsftsn }, \IeC {\cyrp }\IeC {\cyro }\IeC {\cyrd }\IeC {\cyrk }\IeC {\cyrr }\IeC {\cyri }\IeC {\cyrt }\IeC {\cyri }\IeC {\cyrch }\IeC {\cyrn }\IeC {\cyro }\IeC {\cyrs }\IeC {\cyrt }\IeC {\cyrsftsn } \IeC {\cyri } \IeC {\cyrn }\IeC {\cyra }\IeC {\cyrd }\IeC {\cyrk }\IeC {\cyrr }\IeC {\cyri }\IeC {\cyrt }\IeC {\cyri }\IeC {\cyrch }\IeC {\cyrn }\IeC {\cyro }\IeC {\cyrs }\IeC {\cyrt }\IeC {\cyrsftsn } \IeC {\cyra }\IeC {\cyrk }\IeC {\cyrt }\IeC {\cyri }\IeC {\cyrv }\IeC {\cyrn }\IeC {\cyro }\IeC {\cyrishrt } \IeC {\cyrz }\IeC {\cyro }\IeC {\cyrn }\IeC {\cyrery }}{23}}
\@writefile{toc}{\contentsline {subsection}{\numberline {6.4}\IeC {\CYRR }\IeC {\cyre }\IeC {\cyra }\IeC {\cyrk }\IeC {\cyrt }\IeC {\cyri }\IeC {\cyrv }\IeC {\cyrn }\IeC {\cyro }\IeC {\cyrs }\IeC {\cyrt }\IeC {\cyrsftsn } \IeC {\cyrr }\IeC {\cyre }\IeC {\cyra }\IeC {\cyrk }\IeC {\cyrt }\IeC {\cyro }\IeC {\cyrr }\IeC {\cyra }}{24}}
\@writefile{toc}{\contentsline {subsection}{\numberline {6.5}\IeC {\CYREREV }\IeC {\cyrl }\IeC {\cyre }\IeC {\cyrm }\IeC {\cyre }\IeC {\cyrn }\IeC {\cyrt }\IeC {\cyra }\IeC {\cyrr }\IeC {\cyrn }\IeC {\cyro }\IeC {\cyre } \IeC {\cyru }\IeC {\cyrr }\IeC {\cyra }\IeC {\cyrv }\IeC {\cyrn }\IeC {\cyre }\IeC {\cyrn }\IeC {\cyri }\IeC {\cyre } \IeC {\cyrk }\IeC {\cyri }\IeC {\cyrn }\IeC {\cyre }\IeC {\cyrt }\IeC {\cyri }\IeC {\cyrk }\IeC {\cyri } \IeC {\cyrya }\IeC {\cyrd }\IeC {\cyre }\IeC {\cyrr }\IeC {\cyrn }\IeC {\cyro }\IeC {\cyrg }\IeC {\cyro } \IeC {\cyrr }\IeC {\cyre }\IeC {\cyra }\IeC {\cyrk }\IeC {\cyrt }\IeC {\cyro }\IeC {\cyrr }\IeC {\cyra }}{24}}
\@writefile{toc}{\contentsline {subsection}{\numberline {6.6}\IeC {\CYRS }\IeC {\cyra }\IeC {\cyrm }\IeC {\cyro }\IeC {\cyrr }\IeC {\cyre }\IeC {\cyrg }\IeC {\cyru }\IeC {\cyrl }\IeC {\cyri }\IeC {\cyrr }\IeC {\cyru }\IeC {\cyryu }\IeC {\cyrshch }\IeC {\cyri }\IeC {\cyrishrt }\IeC {\cyrs }\IeC {\cyrya } \IeC {\cyrya }\IeC {\cyrd }\IeC {\cyre }\IeC {\cyrr }\IeC {\cyrn }\IeC {\cyrery }\IeC {\cyrishrt } \IeC {\cyrr }\IeC {\cyre }\IeC {\cyra }\IeC {\cyrk }\IeC {\cyrt }\IeC {\cyro }\IeC {\cyrr }}{24}}
\@writefile{toc}{\contentsline {subsection}{\numberline {6.7}\IeC {\CYRV }\IeC {\cyro }\IeC {\cyrz }\IeC {\cyrm }\IeC {\cyro }\IeC {\cyrzh }\IeC {\cyrn }\IeC {\cyrery }\IeC {\cyre } \IeC {\cyrs }\IeC {\cyrh }\IeC {\cyre }\IeC {\cyrm }\IeC {\cyrery } \IeC {\cyrn }\IeC {\cyre }\IeC {\cyrishrt }\IeC {\cyrt }\IeC {\cyrr }\IeC {\cyro }\IeC {\cyrn }\IeC {\cyrn }\IeC {\cyro }-\IeC {\cyrf }\IeC {\cyri }\IeC {\cyrz }\IeC {\cyri }\IeC {\cyrch }\IeC {\cyre }\IeC {\cyrs }\IeC {\cyrk }\IeC {\cyro }\IeC {\cyrg }\IeC {\cyro } \IeC {\cyrr }\IeC {\cyre }\IeC {\cyrg }\IeC {\cyru }\IeC {\cyrl }\IeC {\cyri }\IeC {\cyrr }\IeC {\cyro }\IeC {\cyrv }\IeC {\cyra }\IeC {\cyrn }\IeC {\cyri }\IeC {\cyrya } \IeC {\cyrr }\IeC {\cyre }\IeC {\cyra }\IeC {\cyrk }\IeC {\cyrt }\IeC {\cyro }\IeC {\cyrr }\IeC {\cyra }}{25}}
\@writefile{toc}{\contentsline {subsection}{\numberline {6.8}\IeC {\CYRR }\IeC {\cyre }\IeC {\cyrg }\IeC {\cyru }\IeC {\cyrl }\IeC {\cyri }\IeC {\cyrr }\IeC {\cyro }\IeC {\cyrv }\IeC {\cyra }\IeC {\cyrn }\IeC {\cyri }\IeC {\cyre } \IeC {\cyra }\IeC {\cyrl }\IeC {\cyrsftsn }\IeC {\cyrb }\IeC {\cyre }\IeC {\cyrd }\IeC {\cyra } \IeC {\cyro }\IeC {\cyrt }\IeC {\cyrr }\IeC {\cyra }\IeC {\cyrzh }\IeC {\cyra }\IeC {\cyrt }\IeC {\cyre }\IeC {\cyrl }\IeC {\cyrya } \IeC {\cyrn }\IeC {\cyre }\IeC {\cyrishrt }\IeC {\cyrt }\IeC {\cyrr }\IeC {\cyro }\IeC {\cyrn }\IeC {\cyro }\IeC {\cyrv }}{25}}
\@writefile{toc}{\contentsline {subsection}{\numberline {6.9}\IeC {\CYRR }\IeC {\cyre }\IeC {\cyrg }\IeC {\cyru }\IeC {\cyrl }\IeC {\cyri }\IeC {\cyrr }\IeC {\cyro }\IeC {\cyrv }\IeC {\cyra }\IeC {\cyrn }\IeC {\cyri }\IeC {\cyre } \IeC {\cyrn }\IeC {\cyre }\IeC {\cyrishrt }\IeC {\cyrt }\IeC {\cyrr }\IeC {\cyro }\IeC {\cyrn }\IeC {\cyrn }\IeC {\cyro }\IeC {\cyrg }\IeC {\cyro } \IeC {\cyrp }\IeC {\cyro }\IeC {\cyrt }\IeC {\cyro }\IeC {\cyrk }\IeC {\cyra } \IeC {\cyrv } \IeC {\cyra }\IeC {\cyrk }\IeC {\cyrt }\IeC {\cyri }\IeC {\cyrv }\IeC {\cyrn }\IeC {\cyro }\IeC {\cyrishrt } \IeC {\cyrz }\IeC {\cyro }\IeC {\cyrn }\IeC {\cyre } \IeC {\cyrr }\IeC {\cyre }\IeC {\cyra }\IeC {\cyrk }\IeC {\cyrt }\IeC {\cyro }\IeC {\cyrr }\IeC {\cyra } (\IeC {\cyrp }\IeC {\cyro }\IeC {\cyrg }\IeC {\cyrl }\IeC {\cyro }\IeC {\cyrshch }\IeC {\cyra }\IeC {\cyryu }\IeC {\cyrshch }\IeC {\cyri }\IeC {\cyre } \IeC {\cyrs }\IeC {\cyrt }\IeC {\cyre }\IeC {\cyrr }\IeC {\cyrzh }\IeC {\cyrn }\IeC {\cyri })}{25}}
\@writefile{toc}{\contentsline {subsection}{\numberline {6.10}\IeC {\CYRR }\IeC {\cyre }\IeC {\cyrg }\IeC {\cyru }\IeC {\cyrl }\IeC {\cyri }\IeC {\cyrr }\IeC {\cyro }\IeC {\cyrv }\IeC {\cyra }\IeC {\cyrn }\IeC {\cyri }\IeC {\cyre } \IeC {\cyrn }\IeC {\cyre }\IeC {\cyrishrt }\IeC {\cyrt }\IeC {\cyrr }\IeC {\cyro }\IeC {\cyrn }\IeC {\cyrn }\IeC {\cyro }\IeC {\cyrg }\IeC {\cyro } \IeC {\cyrr }\IeC {\cyre }\IeC {\cyra }\IeC {\cyrk }\IeC {\cyrt }\IeC {\cyro }\IeC {\cyrr }\IeC {\cyra } \IeC {\cyrv } \IeC {\cyra }\IeC {\cyrk }\IeC {\cyrt }\IeC {\cyri }\IeC {\cyrv }\IeC {\cyrn }\IeC {\cyro }\IeC {\cyrishrt } \IeC {\cyrz }\IeC {\cyro }\IeC {\cyrn }\IeC {\cyre } (\IeC {\cyrg }\IeC {\cyra }\IeC {\cyrz }\IeC {\cyro }\IeC {\cyrv }\IeC {\cyrery }\IeC {\cyre } \IeC {\cyrs }\IeC {\cyrt }\IeC {\cyre }\IeC {\cyrr }\IeC {\cyrzh }\IeC {\cyrn }\IeC {\cyri })}{26}}
\@writefile{toc}{\contentsline {subsection}{\numberline {6.11}\IeC {\CYRS }\IeC {\cyrb }\IeC {\cyrr }\IeC {\cyra }\IeC {\cyrs }\IeC {\cyrery }\IeC {\cyrv }\IeC {\cyra }\IeC {\cyre }\IeC {\cyrm }\IeC {\cyrery }\IeC {\cyrishrt } \IeC {\cyro }\IeC {\cyrt }\IeC {\cyrr }\IeC {\cyra }\IeC {\cyrzh }\IeC {\cyra }\IeC {\cyrt }\IeC {\cyre }\IeC {\cyrl }\IeC {\cyrsftsn } \IeC {\cyrn }\IeC {\cyre }\IeC {\cyrishrt }\IeC {\cyrt }\IeC {\cyrr }\IeC {\cyro }\IeC {\cyrn }\IeC {\cyro }\IeC {\cyrv }}{26}}
\@writefile{toc}{\contentsline {section}{\numberline {7}}{26}}
\@writefile{toc}{\contentsline {subsection}{\numberline {7.1}\IeC {\CYRK }\IeC {\cyrr }\IeC {\cyri }\IeC {\cyrt }\IeC {\cyri }\IeC {\cyrch }\IeC {\cyre }\IeC {\cyrs }\IeC {\cyrk }\IeC {\cyro }\IeC {\cyre } \IeC {\cyrs }\IeC {\cyro }\IeC {\cyrs }\IeC {\cyrt }\IeC {\cyro }\IeC {\cyrya }\IeC {\cyrn }\IeC {\cyri }\IeC {\cyre } \IeC {\cyra }\IeC {\cyrk }\IeC {\cyrt }\IeC {\cyri }\IeC {\cyrv }\IeC {\cyrn }\IeC {\cyro }\IeC {\cyrishrt } \IeC {\cyrz }\IeC {\cyro }\IeC {\cyrn }\IeC {\cyrery } \IeC {\cyrr }\IeC {\cyre }\IeC {\cyra }\IeC {\cyrk }\IeC {\cyrt }\IeC {\cyro }\IeC {\cyrr }\IeC {\cyra }}{27}}
\@writefile{toc}{\contentsline {subsection}{\numberline {7.2}\IeC {\CYRU }\IeC {\cyrr }\IeC {\cyra }\IeC {\cyrv }\IeC {\cyrn }\IeC {\cyre }\IeC {\cyrn }\IeC {\cyri }\IeC {\cyre } \IeC {\cyrp }\IeC {\cyro }\IeC {\cyrs }\IeC {\cyrt }\IeC {\cyro }\IeC {\cyrya }\IeC {\cyrn }\IeC {\cyrs }\IeC {\cyrt }\IeC {\cyrv }\IeC {\cyra } \IeC {\cyrk }\IeC {\cyro }\IeC {\cyrn }\IeC {\cyrc }\IeC {\cyre }\IeC {\cyrn }\IeC {\cyrt }\IeC {\cyrr }\IeC {\cyra }\IeC {\cyrc }\IeC {\cyri }\IeC {\cyri } \IeC {\cyrn }\IeC {\cyre }\IeC {\cyrishrt }\IeC {\cyrt }\IeC {\cyrr }\IeC {\cyro }\IeC {\cyrn }\IeC {\cyro }\IeC {\cyrv }}{27}}
\@writefile{toc}{\contentsline {subsection}{\numberline {7.3}\IeC {\CYRU }\IeC {\cyrr }\IeC {\cyra }\IeC {\cyrv }\IeC {\cyrn }\IeC {\cyre }\IeC {\cyrn }\IeC {\cyri }\IeC {\cyre } \IeC {\cyrs }\IeC {\cyro }\IeC {\cyrh }\IeC {\cyrr }\IeC {\cyra }\IeC {\cyrn }\IeC {\cyre }\IeC {\cyrn }\IeC {\cyri }\IeC {\cyrya } \IeC {\cyrn }\IeC {\cyre }\IeC {\cyrishrt }\IeC {\cyrt }\IeC {\cyrr }\IeC {\cyro }\IeC {\cyrn }\IeC {\cyro }\IeC {\cyrv } \IeC {\cyrd }\IeC {\cyrl }\IeC {\cyrya } \IeC {\cyrc }\IeC {\cyri }\IeC {\cyrl }\IeC {\cyri }\IeC {\cyrn }\IeC {\cyrd }\IeC {\cyrr }\IeC {\cyra }}{27}}
\@writefile{toc}{\contentsline {subsection}{\numberline {7.4}\IeC {\CYRG }\IeC {\cyrr }\IeC {\cyra }\IeC {\cyrn }\IeC {\cyri }\IeC {\cyrch }\IeC {\cyrn }\IeC {\cyrery }\IeC {\cyre } \IeC {\cyru }\IeC {\cyrs }\IeC {\cyrl }\IeC {\cyro }\IeC {\cyrv }\IeC {\cyri }\IeC {\cyrya } \IeC {\cyrd }\IeC {\cyrl }\IeC {\cyrya } \IeC {\cyrc }\IeC {\cyri }\IeC {\cyrl }\IeC {\cyri }\IeC {\cyrn }\IeC {\cyrd }\IeC {\cyrr }\IeC {\cyri }\IeC {\cyrch }\IeC {\cyre }\IeC {\cyrs }\IeC {\cyrk }\IeC {\cyro }\IeC {\cyrishrt } \IeC {\cyra }\IeC {\cyrk }\IeC {\cyrt }\IeC {\cyri }\IeC {\cyrv }\IeC {\cyrn }\IeC {\cyro }\IeC {\cyrishrt } \IeC {\cyrz }\IeC {\cyro }\IeC {\cyrn }\IeC {\cyrery }}{28}}
\@writefile{toc}{\contentsline {subsection}{\numberline {7.5}\IeC {\CYRU }\IeC {\cyrch }\IeC {\cyre }\IeC {\cyrt } \IeC {\cyrv }\IeC {\cyrl }\IeC {\cyri }\IeC {\cyrya }\IeC {\cyrn }\IeC {\cyri }\IeC {\cyrya } \IeC {\cyro }\IeC {\cyrt }\IeC {\cyrr }\IeC {\cyra }\IeC {\cyrzh }\IeC {\cyra }\IeC {\cyrt }\IeC {\cyre }\IeC {\cyrl }\IeC {\cyrya } \IeC {\cyrn }\IeC {\cyre }\IeC {\cyrishrt }\IeC {\cyrt }\IeC {\cyrr }\IeC {\cyro }\IeC {\cyrn }\IeC {\cyro }\IeC {\cyrv }}{28}}
\@writefile{toc}{\contentsline {subsection}{\numberline {7.6}\IeC {\CYREREV }\IeC {\cyrf }\IeC {\cyrf }\IeC {\cyre }\IeC {\cyrk }\IeC {\cyrt }\IeC {\cyri }\IeC {\cyrv }\IeC {\cyrn }\IeC {\cyra }\IeC {\cyrya } \IeC {\cyrd }\IeC {\cyro }\IeC {\cyrb }\IeC {\cyra }\IeC {\cyrv }\IeC {\cyrk }\IeC {\cyra }}{28}}
\@writefile{toc}{\contentsline {subsection}{\numberline {7.7}\IeC {\CYRR }\IeC {\cyre }\IeC {\cyrsh }\IeC {\cyre }\IeC {\cyrn }\IeC {\cyri }\IeC {\cyre } \IeC {\cyru }\IeC {\cyrr }\IeC {\cyra }\IeC {\cyrv }\IeC {\cyrn }\IeC {\cyre }\IeC {\cyrn }\IeC {\cyri }\IeC {\cyrya } \IeC {\cyrn }\IeC {\cyre }\IeC {\cyrishrt }\IeC {\cyrt }\IeC {\cyrr }\IeC {\cyro }\IeC {\cyrn }\IeC {\cyro }\IeC {\cyrv } \IeC {\cyrd }\IeC {\cyrl }\IeC {\cyrya } \IeC {\cyrb }\IeC {\cyre }\IeC {\cyrs }\IeC {\cyrk }\IeC {\cyro }\IeC {\cyrn }\IeC {\cyre }\IeC {\cyrch }\IeC {\cyrn }\IeC {\cyro }\IeC {\cyrishrt } \IeC {\cyrp }\IeC {\cyrl }\IeC {\cyra }\IeC {\cyrs }\IeC {\cyrt }\IeC {\cyri }\IeC {\cyrn }\IeC {\cyrery }}{28}}
\@writefile{toc}{\contentsline {subsection}{\numberline {7.8}\IeC {\CYRK }\IeC {\cyro }\IeC {\cyrerev }\IeC {\cyrf }\IeC {\cyrf }\IeC {\cyri }\IeC {\cyrc }\IeC {\cyri }\IeC {\cyre }\IeC {\cyrn }\IeC {\cyrt } \IeC {\cyrr }\IeC {\cyra }\IeC {\cyrz }\IeC {\cyrm }\IeC {\cyrn }\IeC {\cyro }\IeC {\cyrzh }\IeC {\cyre }\IeC {\cyrn }\IeC {\cyri }\IeC {\cyrya } \IeC {\cyrd }\IeC {\cyrl }\IeC {\cyrya } \IeC {\cyra }\IeC {\cyrk }\IeC {\cyrt }\IeC {\cyri }\IeC {\cyrv }\IeC {\cyrn }\IeC {\cyro }\IeC {\cyrishrt } \IeC {\cyrz }\IeC {\cyro }\IeC {\cyrn }\IeC {\cyrery } \IeC {\cyrv } \IeC {\cyrv }\IeC {\cyri }\IeC {\cyrd }\IeC {\cyre } \IeC {\cyrb }\IeC {\cyre }\IeC {\cyrs }\IeC {\cyrk }\IeC {\cyro }\IeC {\cyrn }\IeC {\cyre }\IeC {\cyrch }\IeC {\cyrn }\IeC {\cyro }\IeC {\cyrishrt } \IeC {\cyrp }\IeC {\cyrl }\IeC {\cyra }\IeC {\cyrs }\IeC {\cyrt }\IeC {\cyri }\IeC {\cyrn }\IeC {\cyrery }}{29}}
\@writefile{toc}{\contentsline {subsection}{\numberline {7.9}\IeC {\CYRR }\IeC {\cyre }\IeC {\cyrsh }\IeC {\cyre }\IeC {\cyrn }\IeC {\cyri }\IeC {\cyre } \IeC {\cyru }\IeC {\cyrr }\IeC {\cyra }\IeC {\cyrv }\IeC {\cyrn }\IeC {\cyre }\IeC {\cyrn }\IeC {\cyri }\IeC {\cyrya } \IeC {\cyrs }\IeC {\cyro }\IeC {\cyrh }\IeC {\cyrr }\IeC {\cyra }\IeC {\cyrn }\IeC {\cyre }\IeC {\cyrn }\IeC {\cyri }\IeC {\cyrya } \IeC {\cyrn }\IeC {\cyre }\IeC {\cyrishrt }\IeC {\cyrt }\IeC {\cyrr }\IeC {\cyro }\IeC {\cyrn }\IeC {\cyro }\IeC {\cyrv } \IeC {\cyrd }\IeC {\cyrl }\IeC {\cyrya } \IeC {\cyrb }\IeC {\cyre }\IeC {\cyrs }\IeC {\cyrk }\IeC {\cyro }\IeC {\cyrn }\IeC {\cyre }\IeC {\cyrch }\IeC {\cyrn }\IeC {\cyro }\IeC {\cyrg }\IeC {\cyro } \IeC {\cyrc }\IeC {\cyri }\IeC {\cyrl }\IeC {\cyri }\IeC {\cyrn }\IeC {\cyrd }\IeC {\cyrr }\IeC {\cyra }}{30}}
\@writefile{toc}{\contentsline {subsection}{\numberline {7.10}\IeC {\CYRK }\IeC {\cyro }\IeC {\cyrerev }\IeC {\cyrf }\IeC {\cyrf }\IeC {\cyri }\IeC {\cyrc }\IeC {\cyri }\IeC {\cyre }\IeC {\cyrn }\IeC {\cyrt } \IeC {\cyrr }\IeC {\cyra }\IeC {\cyrz }\IeC {\cyrm }\IeC {\cyrn }\IeC {\cyro }\IeC {\cyrzh }\IeC {\cyre }\IeC {\cyrn }\IeC {\cyri }\IeC {\cyrya } \IeC {\cyrd }\IeC {\cyrl }\IeC {\cyrya } \IeC {\cyra }\IeC {\cyrk }\IeC {\cyrt }\IeC {\cyri }\IeC {\cyrv }\IeC {\cyrn }\IeC {\cyro }\IeC {\cyrishrt } \IeC {\cyrz }\IeC {\cyro }\IeC {\cyrn }\IeC {\cyrery } \IeC {\cyrv } \IeC {\cyrv }\IeC {\cyri }\IeC {\cyrd }\IeC {\cyre } \IeC {\cyrb }\IeC {\cyre }\IeC {\cyrs }\IeC {\cyrk }\IeC {\cyro }\IeC {\cyrn }\IeC {\cyre }\IeC {\cyrch }\IeC {\cyrn }\IeC {\cyro }\IeC {\cyrg }\IeC {\cyro } \IeC {\cyrc }\IeC {\cyri }\IeC {\cyrl }\IeC {\cyri }\IeC {\cyrn }\IeC {\cyrd }\IeC {\cyrr }\IeC {\cyra }}{30}}
\@writefile{toc}{\contentsline {section}{\numberline {8}}{30}}
\@writefile{toc}{\contentsline {subsection}{\numberline {8.1}\IeC {\CYRR }\IeC {\cyre }\IeC {\cyrsh }\IeC {\cyre }\IeC {\cyrn }\IeC {\cyri }\IeC {\cyre } \IeC {\cyru }\IeC {\cyrr }\IeC {\cyra }\IeC {\cyrv }\IeC {\cyrn }\IeC {\cyre }\IeC {\cyrn }\IeC {\cyri }\IeC {\cyrya } \IeC {\cyrs }\IeC {\cyro }\IeC {\cyrh }\IeC {\cyrr }\IeC {\cyra }\IeC {\cyrn }\IeC {\cyre }\IeC {\cyrn }\IeC {\cyri }\IeC {\cyrya } \IeC {\cyrk }\IeC {\cyro }\IeC {\cyrl }\IeC {\cyri }\IeC {\cyrch }\IeC {\cyre }\IeC {\cyrs }\IeC {\cyrt }\IeC {\cyrv }\IeC {\cyra } \IeC {\cyrn }\IeC {\cyra }\IeC {\cyrishrt }\IeC {\cyrt }\IeC {\cyrr }\IeC {\cyro }\IeC {\cyrn }\IeC {\cyro }\IeC {\cyrv } \IeC {\cyrd }\IeC {\cyrl }\IeC {\cyrya } \IeC {\cyrc }\IeC {\cyri }\IeC {\cyrl }\IeC {\cyri }\IeC {\cyrn }\IeC {\cyrd }\IeC {\cyrr }\IeC {\cyra } \IeC {\cyrk }\IeC {\cyro }\IeC {\cyrn }\IeC {\cyre }\IeC {\cyrch }\IeC {\cyrn }\IeC {\cyrery }\IeC {\cyrh } \IeC {\cyrr }\IeC {\cyra }\IeC {\cyrz }\IeC {\cyrm }\IeC {\cyre }\IeC {\cyrr }\IeC {\cyro }\IeC {\cyrv }}{31}}
\@writefile{toc}{\contentsline {subsection}{\numberline {8.2}\IeC {\CYRU }\IeC {\cyrs }\IeC {\cyrl }\IeC {\cyro }\IeC {\cyrv }\IeC {\cyri }\IeC {\cyre } \IeC {\cyrk }\IeC {\cyrr }\IeC {\cyri }\IeC {\cyrt }\IeC {\cyri }\IeC {\cyrch }\IeC {\cyrn }\IeC {\cyro }\IeC {\cyrs }\IeC {\cyrt }\IeC {\cyri } \IeC {\cyra }\IeC {\cyrk }\IeC {\cyrt }\IeC {\cyri }\IeC {\cyrv }\IeC {\cyrn }\IeC {\cyro }\IeC {\cyrishrt } \IeC {\cyrz }\IeC {\cyro }\IeC {\cyrn }\IeC {\cyrery } \IeC {\cyrv } \IeC {\cyrv }\IeC {\cyri }\IeC {\cyrd }\IeC {\cyre } \IeC {\cyrc }\IeC {\cyri }\IeC {\cyrl }\IeC {\cyri }\IeC {\cyrn }\IeC {\cyrd }\IeC {\cyrr }\IeC {\cyra } \IeC {\cyrk }\IeC {\cyro }\IeC {\cyrn }\IeC {\cyre }\IeC {\cyrch }\IeC {\cyrn }\IeC {\cyrery }\IeC {\cyrh } \IeC {\cyrr }\IeC {\cyra }\IeC {\cyrz }\IeC {\cyrm }\IeC {\cyre }\IeC {\cyrr }\IeC {\cyro }\IeC {\cyrv }}{31}}
\@writefile{toc}{\contentsline {subsection}{\numberline {8.3}\IeC {\CYRV }\IeC {\cyrl }\IeC {\cyri }\IeC {\cyrya }\IeC {\cyrn }\IeC {\cyri }\IeC {\cyre } \IeC {\cyrr }\IeC {\cyra }\IeC {\cyrz }\IeC {\cyrm }\IeC {\cyre }\IeC {\cyrr }\IeC {\cyro }\IeC {\cyrv } \IeC {\cyra }\IeC {\cyrk }\IeC {\cyrt }\IeC {\cyri }\IeC {\cyrv }\IeC {\cyrn }\IeC {\cyro }\IeC {\cyrishrt } \IeC {\cyrz }\IeC {\cyro }\IeC {\cyrn }\IeC {\cyrery } \IeC {\cyrn }\IeC {\cyra } \IeC {\cyre }\IeC {\cyre } \IeC {\cyrk }\IeC {\cyrr }\IeC {\cyri }\IeC {\cyrt }\IeC {\cyri }\IeC {\cyrch }\IeC {\cyrn }\IeC {\cyro }\IeC {\cyrs }\IeC {\cyrt }\IeC {\cyrsftsn }}{31}}
\@writefile{toc}{\contentsline {subsection}{\numberline {8.4}\IeC {\CYRV }\IeC {\cyrl }\IeC {\cyri }\IeC {\cyrya }\IeC {\cyrn }\IeC {\cyri }\IeC {\cyre } \IeC {\cyrs }\IeC {\cyro }\IeC {\cyrs }\IeC {\cyrt }\IeC {\cyra }\IeC {\cyrv }\IeC {\cyra } \IeC {\cyra }\IeC {\cyrk }\IeC {\cyrt }\IeC {\cyri }\IeC {\cyrv }\IeC {\cyrn }\IeC {\cyro }\IeC {\cyrishrt } \IeC {\cyrz }\IeC {\cyro }\IeC {\cyrn }\IeC {\cyrery } \IeC {\cyrn }\IeC {\cyra } \IeC {\cyre }\IeC {\cyryo } \IeC {\cyrk }\IeC {\cyrr }\IeC {\cyri }\IeC {\cyrt }\IeC {\cyri }\IeC {\cyrch }\IeC {\cyrn }\IeC {\cyro }\IeC {\cyrs }\IeC {\cyrt }\IeC {\cyrsftsn }}{32}}
