# Fdb version 3
["pdflatex"] 1553683398 "otrabota.tex" "otrabota.pdf" "otrabota" 1553683398
  "../latex/preams/aliases.tex" 1553683192 1806 af13da81281f6154d5a409176a7f6b04 ""
  "../latex/preams/commands.tex" 1553683192 3776 9b5e0caf123ce0c340c7bbb1287dad8b ""
  "../latex/preams/page_style/default.tex" 1553683192 606 4e5de6c5c80d3829a2514ee16dc839ae ""
  "../latex/preams/pream.tex" 1553683192 2307 1986bf737d04a980954323098a57a045 ""
  "../latex/preams/title_style/lecture.tex" 1553683192 526 6163488972860637e762f1d33d43ce59 ""
  "/etc/texmf/web2c/texmf.cnf" 1550050893 475 c0e671620eb5563b2130f56340a5fde8 ""
  "/home/ndgorelov/.texlive2016/texmf-var/fonts/tfm/lh/lh-t2a/labi1200.tfm" 1553683249 3592 9415307df98650ffeddaa22e262436dc ""
  "/home/ndgorelov/.texlive2016/texmf-var/fonts/tfm/lh/lh-t2a/labx1200.tfm" 1553683232 3308 eee81981029f67083258db36df06e523 ""
  "/home/ndgorelov/.texlive2016/texmf-var/fonts/tfm/lh/lh-t2a/labx1440.tfm" 1553683245 3304 6a543c07045572737981351171e0505e ""
  "/home/ndgorelov/.texlive2016/texmf-var/fonts/tfm/lh/lh-t2a/labx1728.tfm" 1553683229 3312 d199be9bd555944e2403193d58a0256a ""
  "/home/ndgorelov/.texlive2016/texmf-var/fonts/tfm/lh/lh-t2a/labx2074.tfm" 1553683222 3316 0992aa03d0c75498a0b6fb905d9eaab6 ""
  "/home/ndgorelov/.texlive2016/texmf-var/fonts/tfm/lh/lh-t2a/larm0500.tfm" 1553683252 3252 bc0f8cc163ba94bbce20e59f671a255d ""
  "/home/ndgorelov/.texlive2016/texmf-var/fonts/tfm/lh/lh-t2a/larm0600.tfm" 1553683239 3248 7c0b9d76a2cd84ed06764a4c6eea5de4 ""
  "/home/ndgorelov/.texlive2016/texmf-var/fonts/tfm/lh/lh-t2a/larm0700.tfm" 1553683219 3256 b15a2ce2310c0038b96c5235b038f0eb ""
  "/home/ndgorelov/.texlive2016/texmf-var/fonts/tfm/lh/lh-t2a/larm0800.tfm" 1553683235 3240 04766e423166ba63b7fbbf132b8618cb ""
  "/home/ndgorelov/.texlive2016/texmf-var/fonts/tfm/lh/lh-t2a/larm1000.tfm" 1553683215 3220 0e417eaf233b160335902e97259a6c77 ""
  "/home/ndgorelov/.texlive2016/texmf-var/fonts/tfm/lh/lh-t2a/larm1200.tfm" 1553683204 3240 c2435f2b5cd66d4930bc29b8df87967e ""
  "/home/ndgorelov/.texlive2016/texmf-var/fonts/tfm/lh/lh-t2a/larm1440.tfm" 1553683212 3256 3daaa33cf35cf3f354983aa3214ecd7f ""
  "/home/ndgorelov/.texlive2016/texmf-var/fonts/tfm/lh/lh-t2a/larm1728.tfm" 1553683225 3252 92d08740ce00199d6cf9ff4aaada81d1 ""
  "/home/ndgorelov/.texlive2016/texmf-var/fonts/tfm/lh/lh-t2a/larm2074.tfm" 1553683208 3264 03c2b9e4787a40d3b9c197c38b93b558 ""
  "/home/ndgorelov/.texlive2016/texmf-var/fonts/tfm/lh/lh-t2a/lati1200.tfm" 1553683242 3512 f3a56cfe95a159371df20f73d1eb107d ""
  "/usr/share/texlive/texmf-dist/fonts/map/fontname/texfonts.map" 1272929888 3287 e6b82fe08f5336d4d5ebc73fb1152e87 ""
  "/usr/share/texlive/texmf-dist/fonts/tfm/public/amsfonts/cmextra/cmex7.tfm" 1246382020 1004 54797486969f23fa377b128694d548df ""
  "/usr/share/texlive/texmf-dist/fonts/tfm/public/amsfonts/cmextra/cmex8.tfm" 1246382020 988 bdf658c3bfc2d96d3c8b02cfc1c94c20 ""
  "/usr/share/texlive/texmf-dist/fonts/tfm/public/amsfonts/symbols/msam10.tfm" 1246382020 916 f87d7c45f9c908e672703b83b72241a3 ""
  "/usr/share/texlive/texmf-dist/fonts/tfm/public/amsfonts/symbols/msam5.tfm" 1246382020 924 9904cf1d39e9767e7a3622f2a125a565 ""
  "/usr/share/texlive/texmf-dist/fonts/tfm/public/amsfonts/symbols/msam7.tfm" 1246382020 928 2dc8d444221b7a635bb58038579b861a ""
  "/usr/share/texlive/texmf-dist/fonts/tfm/public/amsfonts/symbols/msbm10.tfm" 1246382020 908 2921f8a10601f252058503cc6570e581 ""
  "/usr/share/texlive/texmf-dist/fonts/tfm/public/amsfonts/symbols/msbm5.tfm" 1246382020 940 75ac932a52f80982a9f8ea75d03a34cf ""
  "/usr/share/texlive/texmf-dist/fonts/tfm/public/amsfonts/symbols/msbm7.tfm" 1246382020 940 228d6584342e91276bf566bcf9716b83 ""
  "/usr/share/texlive/texmf-dist/fonts/tfm/public/cm/cmex10.tfm" 1136768653 992 662f679a0b3d2d53c1b94050fdaa3f50 ""
  "/usr/share/texlive/texmf-dist/fonts/tfm/public/cm/cmmi12.tfm" 1136768653 1524 4414a8315f39513458b80dfc63bff03a ""
  "/usr/share/texlive/texmf-dist/fonts/tfm/public/cm/cmmi6.tfm" 1136768653 1512 f21f83efb36853c0b70002322c1ab3ad ""
  "/usr/share/texlive/texmf-dist/fonts/tfm/public/cm/cmmi8.tfm" 1136768653 1520 eccf95517727cb11801f4f1aee3a21b4 ""
  "/usr/share/texlive/texmf-dist/fonts/tfm/public/cm/cmr12.tfm" 1136768653 1288 655e228510b4c2a1abe905c368440826 ""
  "/usr/share/texlive/texmf-dist/fonts/tfm/public/cm/cmr6.tfm" 1136768653 1300 b62933e007d01cfd073f79b963c01526 ""
  "/usr/share/texlive/texmf-dist/fonts/tfm/public/cm/cmr8.tfm" 1136768653 1292 21c1c5bfeaebccffdb478fd231a0997d ""
  "/usr/share/texlive/texmf-dist/fonts/tfm/public/cm/cmsy10.tfm" 1136768653 1124 6c73e740cf17375f03eec0ee63599741 ""
  "/usr/share/texlive/texmf-dist/fonts/tfm/public/cm/cmsy6.tfm" 1136768653 1116 933a60c408fc0a863a92debe84b2d294 ""
  "/usr/share/texlive/texmf-dist/fonts/tfm/public/cm/cmsy8.tfm" 1136768653 1120 8b7d695260f3cff42e636090a8002094 ""
  "/usr/share/texlive/texmf-dist/fonts/tfm/public/rsfs/rsfs10.tfm" 1229303445 688 37338d6ab346c2f1466b29e195316aa4 ""
  "/usr/share/texlive/texmf-dist/fonts/tfm/public/rsfs/rsfs5.tfm" 1229303445 684 3a51bd4fd9600428d5264cf25f04bb9a ""
  "/usr/share/texlive/texmf-dist/fonts/tfm/public/rsfs/rsfs7.tfm" 1229303445 692 1b6510779f0f05e9cbf03e0f6c8361e6 ""
  "/usr/share/texlive/texmf-dist/fonts/type1/public/amsfonts/cm/cmex10.pfb" 1248133631 30251 6afa5cb1d0204815a708a080681d4674 ""
  "/usr/share/texlive/texmf-dist/fonts/type1/public/amsfonts/cm/cmmi12.pfb" 1248133631 36741 fa121aac0049305630cf160b86157ee4 ""
  "/usr/share/texlive/texmf-dist/fonts/type1/public/amsfonts/cm/cmmi8.pfb" 1248133631 35469 70d41d2b9ea31d5d813066df7c99281c ""
  "/usr/share/texlive/texmf-dist/fonts/type1/public/amsfonts/cm/cmr12.pfb" 1248133631 32722 d7379af29a190c3f453aba36302ff5a9 ""
  "/usr/share/texlive/texmf-dist/fonts/type1/public/amsfonts/cm/cmr6.pfb" 1248133631 32734 69e00a6b65cedb993666e42eedb3d48f ""
  "/usr/share/texlive/texmf-dist/fonts/type1/public/amsfonts/cm/cmr8.pfb" 1248133631 32726 0a1aea6fcd6468ee2cf64d891f5c43c8 ""
  "/usr/share/texlive/texmf-dist/fonts/type1/public/amsfonts/cm/cmsy10.pfb" 1248133631 32569 5e5ddc8df908dea60932f3c484a54c0d ""
  "/usr/share/texlive/texmf-dist/fonts/type1/public/amsfonts/cm/cmsy8.pfb" 1248133631 32626 4f5c1b83753b1dd3a97d1b399a005b4b ""
  "/usr/share/texlive/texmf-dist/tex/context/base/mkii/supp-pdf.mkii" 1461363279 71627 94eb9990bed73c364d7f53f960cc8c5b ""
  "/usr/share/texlive/texmf-dist/tex/generic/babel-english/english.ldf" 1367878877 6963 2e0cb3d93aa64508bdb0db58ae900d97 ""
  "/usr/share/texlive/texmf-dist/tex/generic/babel-russian/russianb.ldf" 1483743665 23879 bf8cbf1c49a3a415578b92b3211ab0c0 ""
  "/usr/share/texlive/texmf-dist/tex/generic/babel/babel.def" 1461448269 50112 8190990703f12b57db0dfe9b839e1e24 ""
  "/usr/share/texlive/texmf-dist/tex/generic/babel/babel.sty" 1461448269 13499 2379954ebbdf3db89eccb32499d2da36 ""
  "/usr/share/texlive/texmf-dist/tex/generic/ifxetex/ifxetex.sty" 1284331290 1458 43ab4710dc82f3edeabecd0d099626b2 ""
  "/usr/share/texlive/texmf-dist/tex/generic/oberdiek/etexcmds.sty" 1463608860 7612 729a8cc22a1ee0029997c7f74717ae05 ""
  "/usr/share/texlive/texmf-dist/tex/generic/oberdiek/ifluatex.sty" 1463608860 7324 2310d1247db0114eb4726807c8837a0e ""
  "/usr/share/texlive/texmf-dist/tex/generic/oberdiek/ifpdf.sty" 1463348357 1226 01a89dfef361f60ae7df13cd2946bc16 ""
  "/usr/share/texlive/texmf-dist/tex/generic/oberdiek/ifvtex.sty" 1463608860 6797 90b7f83b0ad46826bc16058b1e3d48df ""
  "/usr/share/texlive/texmf-dist/tex/generic/oberdiek/infwarerr.sty" 1463608860 8253 473e0e41f9adadb1977e8631b8f72ea6 ""
  "/usr/share/texlive/texmf-dist/tex/generic/oberdiek/kvdefinekeys.sty" 1463608860 5152 b67a3a964ad9851e095110c854a1d461 ""
  "/usr/share/texlive/texmf-dist/tex/generic/oberdiek/kvsetkeys.sty" 1463608860 14040 ac8866aac45982ac84021584b0abb252 ""
  "/usr/share/texlive/texmf-dist/tex/generic/oberdiek/ltxcmds.sty" 1463608860 18425 5b3c0c59d76fac78978b5558e83c1f36 ""
  "/usr/share/texlive/texmf-dist/tex/generic/oberdiek/pdftexcmds.sty" 1465595255 20115 901306eb5d88a0bb40b00d0ce4448e2f ""
  "/usr/share/texlive/texmf-dist/tex/generic/unicode-data/CaseFolding.txt" 1466630993 78161 e3fbf2f626f10070000fe66f3a2ff5ef ""
  "/usr/share/texlive/texmf-dist/tex/generic/unicode-data/SpecialCasing.txt" 1466630993 16830 fea30f45a2f81ffa474fd984d297e2ea ""
  "/usr/share/texlive/texmf-dist/tex/generic/unicode-data/UnicodeData.txt" 1466630993 1686443 dde25b1cf9bbb4ba1140ac12e4128b0b ""
  "/usr/share/texlive/texmf-dist/tex/latex/amscls/amsthm.sty" 1428861406 12225 3cca0d18522255979a1047206228b9d0 ""
  "/usr/share/texlive/texmf-dist/tex/latex/amsfonts/amsfonts.sty" 1359763108 5949 3f3fd50a8cc94c3d4cbf4fc66cd3df1c ""
  "/usr/share/texlive/texmf-dist/tex/latex/amsfonts/amssymb.sty" 1359763108 13829 94730e64147574077f8ecfea9bb69af4 ""
  "/usr/share/texlive/texmf-dist/tex/latex/amsfonts/euscript.sty" 1359763108 1319 275cecae59b75cbd38ce73df76acdb23 ""
  "/usr/share/texlive/texmf-dist/tex/latex/amsfonts/umsa.fd" 1359763108 961 6518c6525a34feb5e8250ffa91731cff ""
  "/usr/share/texlive/texmf-dist/tex/latex/amsfonts/umsb.fd" 1359763108 961 d02606146ba5601b5645f987c92e6193 ""
  "/usr/share/texlive/texmf-dist/tex/latex/amsmath/amsbsy.sty" 1480098820 2210 5c54ab129b848a5071554186d0168766 ""
  "/usr/share/texlive/texmf-dist/tex/latex/amsmath/amsgen.sty" 1480098820 4160 c115536cf8d4ff25aa8c1c9bc4ecb79a ""
  "/usr/share/texlive/texmf-dist/tex/latex/amsmath/amsmath.sty" 1485129665 84329 81aa65c5042562f79cb421feff9b8bdc ""
  "/usr/share/texlive/texmf-dist/tex/latex/amsmath/amsopn.sty" 1480098820 4115 318a66090112f3aa3f415aeb6fe8540f ""
  "/usr/share/texlive/texmf-dist/tex/latex/amsmath/amstext.sty" 1480098820 2431 fe3078ec12fc30287f568596f8e0b948 ""
  "/usr/share/texlive/texmf-dist/tex/latex/base/article.cls" 1480098821 19821 310da678527a7dfe2a02c88af38079b7 ""
  "/usr/share/texlive/texmf-dist/tex/latex/base/fontenc.sty" 1488610416 4571 9038da8f43b184392cf48183aeb91e1a ""
  "/usr/share/texlive/texmf-dist/tex/latex/base/inputenc.sty" 1480098821 4732 d63eda807ac82cca2ca8488efd31a966 ""
  "/usr/share/texlive/texmf-dist/tex/latex/base/omscmr.fd" 1480098821 2256 80ce1168fb4ce6a85583a9cf8972c013 ""
  "/usr/share/texlive/texmf-dist/tex/latex/base/omsenc.dfu" 1488610416 2004 ac51aeac484f08c01026120d62677eca ""
  "/usr/share/texlive/texmf-dist/tex/latex/base/ot1enc.dfu" 1488610416 3181 1cb3e9ad01f4a01127b2ffd821bfeec7 ""
  "/usr/share/texlive/texmf-dist/tex/latex/base/size12.clo" 1480098821 8303 1d67e16498f00f63da792fab169302fc ""
  "/usr/share/texlive/texmf-dist/tex/latex/base/t1enc.dfu" 1488610416 11255 9d97362866549d3d3c994b5f28d1b9b5 ""
  "/usr/share/texlive/texmf-dist/tex/latex/base/t2aenc.dfu" 1488610416 9436 974c01d03e7c6832bde4076474f21ca1 ""
  "/usr/share/texlive/texmf-dist/tex/latex/base/utf8.def" 1488610416 7784 325a2a09984cb5c4ff230f9867145ad3 ""
  "/usr/share/texlive/texmf-dist/tex/latex/caption/caption.sty" 1456094605 66233 8b81cfab95a1f8fc2f0f6c89415b087a ""
  "/usr/share/texlive/texmf-dist/tex/latex/caption/caption3.sty" 1465747931 64866 1ea74c5f2d1685881497f021b8f186b2 ""
  "/usr/share/texlive/texmf-dist/tex/latex/caption/subcaption.sty" 1465747931 5038 413302044f9700cf65465d590c2f4ad1 ""
  "/usr/share/texlive/texmf-dist/tex/latex/chemgreek/chemgreek.sty" 1482274864 47119 53e7e2ca71e5a41edbb81f6c1875f9f7 ""
  "/usr/share/texlive/texmf-dist/tex/latex/chngcntr/chngcntr.sty" 1252025909 4063 effd8d02c8357a7a1b0c045c4e25e292 ""
  "/usr/share/texlive/texmf-dist/tex/latex/cmap/cmap.sty" 1215522782 2883 427a7f7cb58418a0394dbd85c80668f6 ""
  "/usr/share/texlive/texmf-dist/tex/latex/cmap/ot1.cmap" 1177721415 1207 4e0d96772f0d338847cbfb4eca683c81 ""
  "/usr/share/texlive/texmf-dist/tex/latex/cmap/t2a.cmap" 1215522782 1872 8a484407d6912048284390d9f7606e28 ""
  "/usr/share/texlive/texmf-dist/tex/latex/cyrillic/t2acmr.fd" 1428932888 2350 aea5ec15a9fc621f63498b8910478706 ""
  "/usr/share/texlive/texmf-dist/tex/latex/cyrillic/t2aenc.def" 1428932888 12040 8e32bd761154bb49de9af8d0164b52dc ""
  "/usr/share/texlive/texmf-dist/tex/latex/epigraph/epigraph.sty" 1252025458 4493 37cd2a99f1ea97dde5b8561155682d0e ""
  "/usr/share/texlive/texmf-dist/tex/latex/fancyhdr/fancyhdr.sty" 1473197494 22494 ab2f238426db63334832f85a72ef1f3b ""
  "/usr/share/texlive/texmf-dist/tex/latex/geometry/geometry.sty" 1284422013 40502 e003406220954b0716679d7928aedd8a ""
  "/usr/share/texlive/texmf-dist/tex/latex/graphics-cfg/color.cfg" 1459978653 1213 620bba36b25224fa9b7e1ccb4ecb76fd ""
  "/usr/share/texlive/texmf-dist/tex/latex/graphics-cfg/graphics.cfg" 1465944070 1224 978390e9c2234eab29404bc21b268d1e ""
  "/usr/share/texlive/texmf-dist/tex/latex/graphics-def/pdftex.def" 1485129666 58250 3792a9d2d1d664ee8c742498e295b051 ""
  "/usr/share/texlive/texmf-dist/tex/latex/graphics/graphics.sty" 1485129665 14574 2878810b0466da67e0d0ab10fdd2f6ff ""
  "/usr/share/texlive/texmf-dist/tex/latex/graphics/graphicx.sty" 1480098830 8125 557ab9f1bfa80d369fb45a914aa8a3b4 ""
  "/usr/share/texlive/texmf-dist/tex/latex/graphics/keyval.sty" 1480098830 2594 d18d5e19aa8239cf867fa670c556d2e9 ""
  "/usr/share/texlive/texmf-dist/tex/latex/graphics/trig.sty" 1480098830 3980 0a268fbfda01e381fa95821ab13b6aee ""
  "/usr/share/texlive/texmf-dist/tex/latex/jknapltx/mathrsfs.sty" 1137110241 300 12fa6f636b617656f2810ee82cb05015 ""
  "/usr/share/texlive/texmf-dist/tex/latex/jknapltx/ursfs.fd" 1137110241 548 cc4e3557704bfed27c7002773fad6c90 ""
  "/usr/share/texlive/texmf-dist/tex/latex/l3experimental/l3str/l3flag.sty" 1479855016 3761 96e3165bf031d706dbe6e4ae1256e758 ""
  "/usr/share/texlive/texmf-dist/tex/latex/l3experimental/l3str/l3regex.sty" 1479855016 97880 1b84565e6dfad83ec073a371d9365a7a ""
  "/usr/share/texlive/texmf-dist/tex/latex/l3experimental/l3str/l3str-convert.sty" 1476909457 21594 f3d5ec7469082b517c36b999a39549f9 ""
  "/usr/share/texlive/texmf-dist/tex/latex/l3experimental/l3str/l3tl-analysis.sty" 1476909457 14852 9e2e2c077ca854e1ea09780e4ffb8a01 ""
  "/usr/share/texlive/texmf-dist/tex/latex/l3experimental/l3str/l3tl-build.sty" 1479855016 4276 8623e1acd7e5baa63331b2515dda0e7a ""
  "/usr/share/texlive/texmf-dist/tex/latex/l3kernel/expl3-code.tex" 1479855016 699007 63c8044940f00369800dd78d8055db99 ""
  "/usr/share/texlive/texmf-dist/tex/latex/l3kernel/expl3.sty" 1479855016 10238 835a9e47ba69af609679d5abf657cfaf ""
  "/usr/share/texlive/texmf-dist/tex/latex/l3kernel/l3pdfmode.def" 1476909500 11199 4171493874042bbbacba0e3c76eaa3b9 ""
  "/usr/share/texlive/texmf-dist/tex/latex/l3packages/l3keys2e/l3keys2e.sty" 1479855016 5558 364ed877056e2d25cf7e8b98b0106c10 ""
  "/usr/share/texlive/texmf-dist/tex/latex/l3packages/xparse/xparse.sty" 1479855016 61747 bc8d4b271647fcbab6a9323c6e413fdc ""
  "/usr/share/texlive/texmf-dist/tex/latex/latexconfig/epstopdf-sys.cfg" 1279039959 678 4792914a8f45be57bb98413425e4c7af ""
  "/usr/share/texlive/texmf-dist/tex/latex/marginnote/marginnote.sty" 1477086085 13505 4d83c5a1bad6c014b6c613c462c4e558 ""
  "/usr/share/texlive/texmf-dist/tex/latex/mathtools/mathtools.sty" 1447366689 52544 230bee00b51474565531682f2222a2d9 ""
  "/usr/share/texlive/texmf-dist/tex/latex/mathtools/mhsetup.sty" 1407448394 5175 696879833890ce832e12746d98d0e932 ""
  "/usr/share/texlive/texmf-dist/tex/latex/mhchem/mhchem.sty" 1484694065 133601 bf0105e4b55a3738925f5e15a2f9bb17 ""
  "/usr/share/texlive/texmf-dist/tex/latex/mmap/oml.cmap" 1215649417 1866 c1c12138091b4a8edd4a24a940e6f792 ""
  "/usr/share/texlive/texmf-dist/tex/latex/mmap/oms.cmap" 1215649417 2370 3b1f71b14b974f07cef532db09ae9ee0 ""
  "/usr/share/texlive/texmf-dist/tex/latex/mmap/omx.cmap" 1215649417 3001 252c8ca42b06a22cb1a11c0e47790c6e ""
  "/usr/share/texlive/texmf-dist/tex/latex/multirow/multirow.sty" 1480201744 5015 cd8d25106b58dfc16af57528a07d0bc9 ""
  "/usr/share/texlive/texmf-dist/tex/latex/oberdiek/epstopdf-base.sty" 1463608860 12095 5337833c991d80788a43d3ce26bd1c46 ""
  "/usr/share/texlive/texmf-dist/tex/latex/oberdiek/grfext.sty" 1463608860 7075 2fe3d848bba95f139de11ded085e74aa ""
  "/usr/share/texlive/texmf-dist/tex/latex/oberdiek/kvoptions.sty" 1463608860 22417 1d9df1eb66848aa31b18a593099cf45c ""
  "/usr/share/texlive/texmf-dist/tex/latex/t2/mathtext.sty" 1137110910 4343 49ccf6e6f0927f24f20b51a6aaa48261 ""
  "/usr/share/texlive/texmf-dist/tex/latex/titlesec/titlesec.sty" 1458858524 37387 afa86533e532701faf233f3f592c61e0 ""
  "/usr/share/texlive/texmf-dist/tex/latex/titlesec/ttlkeys.def" 1458858524 3476 5840a38d3fbbea105c892be7110502b8 ""
  "/usr/share/texlive/texmf-dist/tex/latex/tools/array.sty" 1485129666 12396 d41f82b039f900e95f351e54ae740f31 ""
  "/usr/share/texlive/texmf-dist/tex/latex/tools/calc.sty" 1480098841 10214 d03d065f799d54f6b7e9b175f8d84279 ""
  "/usr/share/texlive/texmf-dist/tex/latex/tools/indentfirst.sty" 1480098841 1617 820bc46185ca5aeeda2ecc6c21866b18 ""
  "/usr/share/texlive/texmf-dist/tex/latex/tools/multicol.sty" 1480098841 29824 08f95a42addbc2524015cbf3bc7ad24a ""
  "/usr/share/texlive/texmf-dist/tex/latex/tools/tabularx.sty" 1480098841 7141 64e8a94c3d083215654cd9a5b9dcc136 ""
  "/usr/share/texlive/texmf-dist/tex/latex/was/icomma.sty" 1137111079 1018 df058db1896806f044e2233bb506d425 ""
  "/usr/share/texlive/texmf-dist/tex/latex/wrapfig/wrapfig.sty" 1137111090 26220 3701aebf80ccdef248c0c20dd062fea9 ""
  "/usr/share/texlive/texmf-dist/tex/latex/xcolor/xcolor.sty" 1463002160 55589 34128738f682d033422ca125f82e5d62 ""
  "/usr/share/texlive/texmf-dist/web2c/texmf.cnf" 1488610416 31340 0f53f8665296bf8fe6c697f9505e31d8 ""
  "/usr/share/texmf/fonts/enc/dvips/cm-super/cm-super-t2a.enc" 1367894768 3141 82d5616418ed8d5de703b3951bedecb4 ""
  "/usr/share/texmf/fonts/type1/public/cm-super/sfbi1200.pfb" 1550051060 205875 5958bf9326f04501f7006947acfbcae1 ""
  "/usr/share/texmf/fonts/type1/public/cm-super/sfbx1200.pfb" 1550051060 140176 d4962f948b4cc0adf4d3dde77a128c95 ""
  "/usr/share/texmf/fonts/type1/public/cm-super/sfbx1440.pfb" 1550051060 135942 859a90cad7494a1e79c94baf546d7de5 ""
  "/usr/share/texmf/fonts/type1/public/cm-super/sfbx1728.pfb" 1550051060 139826 9213617a7cb78635fc326b859c0b2273 ""
  "/usr/share/texmf/fonts/type1/public/cm-super/sfbx2074.pfb" 1550051060 140194 627cc7f36c05b80e25d178974ccb3442 ""
  "/usr/share/texmf/fonts/type1/public/cm-super/sfrm0600.pfb" 1550051060 162624 9dcc92cd3b1dfe2ecc80e6da7f2eb6bd ""
  "/usr/share/texmf/fonts/type1/public/cm-super/sfrm0800.pfb" 1550051060 164227 3df942b4ff2124425d8fb1b6d3e01c7a ""
  "/usr/share/texmf/fonts/type1/public/cm-super/sfrm1200.pfb" 1550051060 136101 f533469f523533d38317ab5729d00c8a ""
  "/usr/share/texmf/fonts/type1/public/cm-super/sfrm1440.pfb" 1550051060 131078 d96015a2fa5c350129e933ca070b2484 ""
  "/usr/share/texmf/fonts/type1/public/cm-super/sfrm2074.pfb" 1550051060 131290 ea265c7de37664eae04a6f91a1f7a51f ""
  "/usr/share/texmf/fonts/type1/public/cm-super/sfti1200.pfb" 1550051060 198221 ca5aa71411090ef358a6cc78b7458365 ""
  "/usr/share/texmf/web2c/texmf.cnf" 1488610416 31340 0f53f8665296bf8fe6c697f9505e31d8 ""
  "/var/lib/texmf/fonts/map/pdftex/updmap/pdftex.map" 1550051160 2044936 0edf5ca64352b50b145b46ea2ee03d92 ""
  "/var/lib/texmf/web2c/pdftex/pdflatex.fmt" 1550051184 3869669 b27bfd5b9d70b8e5e19244952c9bc1de ""
  "draws/4/3.jpg" 1553680784 28511 a7431c1cbea51b50fa5854033041727a ""
  "draws/4/4.jpg" 1553680784 55596 e3e2751b05f5eef8da6e2047b3b5d44f ""
  "draws/4/5.jpg" 1553680784 49480 fcbbfa2c6ed4955b0aca2b5571051bd1 ""
  "draws/5/1.jpg" 1553680784 136011 c0806425741eaf05629e696ea3126f2f ""
  "draws/5/2.jpg" 1553680784 132484 5a753558c870dbac732e5d39277a1af6 ""
  "draws/5/3.jpg" 1553680784 47527 f56eca207e68faa2ee6faacdbbd0fdbf ""
  "draws/5/4.jpg" 1553680784 16385 62f3fc5cb56806372f631a83783bb79b ""
  "draws/5/5.jpg" 1553680784 242028 7e36ea0fe87e34aea336c2c6c64ea584 ""
  "draws/5/6.jpg" 1553680784 650507 ea0c4b9ab4e1b9437b75e71df7c70240 ""
  "draws/5/t1.jpg" 1553680784 365566 d1d8aae68e2dbc2eb5f37e6164b3fe5c ""
  "otrabota.aux" 1553683350 53692 a744c07dba99651f03aa58f994118312 ""
  "otrabota.tex" 1553683397 99565 c869b694b24f7324b00c2f3fd667a090 ""
  (generated)
  "otrabota.log"
  "otrabota.pdf"
  "otrabota.aux"
