\relax 
\catcode `"\active 
\select@language{russian}
\@writefile{toc}{\select@language{russian}}
\@writefile{lof}{\select@language{russian}}
\@writefile{lot}{\select@language{russian}}
\@writefile{toc}{\contentsline {section}{\numberline {1}\IeC {\CYRV }\IeC {\cyrv }\IeC {\cyre }\IeC {\cyrd }\IeC {\cyre }\IeC {\cyrn }\IeC {\cyri }\IeC {\cyre }}{1}}
\@writefile{toc}{\contentsline {subsection}{\numberline {1.1}\IeC {\CYRT }\IeC {\cyre }\IeC {\cyrr }\IeC {\cyrm }\IeC {\cyri }\IeC {\cyrn }\IeC {\cyro }\IeC {\cyrl }\IeC {\cyro }\IeC {\cyrg }\IeC {\cyri }\IeC {\cyrya }}{2}}
\@writefile{toc}{\contentsline {subsection}{\numberline {1.2}\IeC {\CYRO }\IeC {\cyrs }\IeC {\cyrn }\IeC {\cyro }\IeC {\cyrv }\IeC {\cyrn }\IeC {\cyrery }\IeC {\cyre } \IeC {\cyrn }\IeC {\cyra }\IeC {\cyrp }\IeC {\cyrr }\IeC {\cyra }\IeC {\cyrv }\IeC {\cyrl }\IeC {\cyre }\IeC {\cyrn }\IeC {\cyri }\IeC {\cyrya } \IeC {\cyrk }\IeC {\cyro }\IeC {\cyrn }\IeC {\cyrv }\IeC {\cyre }\IeC {\cyrr }\IeC {\cyrs }\IeC {\cyri }\IeC {\cyri } \IeC {\CYRV }\IeC {\CYRP }\IeC {\CYRK }}{3}}
\@writefile{toc}{\contentsline {subsubsection}{\numberline {1.2.1}\IeC {\CYRA }\IeC {\cyrv }\IeC {\cyri }\IeC {\cyra }\IeC {\cyrc }\IeC {\cyri }\IeC {\cyro }\IeC {\cyrn }\IeC {\cyrn }\IeC {\cyra }\IeC {\cyrya } \IeC {\cyro }\IeC {\cyrt }\IeC {\cyrr }\IeC {\cyra }\IeC {\cyrs }\IeC {\cyrl }\IeC {\cyrsftsn } \IeC {\CYRV }\IeC {\CYRP }\IeC {\CYRK } }{3}}
\@writefile{toc}{\contentsline {subsubsection}{\numberline {1.2.2}\IeC {\CYRR }\IeC {\cyra }\IeC {\cyrk }\IeC {\cyre }\IeC {\cyrt }\IeC {\cyrn }\IeC {\cyro }-\IeC {\cyrk }\IeC {\cyro }\IeC {\cyrs }\IeC {\cyrm }\IeC {\cyri }\IeC {\cyrch }\IeC {\cyre }\IeC {\cyrs }\IeC {\cyrk }\IeC {\cyra }\IeC {\cyrya } \IeC {\cyro }\IeC {\cyrt }\IeC {\cyrr }\IeC {\cyra }\IeC {\cyrs }\IeC {\cyrl }\IeC {\cyrsftsn } \IeC {\CYRV }\IeC {\CYRP }\IeC {\CYRK }}{3}}
\@writefile{toc}{\contentsline {subsubsection}{\numberline {1.2.3}\IeC {\CYRO }\IeC {\cyrb }\IeC {\cyro }\IeC {\cyrr }\IeC {\cyro }\IeC {\cyrn }\IeC {\cyrn }\IeC {\cyra }\IeC {\cyrya } \IeC {\cyro }\IeC {\cyrt }\IeC {\cyrr }\IeC {\cyra }\IeC {\cyrs }\IeC {\cyrl }\IeC {\cyrsftsn } \IeC {\CYRV }\IeC {\CYRP }\IeC {\CYRK }}{4}}
\@writefile{toc}{\contentsline {subsubsection}{\numberline {1.2.4}\IeC {\CYRS }\IeC {\cyru }\IeC {\cyrd }\IeC {\cyro }\IeC {\cyrs }\IeC {\cyrt }\IeC {\cyrr }\IeC {\cyro }\IeC {\cyri }\IeC {\cyrt }\IeC {\cyre }\IeC {\cyrl }\IeC {\cyrsftsn }\IeC {\cyrn }\IeC {\cyra }\IeC {\cyrya } \IeC {\cyro }\IeC {\cyrt }\IeC {\cyrr }\IeC {\cyra }\IeC {\cyrs }\IeC {\cyrl }\IeC {\cyrsftsn } \IeC {\CYRV }\IeC {\CYRP }\IeC {\CYRK }}{4}}
\@writefile{toc}{\contentsline {subsubsection}{\numberline {1.2.5}\IeC {\CYRR }\IeC {\cyra }\IeC {\cyrd }\IeC {\cyri }\IeC {\cyro }\IeC {\cyrerev }\IeC {\cyrl }\IeC {\cyre }\IeC {\cyrk }\IeC {\cyrt }\IeC {\cyrr }\IeC {\cyro }\IeC {\cyrn }\IeC {\cyrn }\IeC {\cyra }\IeC {\cyrya } \IeC {\cyro }\IeC {\cyrt }\IeC {\cyrr }\IeC {\cyra }\IeC {\cyrs }\IeC {\cyrl }\IeC {\cyrsftsn } \IeC {\CYRV }\IeC {\CYRP }\IeC {\CYRK }}{4}}
\@writefile{toc}{\contentsline {subsubsection}{\numberline {1.2.6}\IeC {\CYRA }\IeC {\cyrt }\IeC {\cyro }\IeC {\cyrm }\IeC {\cyrn }\IeC {\cyra }\IeC {\cyrya } \IeC {\cyro }\IeC {\cyrt }\IeC {\cyrr }\IeC {\cyra }\IeC {\cyrs }\IeC {\cyrl }\IeC {\cyrsftsn } \IeC {\CYRV }\IeC {\CYRP }\IeC {\CYRK }}{4}}
\@writefile{toc}{\contentsline {section}{\numberline {2}\IeC {\CYRI }\IeC {\cyrs }\IeC {\cyrp }\IeC {\cyro }\IeC {\cyrl }\IeC {\cyrsftsn }\IeC {\cyrz }\IeC {\cyro }\IeC {\cyrv }\IeC {\cyra }\IeC {\cyrn }\IeC {\cyri }\IeC {\cyre } \IeC {\cyrb }\IeC {\cyra }\IeC {\cyrz }\IeC {\cyro }\IeC {\cyrv }\IeC {\cyrery }\IeC {\cyrh } \IeC {\cyrn }\IeC {\cyra }\IeC {\cyru }\IeC {\cyrch }\IeC {\cyrn }\IeC {\cyrery }\IeC {\cyrh } \IeC {\cyrz }\IeC {\cyra }\IeC {\cyrd }\IeC {\cyre }\IeC {\cyrl }\IeC {\cyro }\IeC {\cyrv } \IeC {\cyrp }\IeC {\cyro } \IeC {\cyrr }\IeC {\cyra }\IeC {\cyrb }\IeC {\cyro }\IeC {\cyrch }\IeC {\cyri }\IeC {\cyrm } \IeC {\cyrp }\IeC {\cyrr }\IeC {\cyro }\IeC {\cyrc }\IeC {\cyre }\IeC {\cyrs }\IeC {\cyrs }\IeC {\cyra }\IeC {\cyrm } \IeC {\CYRR }\IeC {\CYRD }}{4}}
\@writefile{toc}{\contentsline {subsection}{\numberline {2.1}\IeC {\CYRK }\IeC {\cyro }\IeC {\cyrn }\IeC {\cyrd }\IeC {\cyre }\IeC {\cyrn }\IeC {\cyrs }\IeC {\cyri }\IeC {\cyrr }\IeC {\cyro }\IeC {\cyrv }\IeC {\cyra }\IeC {\cyrn }\IeC {\cyrn }\IeC {\cyrery }\IeC {\cyre } \IeC {\cyrp }\IeC {\cyrr }\IeC {\cyro }\IeC {\cyrd }\IeC {\cyru }\IeC {\cyrk }\IeC {\cyrt }\IeC {\cyrery } \IeC {\cyrg }\IeC {\cyro }\IeC {\cyrr }\IeC {\cyre }\IeC {\cyrn }\IeC {\cyri }\IeC {\cyrya } (\IeC {\CYRK }\IeC {\CYRP }\IeC {\CYRG }) \IeC {\cyra }\IeC {\cyrl }\IeC {\cyryu }\IeC {\cyrm }\IeC {\cyri }\IeC {\cyrn }\IeC {\cyri }\IeC {\cyrz }\IeC {\cyri }\IeC {\cyrr }\IeC {\cyro }\IeC {\cyrv }\IeC {\cyra }\IeC {\cyrn }\IeC {\cyrn }\IeC {\cyro }\IeC {\cyrg }\IeC {\cyro } \IeC {\cyrt }\IeC {\cyrv }\IeC {\cyre }\IeC {\cyrr }\IeC {\cyrd }\IeC {\cyro }\IeC {\cyrg }\IeC {\cyro } \IeC {\cyrt }\IeC {\cyro }\IeC {\cyrp }\IeC {\cyrl }\IeC {\cyri }\IeC {\cyrv }\IeC {\cyra }}{5}}
\@writefile{toc}{\contentsline {subsection}{\numberline {2.2}\IeC {\CYRF }\IeC {\cyri }\IeC {\cyrz }\IeC {\cyri }\IeC {\cyrch }\IeC {\cyre }\IeC {\cyrs }\IeC {\cyrk }\IeC {\cyri }\IeC {\cyre } \IeC {\cyrp }\IeC {\cyrr }\IeC {\cyre }\IeC {\cyrd }\IeC {\cyrs }\IeC {\cyrt }\IeC {\cyra }\IeC {\cyrv }\IeC {\cyrl }\IeC {\cyre }\IeC {\cyrn }\IeC {\cyri }\IeC {\cyrya } \IeC {\cyro } \IeC {\cyrp }\IeC {\cyrr }\IeC {\cyro }\IeC {\cyrc }\IeC {\cyre }\IeC {\cyrs }\IeC {\cyrs }\IeC {\cyre } \IeC {\cyra }\IeC {\cyrg }\IeC {\cyrl }\IeC {\cyro }\IeC {\cyrm }\IeC {\cyre }\IeC {\cyrr }\IeC {\cyra }\IeC {\cyrc }\IeC {\cyri }\IeC {\cyri }}{5}}
\@writefile{toc}{\contentsline {subsection}{\numberline {2.3}\IeC {\CYRS }\IeC {\cyrh }\IeC {\cyre }\IeC {\cyrm }\IeC {\cyra }\IeC {\cyrt }\IeC {\cyri }\IeC {\cyrz }\IeC {\cyra }\IeC {\cyrc }\IeC {\cyri }\IeC {\cyrya } \IeC {\cyrs }\IeC {\cyrt }\IeC {\cyrr }\IeC {\cyru }\IeC {\cyrk }\IeC {\cyrt }\IeC {\cyru }\IeC {\cyrr }\IeC {\cyrery } \IeC {\CYRS }\IeC {\CYRT }\IeC {\CYRT }}{6}}
\@writefile{toc}{\contentsline {subsubsection}{\numberline {2.3.1}\IeC {\CYRV }\IeC {\cyrh }\IeC {\cyro }\IeC {\cyrd }\IeC {\cyrn }\IeC {\cyrery }\IeC {\cyre } \IeC {\cyri } \IeC {\cyrv }\IeC {\cyrery }\IeC {\cyrh }\IeC {\cyro }\IeC {\cyrd }\IeC {\cyrn }\IeC {\cyrery }\IeC {\cyre } \IeC {\cyrp }\IeC {\cyra }\IeC {\cyrr }\IeC {\cyra }\IeC {\cyrm }\IeC {\cyre }\IeC {\cyrt }\IeC {\cyrr }\IeC {\cyrery } \IeC {\cyrm }\IeC {\cyro }\IeC {\cyrd }\IeC {\cyre }\IeC {\cyrl }\IeC {\cyri }}{6}}
\@writefile{toc}{\contentsline {subsection}{\numberline {2.4}\IeC {\CYRF }\IeC {\cyri }\IeC {\cyrz }\IeC {\cyri }\IeC {\cyrch }\IeC {\cyre }\IeC {\cyrs }\IeC {\cyrk }\IeC {\cyra }\IeC {\cyrya } \IeC {\cyrk }\IeC {\cyra }\IeC {\cyrr }\IeC {\cyrt }\IeC {\cyri }\IeC {\cyrn }\IeC {\cyra } \IeC {\cyrp }\IeC {\cyrr }\IeC {\cyro }\IeC {\cyrc }\IeC {\cyre }\IeC {\cyrs }\IeC {\cyrs }\IeC {\cyra } \IeC {\cyrerev }\IeC {\cyrv }\IeC {\cyro }\IeC {\cyrl }\IeC {\cyryu }\IeC {\cyrc }\IeC {\cyri }\IeC {\cyri } \IeC {\cyra }\IeC {\cyrg }\IeC {\cyrl }\IeC {\cyro }\IeC {\cyrm }\IeC {\cyre }\IeC {\cyrr }\IeC {\cyri }\IeC {\cyrr }\IeC {\cyru }\IeC {\cyryu }\IeC {\cyrshch }\IeC {\cyri }\IeC {\cyrh } \IeC {\cyrch }\IeC {\cyra }\IeC {\cyrs }\IeC {\cyrt }\IeC {\cyri }\IeC {\cyrc }}{6}}
\@writefile{toc}{\contentsline {section}{\numberline {3}}{7}}
\@writefile{toc}{\contentsline {subsection}{\numberline {3.1}\IeC {\CYRM }\IeC {\cyro }\IeC {\cyrd }\IeC {\cyre }\IeC {\cyrl }\IeC {\cyri }\IeC {\cyrr }\IeC {\cyro }\IeC {\cyrv }\IeC {\cyra }\IeC {\cyrn }\IeC {\cyri }\IeC {\cyre } \IeC {\cyrt }\IeC {\cyre }\IeC {\cyrp }\IeC {\cyrl }\IeC {\cyro }\IeC {\cyrv }\IeC {\cyrery }\IeC {\cyrd }\IeC {\cyre }\IeC {\cyrl }\IeC {\cyre }\IeC {\cyrn }\IeC {\cyri }\IeC {\cyrya } \IeC {\cyrv } \IeC {\cyrk }\IeC {\cyra }\IeC {\cyrm }\IeC {\cyre }\IeC {\cyrr }\IeC {\cyre } \IeC {\cyrd }\IeC {\cyro }\IeC {\cyrzh }\IeC {\cyri }\IeC {\cyrg }\IeC {\cyra }\IeC {\cyrn }\IeC {\cyri }\IeC {\cyrya } \IeC {\cyru }\IeC {\cyrs }\IeC {\cyrt }\IeC {\cyra }\IeC {\cyrn }\IeC {\cyro }\IeC {\cyrv }\IeC {\cyro }\IeC {\cyrk } \IeC {\cyrs } \IeC {\cyrd }\IeC {\cyrv }\IeC {\cyru }\IeC {\cyrh }\IeC {\cyrs }\IeC {\cyrt }\IeC {\cyra }\IeC {\cyrd }\IeC {\cyri }\IeC {\cyrishrt }\IeC {\cyrn }\IeC {\cyrery }\IeC {\cyrm } \IeC {\cyrr }\IeC {\cyra }\IeC {\cyrb }\IeC {\cyro }\IeC {\cyrch }\IeC {\cyri }\IeC {\cyrm } \IeC {\cyrp }\IeC {\cyrr }\IeC {\cyro }\IeC {\cyrc }\IeC {\cyre }\IeC {\cyrs }\IeC {\cyrs }\IeC {\cyro }\IeC {\cyrm }}{8}}
\@writefile{toc}{\contentsline {subsection}{\numberline {3.2}\IeC {\CYRI }\IeC {\cyrs }\IeC {\cyrp }\IeC {\cyro }\IeC {\cyrl }\IeC {\cyrsftsn }\IeC {\cyrz }\IeC {\cyro }\IeC {\cyrv }\IeC {\cyra }\IeC {\cyrn }\IeC {\cyri }\IeC {\cyre } \IeC {\cyrb }\IeC {\cyra }\IeC {\cyrz }\IeC {\cyro }\IeC {\cyrv }\IeC {\cyrery }\IeC {\cyrh } \IeC {\cyrn }\IeC {\cyra }\IeC {\cyru }\IeC {\cyrch }\IeC {\cyrn }\IeC {\cyrery }\IeC {\cyrh } \IeC {\cyrz }\IeC {\cyra }\IeC {\cyrd }\IeC {\cyre }\IeC {\cyrl }\IeC {\cyro }\IeC {\cyrv } \IeC {\cyrp }\IeC {\cyro } \IeC {\cyrr }\IeC {\cyra }\IeC {\cyrb }\IeC {\cyro }\IeC {\cyrch }\IeC {\cyri }\IeC {\cyrm } \IeC {\cyrp }\IeC {\cyrr }\IeC {\cyro }\IeC {\cyrc }\IeC {\cyre }\IeC {\cyrs }\IeC {\cyrs }\IeC {\cyra }\IeC {\cyrm } \IeC {\cyrv } \IeC {\cyrr }\IeC {\cyra }\IeC {\cyrk }\IeC {\cyre }\IeC {\cyrt }\IeC {\cyrn }\IeC {\cyrery }\IeC {\cyrh } \IeC {\cyrd }\IeC {\cyrv }\IeC {\cyri }\IeC {\cyrg }\IeC {\cyra }\IeC {\cyrt }\IeC {\cyre }\IeC {\cyrl }\IeC {\cyrya }\IeC {\cyrh }}{9}}
\@writefile{toc}{\contentsline {section}{\numberline {4}\IeC {\CYRK }\IeC {\CYRL }\IeC {\CYRA }\IeC {\CYRS }\IeC {\CYRS }\IeC {\CYRI }\IeC {\CYRF }\IeC {\CYRI }\IeC {\CYRK }\IeC {\CYRA }\IeC {\CYRC }\IeC {\CYRI }\IeC {\CYRYA } \IeC {\CYRU }\IeC {\CYRS }\IeC {\CYRT }\IeC {\CYRA }\IeC {\CYRN }\IeC {\CYRO }\IeC {\CYRV }\IeC {\CYRO }\IeC {\CYRK } \IeC {\CYRP }\IeC {\CYRO }\IeC {\CYRZH }\IeC {\CYRA }\IeC {\CYRR }\IeC {\CYRO }\IeC {\CYRT }\IeC {\CYRU }\IeC {\CYRSH }\IeC {\CYRE }\IeC {\CYRN }\IeC {\CYRI }\IeC {\CYRYA }}{9}}
\@writefile{toc}{\contentsline {subsection}{\numberline {4.1}\IeC {\CYRO }\IeC {\CYRB }\IeC {\CYRSHCH }\IeC {\CYRI }\IeC {\CYRE } \IeC {\CYRP }\IeC {\CYRO }\IeC {\CYRL }\IeC {\CYRO }\IeC {\CYRZH }\IeC {\CYRE }\IeC {\CYRN }\IeC {\CYRI }\IeC {\CYRYA }}{10}}
\@writefile{lot}{\contentsline {table}{\numberline {1}{\ignorespaces \IeC {\CYRM }\IeC {\CYRE }\IeC {\CYRT }\IeC {\CYRO }\IeC {\CYRD }\IeC {\CYRERY } \IeC {\CYRF }\IeC {\CYRI }\IeC {\CYRZ }\IeC {\CYRI }\IeC {\CYRK }\IeC {\CYRO }-\IeC {\CYRH }\IeC {\CYRI }\IeC {\CYRM }\IeC {\CYRI }\IeC {\CYRCH }\IeC {\CYRE }\IeC {\CYRS }\IeC {\CYRK }\IeC {\CYRO }\IeC {\CYRG }\IeC {\CYRO } \IeC {\CYRV }\IeC {\CYRO }\IeC {\CYRZ }\IeC {\CYRD }\IeC {\CYRE }\IeC {\CYRISHRT }\IeC {\CYRS }\IeC {\CYRT }\IeC {\CYRV }\IeC {\CYRI }\IeC {\CYRYA } \IeC {\CYRN }\IeC {\CYRA } \IeC {\CYRO }\IeC {\CYRCH }\IeC {\CYRA }\IeC {\CYRG } \IeC {\CYRG }\IeC {\CYRO }\IeC {\CYRR }\IeC {\CYRE }\IeC {\CYRN }\IeC {\CYRI }\IeC {\CYRYA }\relax }}{10}}
\@writefile{lot}{\contentsline {table}{\numberline {2}{\ignorespaces \IeC {\CYRF }\IeC {\CYRA }\IeC {\CYRK }\IeC {\CYRT }\IeC {\CYRO }\IeC {\CYRR }\IeC {\CYRERY }, \IeC {\CYRO }\IeC {\CYRP }\IeC {\CYRR }\IeC {\CYRE }\IeC {\CYRD }\IeC {\CYRE }\IeC {\CYRL }\IeC {\CYRYA }\IeC {\CYRYU }\IeC {\CYRSHCH }\IeC {\CYRI }\IeC {\CYRE } \IeC {\CYRS }\IeC {\CYRP }\IeC {\CYRE }\IeC {\CYRC }\IeC {\CYRI }\IeC {\CYRF }\IeC {\CYRI }\IeC {\CYRK }\IeC {\CYRU } \IeC {\CYRP }\IeC {\CYRO }\IeC {\CYRZH }\IeC {\CYRA }\IeC {\CYRR }\IeC {\CYRA }\relax }}{10}}
\@writefile{toc}{\contentsline {subsubsection}{\numberline {4.1.1}\IeC {\CYRT }\IeC {\cyru }\IeC {\cyrsh }\IeC {\cyre }\IeC {\cyrn }\IeC {\cyri }\IeC {\cyre } \IeC {\cyrv }\IeC {\cyro }\IeC {\cyrd }\IeC {\cyro }\IeC {\cyrishrt }}{10}}
\@writefile{lot}{\contentsline {table}{\numberline {3}{\ignorespaces \IeC {\CYRN }\IeC {\CYRO }\IeC {\CYRR }\IeC {\CYRM }\IeC {\CYRA }\IeC {\CYRT }\IeC {\CYRI }\IeC {\CYRV }\IeC {\CYRN }\IeC {\CYRERY }\IeC {\CYRE } \IeC {\CYRP }\IeC {\CYRA }\IeC {\CYRR }\IeC {\CYRA }\IeC {\CYRM }\IeC {\CYRE }\IeC {\CYRT }\IeC {\CYRR }\IeC {\CYRERY }, \IeC {\CYRO }\IeC {\CYRP }\IeC {\CYRR }\IeC {\CYRE }\IeC {\CYRD }\IeC {\CYRE }\IeC {\CYRL }\IeC {\CYRYA }\IeC {\CYRYU }\IeC {\CYRSHCH }\IeC {\CYRI }\IeC {\CYRE } \IeC {\CYRV }\IeC {\CYRERY }\IeC {\CYRB }\IeC {\CYRO }\IeC {\CYRR } \IeC {\CYRO }\IeC {\CYRG }\IeC {\CYRN }\IeC {\CYRE }\IeC {\CYRT }\IeC {\CYRU }\IeC {\CYRSH }\IeC {\CYRA }\IeC {\CYRSHCH }\IeC {\CYRI }\IeC {\CYRH } \IeC {\CYRV }\IeC {\CYRE }\IeC {\CYRSHCH }\IeC {\CYRE }\IeC {\CYRS }\IeC {\CYRT }\IeC {\CYRV }\relax }}{11}}
\@writefile{lot}{\contentsline {table}{\numberline {4}{\ignorespaces \IeC {\CYRK }\IeC {\CYRL }\IeC {\CYRA }\IeC {\CYRS }\IeC {\CYRS }\IeC {\CYRERY } \IeC {\CYRP }\IeC {\CYRO }\IeC {\CYRZH }\IeC {\CYRA }\IeC {\CYRR }\IeC {\CYRO }\IeC {\CYRV }\relax }}{11}}
\@writefile{lot}{\contentsline {table}{\numberline {5}{\ignorespaces \IeC {\CYREREV }\IeC {\CYRF }\IeC {\CYRF }\IeC {\CYRE }\IeC {\CYRK }\IeC {\CYRT }\IeC {\CYRI }\IeC {\CYRV }\IeC {\CYRN }\IeC {\CYRO }\IeC {\CYRS }\IeC {\CYRT }\IeC {\CYRSFTSN } \IeC {\CYRI }\IeC {\CYRS }\IeC {\CYRP }\IeC {\CYRO }\IeC {\CYRL }\IeC {\CYRSFTSN }\IeC {\CYRZ }\IeC {\CYRO }\IeC {\CYRV }\IeC {\CYRA }\IeC {\CYRN }\IeC {\CYRI }\IeC {\CYRYA } \IeC {\CYRV }\IeC {\CYRO }\IeC {\CYRD }\IeC {\CYRERY } \IeC {\CYRP }\IeC {\CYRR }\IeC {\CYRI } \IeC {\CYRT }\IeC {\CYRU }\IeC {\CYRSH }\IeC {\CYRE }\IeC {\CYRN }\IeC {\CYRI }\IeC {\CYRI } \IeC {\CYRP }\IeC {\CYRO }\IeC {\CYRZH }\IeC {\CYRA }\IeC {\CYRR }\IeC {\CYRO }\IeC {\CYRV } \IeC {\CYRR }\IeC {\CYRA }\IeC {\CYRZ }\IeC {\CYRL }\IeC {\CYRI }\IeC {\CYRCH }\IeC {\CYRN }\IeC {\CYRERY }\IeC {\CYRM }\IeC {\CYRI } \IeC {\CYRS }\IeC {\CYRP }\IeC {\CYRO }\IeC {\CYRS }\IeC {\CYRO }\IeC {\CYRB }\IeC {\CYRA }\IeC {\CYRM }\IeC {\CYRI }\relax }}{11}}
\@writefile{lot}{\contentsline {table}{\numberline {6}{\ignorespaces \IeC {\CYRV }\IeC {\CYRE }\IeC {\CYRSHCH }\IeC {\CYRE }\IeC {\CYRS }\IeC {\CYRT }\IeC {\CYRV }\IeC {\CYRA }, \IeC {\CYRD }\IeC {\CYRL }\IeC {\CYRYA } \IeC {\CYRT }\IeC {\CYRU }\IeC {\CYRSH }\IeC {\CYRE }\IeC {\CYRN }\IeC {\CYRI }\IeC {\CYRYA } \IeC {\CYRK }\IeC {\CYRO }\IeC {\CYRT }\IeC {\CYRO }\IeC {\CYRR }\IeC {\CYRERY }\IeC {\CYRH } \IeC {\CYRN }\IeC {\CYRE }\IeC {\CYRD }\IeC {\CYRO }\IeC {\CYRP }\IeC {\CYRU }\IeC {\CYRS }\IeC {\CYRT }\IeC {\CYRI }\IeC {\CYRM }\IeC {\CYRO } \IeC {\CYRP }\IeC {\CYRR }\IeC {\CYRI }\IeC {\CYRM }\IeC {\CYRE }\IeC {\CYRN }\IeC {\CYRYA }\IeC {\CYRT }\IeC {\CYRSFTSN } \IeC {\CYRS }\IeC {\CYRO }\IeC {\CYRS }\IeC {\CYRT }\IeC {\CYRA }\IeC {\CYRV }\IeC {\CYRERY } \IeC {\CYRN }\IeC {\CYRA } \IeC {\CYRB }\IeC {\CYRA }\IeC {\CYRZ }\IeC {\CYRE } \IeC {\CYRV }\IeC {\CYRO }\IeC {\CYRD }\IeC {\CYRERY }\relax }}{12}}
\@writefile{toc}{\contentsline {subsubsection}{\numberline {4.1.2}\IeC {\CYRT }\IeC {\CYRU }\IeC {\CYRSH }\IeC {\CYRE }\IeC {\CYRN }\IeC {\CYRI }\IeC {\CYRE } \IeC {\CYRP }\IeC {\CYRE }\IeC {\CYRN }\IeC {\CYRN }\IeC {\CYRERY }\IeC {\CYRM }\IeC {\CYRI } \IeC {\CYRS }\IeC {\CYRR }\IeC {\CYRE }\IeC {\CYRD }\IeC {\CYRS }\IeC {\CYRT }\IeC {\CYRV }\IeC {\CYRA }\IeC {\CYRM }\IeC {\CYRI }}{12}}
\@writefile{toc}{\contentsline {subsubsection}{\numberline {4.1.3}\IeC {\CYRT }\IeC {\CYRU }\IeC {\CYRSH }\IeC {\CYRE }\IeC {\CYRN }\IeC {\CYRI }\IeC {\CYRE } \IeC {\CYRG }\IeC {\CYRA }\IeC {\CYRZ }\IeC {\CYRO }\IeC {\CYRV }\IeC {\CYRERY }\IeC {\CYRM }\IeC {\CYRI } \IeC {\CYRS }\IeC {\CYRO }\IeC {\CYRS }\IeC {\CYRT }\IeC {\CYRA }\IeC {\CYRV }\IeC {\CYRA }\IeC {\CYRM }\IeC {\CYRI }}{12}}
\@writefile{toc}{\contentsline {subsubsection}{\numberline {4.1.4}\IeC {\CYRO }\IeC {\CYRG }\IeC {\CYRN }\IeC {\CYRE }\IeC {\CYRT }\IeC {\CYRU }\IeC {\CYRSH }\IeC {\CYRA }\IeC {\CYRSHCH }\IeC {\CYRI }\IeC {\CYRE } \IeC {\CYRP }\IeC {\CYRO }\IeC {\CYRR }\IeC {\CYRO }\IeC {\CYRSH }\IeC {\CYRK }\IeC {\CYRI }}{13}}
\@writefile{lot}{\contentsline {table}{\numberline {7}{\ignorespaces \IeC {\CYRS }\IeC {\CYRV }\IeC {\CYRO }\IeC {\CYRISHRT }\IeC {\CYRS }\IeC {\CYRT }\IeC {\CYRV }\IeC {\CYRA } \IeC {\CYRP }\IeC {\CYRO }\IeC {\CYRR }\IeC {\CYRO }\IeC {\CYRSH }\IeC {\CYRK }\IeC {\CYRO }\IeC {\CYRV }\relax }}{14}}
\@writefile{toc}{\contentsline {section}{\numberline {5}\IeC {\CYRM }\IeC {\CYRO }\IeC {\CYRB }\IeC {\CYRI }\IeC {\CYRL }\IeC {\CYRSFTSN }\IeC {\CYRN }\IeC {\CYRA }\IeC {\CYRYA } \IeC {\CYRU }\IeC {\CYRS }\IeC {\CYRT }\IeC {\CYRA }\IeC {\CYRN }\IeC {\CYRO }\IeC {\CYRV }\IeC {\CYRK }\IeC {\CYRA } \IeC {\CYRS }\IeC {\CYRV }\IeC {\CYRE }\IeC {\CYRR }\IeC {\CYRH }\IeC {\CYRZ }\IeC {\CYRV }\IeC {\CYRU }\IeC {\CYRK }\IeC {\CYRO }\IeC {\CYRV }\IeC {\CYRO }\IeC {\CYRISHRT } \IeC {\CYRG }\IeC {\CYRA }\IeC {\CYRZ }\IeC {\CYRO }\IeC {\CYRT }\IeC {\CYRE }\IeC {\CYRR }\IeC {\CYRM }\IeC {\CYRI }\IeC {\CYRCH }\IeC {\CYRE }\IeC {\CYRS }\IeC {\CYRK }\IeC {\CYRO }\IeC {\CYRISHRT } \IeC {\CYRR }\IeC {\CYRE }\IeC {\CYRZ }\IeC {\CYRK }\IeC {\CYRI } \IeC {\CYRG }\IeC {\CYRA }\IeC {\CYRM }\IeC {\CYRM }\IeC {\CYRA }}{14}}
\@writefile{lof}{\contentsline {figure}{\numberline {1}{\ignorespaces \IeC {\CYRP }\IeC {\CYRR }\IeC {\CYRI }\IeC {\CYRN }\IeC {\CYRC }\IeC {\CYRI }\IeC {\CYRP }\IeC {\CYRI }\IeC {\CYRA }\IeC {\CYRL }\IeC {\CYRSFTSN }\IeC {\CYRN }\IeC {\CYRA }\IeC {\CYRYA } \IeC {\CYRS }\IeC {\CYRH }\IeC {\CYRE }\IeC {\CYRM }\IeC {\CYRA } \IeC {\CYRU }\IeC {\CYRS }\IeC {\CYRT }\IeC {\CYRA }\IeC {\CYRN }\IeC {\CYRO }\IeC {\CYRV }\IeC {\CYRK }\IeC {\CYRI } "\IeC {\CYRG }\IeC {\CYRA }\IeC {\CYRM }\IeC {\CYRM }\IeC {\CYRA }"  1- \IeC {\CYRT }\IeC {\CYRT } \IeC {\cyrg }\IeC {\cyra }\IeC {\cyrz }\IeC {\cyro }\IeC {\cyrg }\IeC {\cyre }\IeC {\cyrn }\IeC {\cyre }\IeC {\cyrr }\IeC {\cyra }\IeC {\cyrt }\IeC {\cyro }\IeC {\cyrr }; 2 - \IeC {\cyrb }\IeC {\cyra }\IeC {\cyrl }\IeC {\cyrl }\IeC {\cyro }\IeC {\cyrn } \IeC {\cyrs } \IeC {\CYRP }\IeC {\CYRK }; 3 - \IeC {\cyrm }\IeC {\cyra }\IeC {\cyrn }\IeC {\cyro }\IeC {\cyrm }\IeC {\cyre }\IeC {\cyrt }\IeC {\cyrr }; 4 - \IeC {\cyrk }\IeC {\cyrl }\IeC {\cyra }\IeC {\cyrp }\IeC {\cyra }\IeC {\cyrn } \IeC {\cyrs }\IeC {\cyrb }\IeC {\cyrr }\IeC {\cyro }\IeC {\cyrs }\IeC {\cyra }; 5 - \IeC {\cyrb }\IeC {\cyra }\IeC {\cyrl }\IeC {\cyrl }\IeC {\cyro }\IeC {\cyrn } \IeC {\cyrs } \IeC {\cyrg }\IeC {\cyra }\IeC {\cyrz }\IeC {\cyro }\IeC {\cyrm }; 6 - \IeC {\cyri }\IeC {\cyrn }\IeC {\cyri }\IeC {\cyrc }\IeC {\cyri }\IeC {\cyra }\IeC {\cyrt }\IeC {\cyro }\IeC {\cyrr }; 7 - \IeC {\cyrr }\IeC {\cyre }\IeC {\cyrd }\IeC {\cyru }\IeC {\cyrk }\IeC {\cyrt }\IeC {\cyro }\IeC {\cyrr }; 8 - \IeC {\cyrv }\IeC {\cyre }\IeC {\cyrn }\IeC {\cyrt }\IeC {\cyri }\IeC {\cyrl }\IeC {\cyrsftsn }; 9 - \IeC {\cyrs }\IeC {\cyrm }\IeC {\cyre }\IeC {\cyrs }\IeC {\cyri }\IeC {\cyrt }\IeC {\cyre }\IeC {\cyrl }\IeC {\cyrsftsn };10 - \IeC {\cyrr }\IeC {\cyre }\IeC {\cyrz }\IeC {\cyra }\IeC {\cyrk }\relax }}{15}}
\@writefile{lof}{\contentsline {figure}{\numberline {2}{\ignorespaces \IeC {\CYRB }\IeC {\CYRL }\IeC {\CYRO }\IeC {\CYRK }-\IeC {\CYRS }\IeC {\CYRH }\IeC {\CYRE }\IeC {\CYRM }\IeC {\CYRA } \IeC {\CYRS }\IeC {\CYRH }\IeC {\CYRE }\IeC {\CYRM }\IeC {\CYRA } \IeC {\CYRU }\IeC {\CYRS }\IeC {\CYRT }\IeC {\CYRA }\IeC {\CYRN }\IeC {\CYRO }\IeC {\CYRV }\IeC {\CYRK }\IeC {\CYRI } "\IeC {\CYRG }\IeC {\CYRA }\IeC {\CYRM }\IeC {\CYRM }\IeC {\CYRA }"   1- \IeC {\cyri }\IeC {\cyrn }\IeC {\cyri }\IeC {\cyrc }\IeC {\cyri }\IeC {\cyra }\IeC {\cyrt }\IeC {\cyro }\IeC {\cyrr }; 2 - \IeC {\cyrm }\IeC {\cyra }\IeC {\cyrn }\IeC {\cyro }\IeC {\cyrm }\IeC {\cyre }\IeC {\cyrt }\IeC {\cyrr }; 3 - \IeC {\cyrb }\IeC {\cyrl }\IeC {\cyro }\IeC {\cyrk } \IeC {\cyrerev }\IeC {\cyrl }\IeC {\cyre }\IeC {\cyrk }\IeC {\cyrt }\IeC {\cyro }\IeC {\cyrr }\IeC {\cyro }\IeC {\cyrp }\IeC {\cyri }\IeC {\cyrt }\IeC {\cyra }\IeC {\cyrn }\IeC {\cyri }\IeC {\cyrya }; 4 - \IeC {\cyrr }\IeC {\cyre }\IeC {\cyrd }\IeC {\cyru }\IeC {\cyrk }\IeC {\cyrt }\IeC {\cyro }\IeC {\cyrr }; 5 - \IeC {\cyrb }\IeC {\cyra }\IeC {\cyrl }\IeC {\cyrl }\IeC {\cyro }\IeC {\cyrn } \IeC {\cyrs } \IeC {\cyrg }\IeC {\cyra }\IeC {\cyrz }\IeC {\cyro }\IeC {\cyrm }; 6 - \IeC {\cyrb }\IeC {\cyra }\IeC {\cyrl }\IeC {\cyrl }\IeC {\cyro }\IeC {\cyrn } \IeC {\cyrs } \IeC {\CYRP }\IeC {\CYRK }; 7 - \IeC {\cyrv }\IeC {\cyre }\IeC {\cyrn }\IeC {\cyrt }\IeC {\cyri }\IeC {\cyrl }\IeC {\cyrsftsn }; 8 -\IeC {\cyrr }\IeC {\cyre }\IeC {\cyrz }\IeC {\cyra }\IeC {\cyrk }; 9 - \IeC {\cyrs }\IeC {\cyrm }\IeC {\cyre }\IeC {\cyrn }\IeC {\cyrn }\IeC {\cyrery }\IeC {\cyrishrt } \IeC {\cyrn }\IeC {\cyra }\IeC {\cyrs }\IeC {\cyra }\IeC {\cyrd }\IeC {\cyro }\IeC {\cyrk }; 10 - \IeC {\cyrk }\IeC {\cyrl }\IeC {\cyra }\IeC {\cyrp }\IeC {\cyra }\IeC {\cyrn } \IeC {\cyrs }\IeC {\cyrb }\IeC {\cyrr }\IeC {\cyro }\IeC {\cyrs }\IeC {\cyra } (\IeC {\cyrn }\IeC {\cyre } \IeC {\cyrp }\IeC {\cyro }\IeC {\cyrk }\IeC {\cyra }\IeC {\cyrz }\IeC {\cyra }\IeC {\cyrn }); 11 - \IeC {\cyrs }\IeC {\cyrm }\IeC {\cyre }\IeC {\cyrs }\IeC {\cyri }\IeC {\cyrt }\IeC {\cyre }\IeC {\cyrl }\IeC {\cyrsftsn }; 12 - \IeC {\CYRT }\IeC {\CYRT } \IeC {\cyrg }\IeC {\cyra }\IeC {\cyrz }\IeC {\cyro }\IeC {\cyrg }\IeC {\cyre }\IeC {\cyrn }\IeC {\cyre }\IeC {\cyrr }\IeC {\cyra }\IeC {\cyrt }\IeC {\cyro }\IeC {\cyrr }; 13 - \IeC {\cyra }\IeC {\cyrr }\IeC {\cyrm }\IeC {\cyri }\IeC {\cyrr }\IeC {\cyro }\IeC {\cyrv }\IeC {\cyra }\IeC {\cyrn }\IeC {\cyrn }\IeC {\cyrery }\IeC {\cyrishrt } \IeC {\cyrsh }\IeC {\cyrl }\IeC {\cyra }\IeC {\cyrn }\IeC {\cyrg }; 14 - \IeC {\cyrt }\IeC {\cyrr }\IeC {\cyru }\IeC {\cyrb }\IeC {\cyro }\IeC {\cyrp }\IeC {\cyrr }\IeC {\cyro }\IeC {\cyrv }\IeC {\cyro }\IeC {\cyrd }\relax }}{16}}
\@writefile{lof}{\contentsline {figure}{\numberline {3}{\ignorespaces \IeC {\CYRB }\IeC {\CYRL }\IeC {\CYRO }\IeC {\CYRK }-\IeC {\CYRS }\IeC {\CYRH }\IeC {\CYRE }\IeC {\CYRM }\IeC {\CYRA } \IeC {\CYRS }\IeC {\CYRT }\IeC {\CYRE }\IeC {\CYRN }\IeC {\CYRD }\IeC {\CYRA } \IeC {\CYRD }\IeC {\CYRL }\IeC {\CYRYA } \IeC {\CYREREV }\IeC {\CYRK }\IeC {\CYRS }\IeC {\CYRP }\IeC {\CYRE }\IeC {\CYRR }\IeC {\CYRI }\IeC {\CYRM }\IeC {\CYRE }\IeC {\CYRN }\IeC {\CYRT }\IeC {\CYRA }\IeC {\CYRL }\IeC {\CYRSFTSN }\IeC {\CYRN }\IeC {\CYRO }\IeC {\CYRISHRT } \IeC {\CYRO }\IeC {\CYRT }\IeC {\CYRR }\IeC {\CYRA }\IeC {\CYRB }\IeC {\CYRO }\IeC {\CYRT }\IeC {\CYRK }\IeC {\CYRI } \IeC {\CYRR }\IeC {\CYRA }\IeC {\CYRN }\IeC {\CYRC }\IeC {\CYRE }\IeC {\CYRV }\IeC {\CYRO }\IeC {\CYRISHRT } \IeC {\CYRU }\IeC {\CYRS }\IeC {\CYRT }\IeC {\CYRA }\IeC {\CYRN }\IeC {\CYRO }\IeC {\CYRV }\IeC {\CYRK }\IeC {\CYRI } "\IeC {\CYRG }\IeC {\CYRA }\IeC {\CYRM }\IeC {\CYRM }\IeC {\CYRA }"   1- \IeC {\cyrk }\IeC {\cyrl }\IeC {\cyra }\IeC {\cyrp }\IeC {\cyra }\IeC {\cyrn }; 2 - \IeC {\cyrk }\IeC {\cyrl }\IeC {\cyra }\IeC {\cyrp }\IeC {\cyra }\IeC {\cyrn } \IeC {\cyrp }\IeC {\cyrr }\IeC {\cyre }\IeC {\cyrd }\IeC {\cyro }\IeC {\cyrh }\IeC {\cyrr }\IeC {\cyra }\IeC {\cyrn }\IeC {\cyri }\IeC {\cyrt }\IeC {\cyre }\IeC {\cyrl }\IeC {\cyrsftsn }\IeC {\cyrn }\IeC {\cyrery }\IeC {\cyrishrt }; 3 - \IeC {\cyrs }\IeC {\cyrm }\IeC {\cyre }\IeC {\cyrs }\IeC {\cyri }\IeC {\cyrt }\IeC {\cyre }\IeC {\cyrl }\IeC {\cyrsftsn }\IeC {\cyrn }\IeC {\cyrery }\IeC {\cyrishrt } \IeC {\cyrb }\IeC {\cyrl }\IeC {\cyro }\IeC {\cyrk }; 4 - \IeC {\cyrb }\IeC {\cyra }\IeC {\cyrk } \IeC {\cyrs } \IeC {\CYRP }\IeC {\CYRK }; 5 - \IeC {\CYRT }\IeC {\CYRT } \IeC {\cyrg }\IeC {\cyra }\IeC {\cyrz }\IeC {\cyro }\IeC {\cyrg }\IeC {\cyre }\IeC {\cyrn }\IeC {\cyre }\IeC {\cyrr }\IeC {\cyra }\IeC {\cyrt }\IeC {\cyro }\IeC {\cyrr }\relax }}{16}}
\@writefile{lof}{\contentsline {figure}{\numberline {4}{\ignorespaces \IeC {\CYRP }\IeC {\CYRR }\IeC {\CYRI }\IeC {\CYRN }\IeC {\CYRC }\IeC {\CYRI }\IeC {\CYRP }\IeC {\CYRI }\IeC {\CYRA }\IeC {\CYRL }\IeC {\CYRSFTSN }\IeC {\CYRN }\IeC {\CYRA }\IeC {\CYRYA } \IeC {\CYRS }\IeC {\CYRH }\IeC {\CYRE }\IeC {\CYRM }\IeC {\CYRA } \IeC {\CYRS }\IeC {\CYRT }\IeC {\CYRE }\IeC {\CYRN }\IeC {\CYRD }\IeC {\CYRA } \IeC {\CYRD }\IeC {\CYRL }\IeC {\CYRYA } \IeC {\CYREREV }\IeC {\CYRK }\IeC {\CYRS }\IeC {\CYRP }\IeC {\CYRE }\IeC {\CYRR }\IeC {\CYRI }\IeC {\CYRM }\IeC {\CYRE }\IeC {\CYRN }\IeC {\CYRT }\IeC {\CYRA }\IeC {\CYRL }\IeC {\CYRSFTSN }\IeC {\CYRN }\IeC {\CYRO }\IeC {\CYRISHRT } \IeC {\CYRO }\IeC {\CYRT }\IeC {\CYRR }\IeC {\CYRA }\IeC {\CYRB }\IeC {\CYRO }\IeC {\CYRT }\IeC {\CYRK }\IeC {\CYRI } \IeC {\CYRR }\IeC {\CYRA }\IeC {\CYRN }\IeC {\CYRC }\IeC {\CYRE }\IeC {\CYRV }\IeC {\CYRO }\IeC {\CYRISHRT } \IeC {\CYRU }\IeC {\CYRS }\IeC {\CYRT }\IeC {\CYRA }\IeC {\CYRN }\IeC {\CYRO }\IeC {\CYRV }\IeC {\CYRK }\IeC {\CYRI } "\IeC {\CYRG }\IeC {\CYRA }\IeC {\CYRM }\IeC {\CYRM }\IeC {\CYRA }"   1- \IeC {\cyrm }\IeC {\cyra }\IeC {\cyrg }\IeC {\cyri }\IeC {\cyrs }\IeC {\cyrt }\IeC {\cyrr }\IeC {\cyra }\IeC {\cyrl }\IeC {\cyrsftsn } \IeC {\cyrp }\IeC {\cyro }\IeC {\cyrd }\IeC {\cyra }\IeC {\cyrch }\IeC {\cyri } \IeC {\cyrg }\IeC {\cyra }\IeC {\cyrz }\IeC {\cyra } \IeC {\cyrv } \IeC {\cyrs }\IeC {\cyri }\IeC {\cyrs }\IeC {\cyrt }\IeC {\cyre }\IeC {\cyrm }\IeC {\cyru } \IeC {\cyru }\IeC {\cyrp }\IeC {\cyrr }\IeC {\cyra }\IeC {\cyrv }\IeC {\cyrl }\IeC {\cyre }\IeC {\cyrn }\IeC {\cyri }\IeC {\cyrya }; 2 - \IeC {\cyrb }\IeC {\cyra }\IeC {\cyrl }\IeC {\cyrl }\IeC {\cyro }\IeC {\cyrn } \IeC {\cyrs } \IeC {\cyrg }\IeC {\cyra }\IeC {\cyrz }\IeC {\cyro }\IeC {\cyrm } (\IeC {\cyrs }\IeC {\cyri }\IeC {\cyrs }\IeC {\cyrt }\IeC {\cyre }\IeC {\cyrm }\IeC {\cyra } \IeC {\cyru }\IeC {\cyrp }\IeC {\cyrr }\IeC {\cyra }\IeC {\cyrv }\IeC {\cyrl }\IeC {\cyre }\IeC {\cyrn }\IeC {\cyri }\IeC {\cyrya }); 3 - \IeC {\cyrm }\IeC {\cyra }\IeC {\cyrn }\IeC {\cyro }\IeC {\cyrm }\IeC {\cyre }\IeC {\cyrt }\IeC {\cyrr }; 4 - \IeC {\cyrk }\IeC {\cyrl }\IeC {\cyra }\IeC {\cyrp }\IeC {\cyra }\IeC {\cyrn } \IeC {\cyrr }\IeC {\cyra }\IeC {\cyrs }\IeC {\cyrh }\IeC {\cyro }\IeC {\cyrd }\IeC {\cyrn }.; 5 - \IeC {\cyrk }\IeC {\cyrl }\IeC {\cyra }\IeC {\cyrp }\IeC {\cyra }\IeC {\cyrn } \IeC {\cyrp }\IeC {\cyrr }\IeC {\cyre }\IeC {\cyrd }\IeC {\cyro }\IeC {\cyrh }\IeC {\cyrr }\IeC {\cyra }\IeC {\cyrn }\IeC {\cyri }\IeC {\cyrt }.; 6 - \IeC {\cyrs }\IeC {\cyrm }\IeC {\cyre }\IeC {\cyrs }\IeC {\cyri }\IeC {\cyrt }\IeC {\cyre }\IeC {\cyrl }\IeC {\cyrsftsn }\IeC {\cyrn }\IeC {\cyrery }\IeC {\cyrishrt } \IeC {\cyrb }\IeC {\cyrl }\IeC {\cyro }\IeC {\cyrk }; 7 - \IeC {\CYRT }\IeC {\CYRT } \IeC {\cyrg }\IeC {\cyra }\IeC {\cyrz }\IeC {\cyro }\IeC {\cyrg }\IeC {\cyre }\IeC {\cyrn }\IeC {\cyre }\IeC {\cyrr }\IeC {\cyra }\IeC {\cyrt }\IeC {\cyro }\IeC {\cyrr }; 8 - \IeC {\cyrb }\IeC {\cyra }\IeC {\cyrk } \IeC {\cyrs } \IeC {\CYRP }\IeC {\CYRK }; 9 - \IeC {\cyrm }\IeC {\cyra }\IeC {\cyrg }\IeC {\cyri }\IeC {\cyrs }\IeC {\cyrt }\IeC {\cyrr }\IeC {\cyra }\IeC {\cyrl }\IeC {\cyrsftsn } \IeC {\cyrp }\IeC {\cyro }\IeC {\cyrd }\IeC {\cyra }\IeC {\cyrch }\IeC {\cyri } \IeC {\cyrg }\IeC {\cyra }\IeC {\cyrz }\IeC {\cyra } \IeC {\cyrn }\IeC {\cyra } \IeC {\cyrp }\IeC {\cyrs }\IeC {\cyre }\IeC {\cyrv }\IeC {\cyrd }\IeC {\cyro }\IeC {\cyro }\IeC {\cyrzh }\IeC {\cyri }\IeC {\cyrzh }\IeC {\cyre }\IeC {\cyrn }\IeC {\cyri }\IeC {\cyre } \IeC {\CYRP }\IeC {\CYRK }; 10 - \IeC {\cyrb }\IeC {\cyra }\IeC {\cyrl }\IeC {\cyrl }\IeC {\cyro }\IeC {\cyrn } \IeC {\cyrs } \IeC {\cyrg }\IeC {\cyra }\IeC {\cyrz }\IeC {\cyro }\IeC {\cyrm } (\IeC {\cyrp }\IeC {\cyrs }\IeC {\cyre }\IeC {\cyrv }\IeC {\cyrd }\IeC {\cyro }\IeC {\cyro }\IeC {\cyrzh }\IeC {\cyri }\IeC {\cyrzh }\IeC {\cyre }\IeC {\cyrn }\IeC {\cyri }\IeC {\cyre })\relax }}{17}}
\@writefile{toc}{\contentsline {subsubsection}{\numberline {5.0.1}\IeC {\CYRO }\IeC {\CYRS }\IeC {\CYRN }\IeC {\CYRO }\IeC {\CYRV }\IeC {\CYRN }\IeC {\CYRERY }\IeC {\CYRE } \IeC {\CYRS }\IeC {\CYRP }\IeC {\CYRO }\IeC {\CYRS }\IeC {\CYRO }\IeC {\CYRB }\IeC {\CYRERY } \IeC {\CYRI } \IeC {\CYRH }\IeC {\CYRA }\IeC {\CYRR }\IeC {\CYRA }\IeC {\CYRK }\IeC {\CYRT }\IeC {\CYRE }\IeC {\CYRR }\IeC {\CYRI }\IeC {\CYRS }\IeC {\CYRT }\IeC {\CYRI }\IeC {\CYRK }\IeC {\CYRI } \IeC {\CYRB }\IeC {\CYRU }\IeC {\CYRR }\IeC {\CYRE }\IeC {\CYRN }\IeC {\CYRI }\IeC {\CYRYA } \IeC {\CYRG }\IeC {\CYRR }\IeC {\CYRU }\IeC {\CYRN }\IeC {\CYRT }\IeC {\CYRO }\IeC {\CYRV }}{17}}
\@writefile{toc}{\contentsline {section}{\numberline {6}\IeC {\CYRK }\IeC {\cyro }\IeC {\cyrn }\IeC {\cyrv }\IeC {\cyre }\IeC {\cyrr }\IeC {\cyrs }\IeC {\cyri }\IeC {\cyrya } \IeC {\cyrd }\IeC {\cyre }\IeC {\cyrt }\IeC {\cyro }\IeC {\cyrn }\IeC {\cyra }\IeC {\cyrc }\IeC {\cyri }\IeC {\cyro }\IeC {\cyrn }\IeC {\cyrn }\IeC {\cyrery }\IeC {\cyrh } \IeC {\cyrr }\IeC {\cyra }\IeC {\cyrk }\IeC {\cyre }\IeC {\cyrt }\IeC {\cyrn }\IeC {\cyrery }\IeC {\cyrh } \IeC {\cyrd }\IeC {\cyrv }\IeC {\cyri }\IeC {\cyrg }\IeC {\cyra }\IeC {\cyrt }\IeC {\cyre }\IeC {\cyrl }\IeC {\cyre }\IeC {\cyrishrt }}{17}}
\@writefile{lot}{\contentsline {table}{\numberline {8}{\ignorespaces \IeC {\CYRR }\IeC {\CYRE }\IeC {\CYRZ }\IeC {\CYRU }\IeC {\CYRL }\IeC {\CYRSFTSN }\IeC {\CYRT }\IeC {\CYRA }\IeC {\CYRT }\IeC {\CYRERY } \IeC {\CYRI }\IeC {\CYRS }\IeC {\CYRP }\IeC {\CYRERY }\IeC {\CYRT }\IeC {\CYRA }\IeC {\CYRN }\IeC {\CYRI }\IeC {\CYRISHRT } \IeC {\CYRU }\IeC {\CYRS }\IeC {\CYRT }\IeC {\CYRA }\IeC {\CYRN }\IeC {\CYRO }\IeC {\CYRV }\IeC {\CYRK }\IeC {\CYRI }\relax }}{18}}
\@writefile{lof}{\contentsline {figure}{\numberline {5}{\ignorespaces \IeC {\CYRG }\IeC {\CYRA }\IeC {\CYRZ }\IeC {\CYRO }\IeC {\CYRD }\IeC {\CYRI }\IeC {\CYRN }\IeC {\CYRA }\IeC {\CYRM }\IeC {\CYRI }\IeC {\CYRCH }\IeC {\CYRE }\IeC {\CYRS }\IeC {\CYRK }\IeC {\CYRO }\IeC {\CYRE } \IeC {\CYRB }\IeC {\CYRU }\IeC {\CYRR }\IeC {\CYRE }\IeC {\CYRN }\IeC {\CYRI }\IeC {\CYRE } \IeC {\CYRS } \IeC {\CYRP }\IeC {\CYRR }\IeC {\CYRI }\IeC {\CYRM }\IeC {\CYRE }\IeC {\CYRN }\IeC {\CYRE }\IeC {\CYRN }\IeC {\CYRI }\IeC {\CYRE }\IeC {\CYRM } \IeC {\CYRR }\IeC {\CYRE }\IeC {\CYRA }\IeC {\CYRK }\IeC {\CYRT }\IeC {\CYRI }\IeC {\CYRV }\IeC {\CYRN }\IeC {\CYRERY }\IeC {\CYRH } \IeC {\CYRA }\IeC {\CYRP }\IeC {\CYRP }\IeC {\CYRA }\IeC {\CYRR }\IeC {\CYRA }\IeC {\CYRT }\IeC {\CYRO }\IeC {\CYRV } (\IeC {\CYRP }\IeC {\CYRE }\IeC {\CYRN }\IeC {\CYRE }\IeC {\CYRT }\IeC {\CYRR }\IeC {\CYRA }\IeC {\CYRT }\IeC {\CYRO }\IeC {\CYRR }\IeC {\CYRO }\IeC {\CYRV }) \IeC {\CYRN }\IeC {\CYRA } \IeC {\CYRT }\IeC {\CYRV }\IeC {\CYRE }\IeC {\CYRR }\IeC {\CYRD }\IeC {\CYRO }\IeC {\CYRM } \IeC {\CYRT }\IeC {\CYRO }\IeC {\CYRP }\IeC {\CYRL }\IeC {\CYRI }\IeC {\CYRV }\IeC {\CYRE }   1- \IeC {\cyru }\IeC {\cyrz }\IeC {\cyre }\IeC {\cyrl } \IeC {\cyrk }\IeC {\cyrr }\IeC {\cyre }\IeC {\cyrp }\IeC {\cyrl }\IeC {\cyre }\IeC {\cyrn }\IeC {\cyri }\IeC {\cyrya }; 2- \IeC {\cyrv }\IeC {\cyro }\IeC {\cyrs }\IeC {\cyrp }\IeC {\cyrl }\IeC {\cyra }\IeC {\cyrm }\IeC {\cyre }\IeC {\cyrn }\IeC {\cyri }\IeC {\cyrt }\IeC {\cyre }\IeC {\cyrl }\IeC {\cyrsftsn }\IeC {\cyrn }\IeC {\cyro }\IeC {\cyre } \IeC {\cyru }\IeC {\cyrs }\IeC {\cyrt }\IeC {\cyrr }\IeC {\cyro }\IeC {\cyrishrt }\IeC {\cyrs }\IeC {\cyrt }\IeC {\cyrv }\IeC {\cyro }; 3- \IeC {\cyrz }\IeC {\cyra }\IeC {\cyrr }\IeC {\cyrya }\IeC {\cyrd } \IeC {\cyrt }\IeC {\cyrv }\IeC {\cyre }\IeC {\cyrr }\IeC {\cyrd }\IeC {\cyro }\IeC {\cyrg }\IeC {\cyro } \IeC {\cyrt }\IeC {\cyro }\IeC {\cyrp }\IeC {\cyrl }\IeC {\cyri }\IeC {\cyrv }\IeC {\cyra }; 4- \IeC {\cyrk }\IeC {\cyro }\IeC {\cyrr }\IeC {\cyrp }\IeC {\cyru }\IeC {\cyrs } \IeC {\cyrp }\IeC {\cyre }\IeC {\cyrn }\IeC {\cyre }\IeC {\cyrt }\IeC {\cyrr }\IeC {\cyra }\IeC {\cyrt }\IeC {\cyro }\IeC {\cyrr }\IeC {\cyra }; 5- \IeC {\cyrb }\IeC {\cyru }\IeC {\cyrr }\IeC {\cyri }\IeC {\cyrl }\IeC {\cyrsftsn }\IeC {\cyrn }\IeC {\cyra }\IeC {\cyrya } \IeC {\cyrg }\IeC {\cyro }\IeC {\cyrl }\IeC {\cyro }\IeC {\cyrv }\IeC {\cyrk }\IeC {\cyra }; 6- \IeC {\cyrs }\IeC {\cyro }\IeC {\cyrp }\IeC {\cyrl }\IeC {\cyro } \IeC {\cyrb }\IeC {\cyru }\IeC {\cyrr }\IeC {\cyri }\IeC {\cyrl }\IeC {\cyrsftsn }\IeC {\cyrn }\IeC {\cyro }\IeC {\cyrishrt } \IeC {\cyrg }\IeC {\cyro }\IeC {\cyrl }\IeC {\cyro }\IeC {\cyrv }\IeC {\cyrk }\IeC {\cyri }\relax }}{18}}
\@writefile{toc}{\contentsline {subsection}{\numberline {6.1}\IeC {\CYRV }\IeC {\cyrl }\IeC {\cyri }\IeC {\cyrya }\IeC {\cyrn }\IeC {\cyri }\IeC {\cyre } \IeC {\cyrs }\IeC {\cyrr }\IeC {\cyre }\IeC {\cyrd }\IeC {\cyrery } \IeC {\cyrn }\IeC {\cyra } \IeC {\cyrh }\IeC {\cyra }\IeC {\cyrr }\IeC {\cyra }\IeC {\cyrk }\IeC {\cyrt }\IeC {\cyre }\IeC {\cyrr }\IeC {\cyri }\IeC {\cyrs }\IeC {\cyrt }\IeC {\cyri }\IeC {\cyrk }\IeC {\cyri } \IeC {\cyrd }\IeC {\cyre }\IeC {\cyrt }\IeC {\cyro }\IeC {\cyrn }\IeC {\cyra }\IeC {\cyrc }\IeC {\cyri }\IeC {\cyro }\IeC {\cyrn }\IeC {\cyrn }\IeC {\cyrery }\IeC {\cyrh } \IeC {\cyrd }\IeC {\cyrv }\IeC {\cyri }\IeC {\cyrg }\IeC {\cyra }\IeC {\cyrt }\IeC {\cyre }\IeC {\cyrl }\IeC {\cyre }\IeC {\cyrishrt } \IeC {\cyrn }\IeC {\cyra } \IeC {\cyrt }\IeC {\cyrv }\IeC {\cyre }\IeC {\cyrr }\IeC {\cyrd }\IeC {\cyrery }\IeC {\cyrh } \IeC {\CYRV }\IeC {\CYRV }}{19}}
\@writefile{toc}{\contentsline {subsection}{\numberline {6.2}\IeC {\CYRD }\IeC {\cyre }\IeC {\cyrt }\IeC {\cyro }\IeC {\cyrn }\IeC {\cyra }\IeC {\cyrc }\IeC {\cyri }\IeC {\cyro }\IeC {\cyrn }\IeC {\cyrn }\IeC {\cyrery }\IeC {\cyrishrt } \IeC {\cyrp }\IeC {\cyru }\IeC {\cyrl }\IeC {\cyrsftsn }\IeC {\cyrs }\IeC {\cyri }\IeC {\cyrr }\IeC {\cyru }\IeC {\cyryu }\IeC {\cyrshch }\IeC {\cyri }\IeC {\cyrishrt } \IeC {\cyrd }\IeC {\cyrv }\IeC {\cyri }\IeC {\cyrg }\IeC {\cyra }\IeC {\cyrt }\IeC {\cyre }\IeC {\cyrl }\IeC {\cyrsftsn }}{19}}
\@writefile{toc}{\contentsline {subsection}{\numberline {6.3}\IeC {\CYRP }\IeC {\cyru }\IeC {\cyrl }\IeC {\cyrsftsn }\IeC {\cyrs }\IeC {\cyri }\IeC {\cyrr }\IeC {\cyru }\IeC {\cyryu }\IeC {\cyrshch }\IeC {\cyri }\IeC {\cyre } \IeC {\cyrv }\IeC {\cyrz }\IeC {\cyrr }\IeC {\cyrery }\IeC {\cyrv }\IeC {\cyrn }\IeC {\cyrery }\IeC {\cyre } \IeC {\cyru }\IeC {\cyrs }\IeC {\cyrt }\IeC {\cyrr }\IeC {\cyro }\IeC {\cyrishrt }\IeC {\cyrs }\IeC {\cyrt }\IeC {\cyrv }\IeC {\cyra }}{20}}
\@writefile{toc}{\contentsline {section}{\numberline {7}\IeC {\CYRM }\IeC {\cyro }\IeC {\cyrd }\IeC {\cyru }\IeC {\cyrl }\IeC {\cyrsftsn } 2.}{20}}
\@writefile{toc}{\contentsline {subsection}{\numberline {7.1}\IeC {\CYRG }\IeC {\cyra }\IeC {\cyrz }\IeC {\cyro }\IeC {\cyrp }\IeC {\cyrl }\IeC {\cyra }\IeC {\cyrm }\IeC {\cyre }\IeC {\cyrn }\IeC {\cyrn }\IeC {\cyra }\IeC {\cyrya } \IeC {\cyrr }\IeC {\cyre }\IeC {\cyrz }\IeC {\cyrk }\IeC {\cyra } \IeC {\cyrm }\IeC {\cyra }\IeC {\cyrt }\IeC {\cyre }\IeC {\cyrr }\IeC {\cyri }\IeC {\cyra }\IeC {\cyrl }\IeC {\cyro }\IeC {\cyrv }}{21}}
\@writefile{toc}{\contentsline {subsection}{\numberline {7.2}\IeC {\CYRM }\IeC {\cyre }\IeC {\cyrh }\IeC {\cyra }\IeC {\cyrn }\IeC {\cyri }\IeC {\cyrz }\IeC {\cyrm }\IeC {\cyrery } \IeC {\cyrt }\IeC {\cyre }\IeC {\cyrr }\IeC {\cyrm }\IeC {\cyri }\IeC {\cyrch }\IeC {\cyre }\IeC {\cyrs }\IeC {\cyrk }\IeC {\cyro }\IeC {\cyrg }\IeC {\cyro } \IeC {\cyrr }\IeC {\cyra }\IeC {\cyrz }\IeC {\cyrr }\IeC {\cyru }\IeC {\cyrsh }\IeC {\cyre }\IeC {\cyrn }\IeC {\cyri }\IeC {\cyrya } \IeC {\cyrm }\IeC {\cyra }\IeC {\cyrt }\IeC {\cyre }\IeC {\cyrr }\IeC {\cyri }\IeC {\cyra }\IeC {\cyrl }\IeC {\cyro }\IeC {\cyrv }}{21}}
\@writefile{toc}{\contentsline {subsection}{\numberline {7.3}\IeC {\CYRK }\IeC {\cyri }\IeC {\cyrs }\IeC {\cyrl }\IeC {\cyro }\IeC {\cyrr }\IeC {\cyro }\IeC {\cyrd }\IeC {\cyrn }\IeC {\cyra }\IeC {\cyrya } \IeC {\cyrr }\IeC {\cyre }\IeC {\cyrz }\IeC {\cyrk }\IeC {\cyra }}{21}}
\@writefile{toc}{\contentsline {subsection}{\numberline {7.4}\IeC {\CYRK }\IeC {\cyre }\IeC {\cyrr }\IeC {\cyro }\IeC {\cyrs }\IeC {\cyri }\IeC {\cyrn }\IeC {\cyro }\IeC {\cyrr }\IeC {\cyre }\IeC {\cyrz }\IeC {\cyrery }}{22}}
\@writefile{toc}{\contentsline {subsection}{\numberline {7.5}\IeC {\CYRR }\IeC {\cyre }\IeC {\cyrz }\IeC {\cyrk }\IeC {\cyra } \IeC {\cyrm }\IeC {\cyra }\IeC {\cyrt }\IeC {\cyre }\IeC {\cyrr }\IeC {\cyri }\IeC {\cyra }\IeC {\cyrl }\IeC {\cyro }\IeC {\cyrv } \IeC {\cyrk }\IeC {\cyri }\IeC {\cyrs }\IeC {\cyrl }\IeC {\cyro }\IeC {\cyrr }\IeC {\cyro }\IeC {\cyrd }\IeC {\cyrn }\IeC {\cyrery }\IeC {\cyrm } \IeC {\cyrk }\IeC {\cyro }\IeC {\cyrp }\IeC {\cyrsftsn }\IeC {\cyre }\IeC {\cyrm }}{23}}
\@writefile{toc}{\contentsline {subsection}{\numberline {7.6}\IeC {\CYRK }\IeC {\cyri }\IeC {\cyrs }\IeC {\cyrl }\IeC {\cyro }\IeC {\cyrr }\IeC {\cyro }\IeC {\cyrd }\IeC {\cyrn }\IeC {\cyro }-\IeC {\cyrf }\IeC {\cyrl }\IeC {\cyryu }\IeC {\cyrs }\IeC {\cyro }\IeC {\cyrv }\IeC {\cyra }\IeC {\cyrya } \IeC {\cyrr }\IeC {\cyre }\IeC {\cyrz }\IeC {\cyrk }\IeC {\cyra }}{23}}
\@writefile{lof}{\contentsline {figure}{\numberline {6}{\ignorespaces \IeC {\CYREREV }\IeC {\cyrf }\IeC {\cyrf }\IeC {\cyre }\IeC {\cyrk }\IeC {\cyrt }\IeC {\cyri }\IeC {\cyrv }\IeC {\cyrn }\IeC {\cyro }\IeC {\cyrs }\IeC {\cyrt }\IeC {\cyrsftsn }\relax }}{24}}
\providecommand*\caption@xref[2]{\@setref\relax\@undefined{#1}}
\newlabel{fig:71}{{6}{24}}
\@writefile{toc}{\contentsline {subsection}{\numberline {7.7}\IeC {\CYRT }\IeC {\cyre }\IeC {\cyrr }\IeC {\cyrm }\IeC {\cyro }\IeC {\cyrg }\IeC {\cyra }\IeC {\cyrz }\IeC {\cyro }\IeC {\cyrs }\IeC {\cyrt }\IeC {\cyrr }\IeC {\cyru }\IeC {\cyrishrt }\IeC {\cyrn }\IeC {\cyra }\IeC {\cyrya } \IeC {\cyrr }\IeC {\cyre }\IeC {\cyrz }\IeC {\cyrk }\IeC {\cyra }}{24}}
\@writefile{lot}{\contentsline {table}{\numberline {9}{\ignorespaces \IeC {\CYRS }\IeC {\cyrp }\IeC {\cyro }\IeC {\cyrs }\IeC {\cyro }\IeC {\cyrb }\IeC {\cyrery } \IeC {\cyrt }\IeC {\cyre }\IeC {\cyrr }\IeC {\cyrm }\IeC {\cyro }\IeC {\cyrg }\IeC {\cyra }\IeC {\cyrz }\IeC {\cyro }\IeC {\cyrs }\IeC {\cyrt }\IeC {\cyrr }\IeC {\cyrishrt }\IeC {\cyrk }\IeC {\cyrn }\IeC {\cyro }\IeC {\cyrg }\IeC {\cyro } \IeC {\cyrb }\IeC {\cyru }\IeC {\cyrr }\IeC {\cyre }\IeC {\cyrn }\IeC {\cyri }\IeC {\cyrya } \IeC {\cyri } \IeC {\cyrr }\IeC {\cyre }\IeC {\cyrz }\IeC {\cyrk }\IeC {\cyri }\relax }}{24}}
\@writefile{toc}{\contentsline {subsection}{\numberline {7.8}\IeC {\CYRT }\IeC {\cyre }\IeC {\cyrr }\IeC {\cyrm }\IeC {\cyro }\IeC {\cyrr }\IeC {\cyre }\IeC {\cyrz }\IeC {\cyra }\IeC {\cyrk }\IeC {\cyri }}{24}}
\@writefile{toc}{\contentsline {section}{\numberline {8}\IeC {\CYRD }\IeC {\cyrv }\IeC {\cyru }\IeC {\cyrh }\IeC {\cyrf }\IeC {\cyra }\IeC {\cyrz }\IeC {\cyrn }\IeC {\cyrery }\IeC {\cyre } \IeC {\cyrs }\IeC {\cyrt }\IeC {\cyrr }\IeC {\cyru }\IeC {\cyrishrt }\IeC {\cyrn }\IeC {\cyrery }\IeC {\cyre } \IeC {\cyra }\IeC {\cyrp }\IeC {\cyrp }\IeC {\cyra }\IeC {\cyrr }\IeC {\cyra }\IeC {\cyrt }\IeC {\cyrery }}{24}}
\@writefile{toc}{\contentsline {subsection}{\numberline {8.1}}{25}}
\@writefile{toc}{\contentsline {subsection}{\numberline {8.2}\IeC {\CYRS }\IeC {\cyrh }\IeC {\cyre }\IeC {\cyrm }\IeC {\cyra } \IeC {\cyrd }\IeC {\cyrv }\IeC {\cyru }\IeC {\cyrh }\IeC {\cyrf }\IeC {\cyra }\IeC {\cyrz }\IeC {\cyrn }\IeC {\cyro }\IeC {\cyrg }\IeC {\cyro } \IeC {\CYRS }\IeC {\CYRA }}{25}}
\newlabel{fig:81}{{8.2}{25}}
\@writefile{toc}{\contentsline {subsection}{\numberline {8.3}\IeC {\CYRK }\IeC {\cyrl }\IeC {\cyra }\IeC {\cyrs }\IeC {\cyrs }\IeC {\cyri }\IeC {\cyrf }\IeC {\cyri }\IeC {\cyrk }\IeC {\cyra }\IeC {\cyrc }\IeC {\cyri }\IeC {\cyrya }}{25}}
\@writefile{toc}{\contentsline {subsection}{\numberline {8.4}\IeC {\CYRH }\IeC {\cyra }\IeC {\cyrr }\IeC {\cyra }\IeC {\cyrk }\IeC {\cyrt }\IeC {\cyre }\IeC {\cyrr } \IeC {\cyrt }\IeC {\cyre }\IeC {\cyrch }\IeC {\cyre }\IeC {\cyrn }\IeC {\cyri }\IeC {\cyrya } \IeC {\cyrp }\IeC {\cyro }\IeC {\cyrt }\IeC {\cyro }\IeC {\cyrk }\IeC {\cyro }\IeC {\cyrv } \IeC {\cyrp }\IeC {\cyro } \IeC {\cyrd }\IeC {\cyrl }\IeC {\cyri }\IeC {\cyrn }\IeC {\cyre } \IeC {\cyrp }\IeC {\cyrr }\IeC {\cyro }\IeC {\cyrt }\IeC {\cyro }\IeC {\cyrch }\IeC {\cyrn }\IeC {\cyrishrt } \IeC {\cyrch }\IeC {\cyra }\IeC {\cyrs }\IeC {\cyrt }\IeC {\cyri } \IeC {\CYRZH }\IeC {\CYRG }\IeC {\CYRS }\IeC {\CYRA }}{25}}
\newlabel{fig:82}{{8.4}{25}}
\@writefile{toc}{\contentsline {subsection}{\numberline {8.5}\IeC {\CYRK }\IeC {\cyrr }\IeC {\cyri }\IeC {\cyrt }\IeC {\cyri }\IeC {\cyrch }\IeC {\cyre }\IeC {\cyrs }\IeC {\cyrk }\IeC {\cyri }\IeC {\cyrishrt } \IeC {\cyrr }\IeC {\cyre }\IeC {\cyrzh }\IeC {\cyri }\IeC {\cyrm } \IeC {\cyrr }\IeC {\cyra }\IeC {\cyrb }\IeC {\cyro }\IeC {\cyrt }\IeC {\cyrery } \IeC {\CYRS }\IeC {\CYRA }}{26}}
\newlabel{fig:83}{{8.5}{26}}
\newlabel{fig:84}{{8.5}{26}}
\@writefile{toc}{\contentsline {subsection}{\numberline {8.6}\IeC {\CYRD }\IeC {\cyrv }\IeC {\cyru }\IeC {\cyrh }\IeC {\cyrf }\IeC {\cyra }\IeC {\cyrz }\IeC {\cyrn }\IeC {\cyrery }\IeC {\cyre } \IeC {\CYRS }\IeC {\CYRA } \IeC {\cyrv } \IeC {\cyrerev }\IeC {\cyrn }\IeC {\cyre }\IeC {\cyrr }\IeC {\cyrg }\IeC {\cyre }\IeC {\cyrt }\IeC {\cyri }\IeC {\cyrch }\IeC {\cyre }\IeC {\cyrs }\IeC {\cyrk }\IeC {\cyri }\IeC {\cyrh } \IeC {\cyru }\IeC {\cyrs }\IeC {\cyrt }\IeC {\cyra }\IeC {\cyrn }\IeC {\cyro }\IeC {\cyrv }\IeC {\cyrk }\IeC {\cyra }\IeC {\cyrh } \IeC {\cyrp }\IeC {\cyro }\IeC {\cyrd }\IeC {\cyrv }\IeC {\cyro }\IeC {\cyrd }\IeC {\cyrn }\IeC {\cyrery }\IeC {\cyrh } \IeC {\cyra }\IeC {\cyrp }\IeC {\cyrp }\IeC {\cyra }\IeC {\cyrr }\IeC {\cyra }\IeC {\cyrt }\IeC {\cyro }\IeC {\cyrv }}{26}}
\newlabel{fig:85}{{8.6}{26}}
\newlabel{fig:86}{{8.6}{26}}
\@writefile{toc}{\contentsline {subsection}{\numberline {8.7}\IeC {\CYRF }\IeC {\cyro }\IeC {\cyrr }\IeC {\cyrm }\IeC {\cyru }\IeC {\cyrl }\IeC {\cyra } \IeC {\cyrd }\IeC {\cyrl }\IeC {\cyrya } \IeC {\cyrr }\IeC {\cyra }\IeC {\cyrs }\IeC {\cyrch }\IeC {\cyre }\IeC {\cyrt }\IeC {\cyra } \IeC {\cyrm }\IeC {\cyro }\IeC {\cyrshch }\IeC {\cyrn }\IeC {\cyro }\IeC {\cyrs }\IeC {\cyrt }\IeC {\cyri } \IeC {\cyrt }\IeC {\cyru }\IeC {\cyrr }\IeC {\cyrb }\IeC {\cyri }\IeC {\cyrn }\IeC {\cyrery }}{26}}
\@writefile{toc}{\contentsline {subsection}{\numberline {8.8}\IeC {\CYRF }\IeC {\cyro }\IeC {\cyrr }\IeC {\cyrm }\IeC {\cyru }\IeC {\cyrl }\IeC {\cyra } \IeC {\cyrd }\IeC {\cyrl }\IeC {\cyrya } \IeC {\cyrr }\IeC {\cyra }\IeC {\cyrs }\IeC {\cyrch }\IeC {\cyre }\IeC {\cyrt }\IeC {\cyra } \IeC {\cyrt }\IeC {\cyre }\IeC {\cyrr }\IeC {\cyrm }\IeC {\cyri }\IeC {\cyrch }\IeC {\cyre }\IeC {\cyrs }\IeC {\cyrk }\IeC {\cyro }\IeC {\cyrg }\IeC {\cyro } \IeC {\CYRK }\IeC {\CYRP }\IeC {\CYRD } \IeC {\cyrd }\IeC {\cyrv }\IeC {\cyri }\IeC {\cyrg }\IeC {\cyra }\IeC {\cyrt }\IeC {\cyre }\IeC {\cyrl }\IeC {\cyrya }}{26}}
\newlabel{fig:87}{{8.8}{26}}
\@writefile{toc}{\contentsline {subsection}{\numberline {8.9}\IeC {\CYRP }\IeC {\cyrr }\IeC {\cyre }\IeC {\cyri }\IeC {\cyrm }\IeC {\cyru }\IeC {\cyrshch }\IeC {\cyre }\IeC {\cyrs }\IeC {\cyrt }\IeC {\cyrv }\IeC {\cyra } \IeC {\cyri }\IeC {\cyrs }\IeC {\cyrp }\IeC {\cyro }\IeC {\cyrl }\IeC {\cyrsftsn }\IeC {\cyrz }\IeC {\cyro }\IeC {\cyrv }\IeC {\cyra }\IeC {\cyrn }\IeC {\cyri }\IeC {\cyrya } \IeC {\cyrd }\IeC {\cyrv }\IeC {\cyru }\IeC {\cyrh }\IeC {\cyrf }\IeC {\cyra }\IeC {\cyrz }\IeC {\cyrn }\IeC {\cyrery }\IeC {\cyrh } \IeC {\CYRS }\IeC {\CYRA } \IeC {\cyrv } \IeC {\cyrerev }\IeC {\cyrn }\IeC {\cyre }\IeC {\cyrr }\IeC {\cyrg }\IeC {\cyre }\IeC {\cyrt }\IeC {\cyri }\IeC {\cyrch }\IeC {\cyre }\IeC {\cyrs }\IeC {\cyrk }\IeC {\cyri }\IeC {\cyrh } \IeC {\cyru }\IeC {\cyrs }\IeC {\cyrt }\IeC {\cyra }\IeC {\cyrn }\IeC {\cyro }\IeC {\cyrv }\IeC {\cyrk }\IeC {\cyra }\IeC {\cyrh } \IeC {\cyrp }\IeC {\cyro }\IeC {\cyrd }\IeC {\cyrv }\IeC {\cyro }\IeC {\cyrd }\IeC {\cyrn }\IeC {\cyrery }\IeC {\cyrh } \IeC {\cyra }\IeC {\cyrp }\IeC {\cyrp }\IeC {\cyra }\IeC {\cyrr }\IeC {\cyra }\IeC {\cyrt }\IeC {\cyro }\IeC {\cyrv }}{26}}
\@writefile{toc}{\contentsline {subsection}{\numberline {8.10}\IeC {\CYRD }\IeC {\cyrv }\IeC {\cyru }\IeC {\cyrh }\IeC {\cyrf }\IeC {\cyra }\IeC {\cyrz }\IeC {\cyrn }\IeC {\cyrery }\IeC {\cyre } \IeC {\CYRS }\IeC {\CYRA } \IeC {\cyrv } \IeC {\cyro }\IeC {\cyrt }\IeC {\cyrk }\IeC {\cyra }\IeC {\cyrch }\IeC {\cyri }\IeC {\cyrv }\IeC {\cyra }\IeC {\cyryu }\IeC {\cyrshch }\IeC {\cyri }\IeC {\cyrh } \IeC {\cyru }\IeC {\cyrs }\IeC {\cyrt }\IeC {\cyra }\IeC {\cyrn }\IeC {\cyro }\IeC {\cyrv }\IeC {\cyrk }\IeC {\cyra }\IeC {\cyrh } \IeC {\cyrv }\IeC {\cyrery }\IeC {\cyrs }\IeC {\cyro }\IeC {\cyrt }\IeC {\cyrn }\IeC {\cyrery }\IeC {\cyrh } \IeC {\cyrs }\IeC {\cyrt }\IeC {\cyre }\IeC {\cyrn }\IeC {\cyrd }\IeC {\cyro }\IeC {\cyrv }}{26}}
\newlabel{fig:88}{{8.10}{26}}
\@writefile{toc}{\contentsline {subsection}{\numberline {8.11}\IeC {\CYRP }\IeC {\cyrr }\IeC {\cyre }\IeC {\cyri }\IeC {\cyrm }\IeC {\cyru }\IeC {\cyrshch }\IeC {\cyre }\IeC {\cyrs }\IeC {\cyrt }\IeC {\cyrv }\IeC {\cyra } \IeC {\cyri }\IeC {\cyrs }\IeC {\cyrp }\IeC {\cyro }\IeC {\cyrl }\IeC {\cyrsftsn }\IeC {\cyrz }\IeC {\cyro }\IeC {\cyrv }\IeC {\cyra }\IeC {\cyri }\IeC {\cyrya } \IeC {\cyrd }\IeC {\cyrv }\IeC {\cyru }\IeC {\cyrh }\IeC {\cyrf }\IeC {\cyra }\IeC {\cyrz }\IeC {\cyrn }\IeC {\cyrery }\IeC {\cyrh } \IeC {\CYRZH }\IeC {\CYRG }\IeC {\CYRS }\IeC {\CYRA } (\IeC {\cyrp }\IeC {\cyro } \IeC {\cyrs }\IeC {\cyrr }\IeC {\cyra }\IeC {\cyrv }\IeC {\cyrn }\IeC {\cyre }\IeC {\cyrn }\IeC {\cyri }\IeC {\cyryu } \IeC {\cyrs } \IeC {\cyrp }\IeC {\cyra }\IeC {\cyrr }\IeC {\cyro }\IeC {\cyrv }\IeC {\cyrery }\IeC {\cyrm }\IeC {\cyri } \IeC {\cyrerev }\IeC {\cyrzh }\IeC {\cyre }\IeC {\cyrk }\IeC {\cyrt }\IeC {\cyro }\IeC {\cyrr }\IeC {\cyra }\IeC {\cyrm }\IeC {\cyri })}{27}}
\@writefile{toc}{\contentsline {subsection}{\numberline {8.12}\IeC {\CYRU }\IeC {\cyrr }\IeC {\cyra }\IeC {\cyrv }\IeC {\cyrn }\IeC {\cyre }\IeC {\cyrn }\IeC {\cyri }\IeC {\cyrya } \IeC {\cyrerev }\IeC {\cyrzh }\IeC {\cyre }\IeC {\cyrk }\IeC {\cyrc }\IeC {\cyri }\IeC {\cyri }, \IeC {\cyrp }\IeC {\cyrr }\IeC {\cyri }\IeC {\cyrm }\IeC {\cyre }\IeC {\cyrn }\IeC {\cyrya }\IeC {\cyre }\IeC {\cyrm }\IeC {\cyrery }\IeC {\cyre } \IeC {\cyrd }\IeC {\cyrl }\IeC {\cyrya } \IeC {\cyrr }\IeC {\cyra }\IeC {\cyrs }\IeC {\cyrch }\IeC {\cyre }\IeC {\cyrt }\IeC {\cyra } \IeC {\cyrerev }\IeC {\cyrzh }\IeC {\cyre }\IeC {\cyrk }\IeC {\cyrt }\IeC {\cyro }\IeC {\cyrr }\IeC {\cyra }}{27}}
