# Fdb version 3
["pdflatex"] 1571832840 "/home/ndgorelov/git/lectures/Otrabotka/rk1.tex" "/home/ndgorelov/git/lectures/Otrabotka/rk1.pdf" "rk1" 1571832841
  "../latex/preams/aliases.tex" 1571831630 1729 ea080648d7a092b945e7b6c3ef01dcfb ""
  "../latex/preams/commands.tex" 1571831630 3555 8be406641b140cb352813a55e179e1c9 ""
  "../latex/preams/page_style/large.tex" 1571832840 479 6c3ee1f6a981f1526aab0ead0f01061d ""
  "../latex/preams/pream.tex" 1571831630 2332 b817856b886f76a83c89d0c6eb6b7fa3 ""
  "../latex/preams/title_style/default.tex" 1571831630 409 e778d4905f097b7dc4204d1b15aa14bc ""
  "/etc/texmf/web2c/texmf.cnf" 1550050893 475 c0e671620eb5563b2130f56340a5fde8 ""
  "/home/ndgorelov/.texlive2016/texmf-var/fonts/tfm/lh/lh-t2a/labx1000.tfm" 1571832767 3300 6abb8e321227ead2a8e929e5abc72bd3 ""
  "/home/ndgorelov/.texlive2016/texmf-var/fonts/tfm/lh/lh-t2a/labx1200.tfm" 1553683232 3308 eee81981029f67083258db36df06e523 ""
  "/home/ndgorelov/.texlive2016/texmf-var/fonts/tfm/lh/lh-t2a/labx1440.tfm" 1553683245 3304 6a543c07045572737981351171e0505e ""
  "/home/ndgorelov/.texlive2016/texmf-var/fonts/tfm/lh/lh-t2a/larm1000.tfm" 1553683215 3220 0e417eaf233b160335902e97259a6c77 ""
  "/home/ndgorelov/.texlive2016/texmf-var/fonts/tfm/lh/lh-t2a/larm1200.tfm" 1553683204 3240 c2435f2b5cd66d4930bc29b8df87967e ""
  "/home/ndgorelov/.texlive2016/texmf-var/fonts/tfm/lh/lh-t2a/larm1440.tfm" 1553683212 3256 3daaa33cf35cf3f354983aa3214ecd7f ""
  "/home/ndgorelov/git/lectures/Otrabotka/rk1.aux" 1571832841 1002 17d502f6d0a97a1896f9928eedd6c6e6 ""
  "/home/ndgorelov/git/lectures/Otrabotka/rk1.tex" 1571832816 15894 97a1cdf1a6adf839af8b51bb18e6b907 ""
  "/usr/share/texlive/texmf-dist/fonts/map/fontname/texfonts.map" 1272929888 3287 e6b82fe08f5336d4d5ebc73fb1152e87 ""
  "/usr/share/texlive/texmf-dist/tex/context/base/mkii/supp-pdf.mkii" 1461363279 71627 94eb9990bed73c364d7f53f960cc8c5b ""
  "/usr/share/texlive/texmf-dist/tex/generic/babel-english/english.ldf" 1367878877 6963 2e0cb3d93aa64508bdb0db58ae900d97 ""
  "/usr/share/texlive/texmf-dist/tex/generic/babel-russian/russianb.ldf" 1483743665 23879 bf8cbf1c49a3a415578b92b3211ab0c0 ""
  "/usr/share/texlive/texmf-dist/tex/generic/babel/babel.def" 1461448269 50112 8190990703f12b57db0dfe9b839e1e24 ""
  "/usr/share/texlive/texmf-dist/tex/generic/babel/babel.sty" 1461448269 13499 2379954ebbdf3db89eccb32499d2da36 ""
  "/usr/share/texlive/texmf-dist/tex/generic/ifxetex/ifxetex.sty" 1284331290 1458 43ab4710dc82f3edeabecd0d099626b2 ""
  "/usr/share/texlive/texmf-dist/tex/generic/oberdiek/atbegshi.sty" 1465595255 24580 144573175d90c8e36676f97ae1d11ec2 ""
  "/usr/share/texlive/texmf-dist/tex/generic/oberdiek/etexcmds.sty" 1463608860 7612 729a8cc22a1ee0029997c7f74717ae05 ""
  "/usr/share/texlive/texmf-dist/tex/generic/oberdiek/ifluatex.sty" 1463608860 7324 2310d1247db0114eb4726807c8837a0e ""
  "/usr/share/texlive/texmf-dist/tex/generic/oberdiek/ifpdf.sty" 1463348357 1226 01a89dfef361f60ae7df13cd2946bc16 ""
  "/usr/share/texlive/texmf-dist/tex/generic/oberdiek/ifvtex.sty" 1463608860 6797 90b7f83b0ad46826bc16058b1e3d48df ""
  "/usr/share/texlive/texmf-dist/tex/generic/oberdiek/infwarerr.sty" 1463608860 8253 473e0e41f9adadb1977e8631b8f72ea6 ""
  "/usr/share/texlive/texmf-dist/tex/generic/oberdiek/kvdefinekeys.sty" 1463608860 5152 b67a3a964ad9851e095110c854a1d461 ""
  "/usr/share/texlive/texmf-dist/tex/generic/oberdiek/kvsetkeys.sty" 1463608860 14040 ac8866aac45982ac84021584b0abb252 ""
  "/usr/share/texlive/texmf-dist/tex/generic/oberdiek/ltxcmds.sty" 1463608860 18425 5b3c0c59d76fac78978b5558e83c1f36 ""
  "/usr/share/texlive/texmf-dist/tex/generic/oberdiek/pdftexcmds.sty" 1465595255 20115 901306eb5d88a0bb40b00d0ce4448e2f ""
  "/usr/share/texlive/texmf-dist/tex/generic/unicode-data/CaseFolding.txt" 1466630993 78161 e3fbf2f626f10070000fe66f3a2ff5ef ""
  "/usr/share/texlive/texmf-dist/tex/generic/unicode-data/SpecialCasing.txt" 1466630993 16830 fea30f45a2f81ffa474fd984d297e2ea ""
  "/usr/share/texlive/texmf-dist/tex/generic/unicode-data/UnicodeData.txt" 1466630993 1686443 dde25b1cf9bbb4ba1140ac12e4128b0b ""
  "/usr/share/texlive/texmf-dist/tex/latex/amscls/amsthm.sty" 1428861406 12225 3cca0d18522255979a1047206228b9d0 ""
  "/usr/share/texlive/texmf-dist/tex/latex/amsfonts/amsfonts.sty" 1359763108 5949 3f3fd50a8cc94c3d4cbf4fc66cd3df1c ""
  "/usr/share/texlive/texmf-dist/tex/latex/amsfonts/amssymb.sty" 1359763108 13829 94730e64147574077f8ecfea9bb69af4 ""
  "/usr/share/texlive/texmf-dist/tex/latex/amsfonts/euscript.sty" 1359763108 1319 275cecae59b75cbd38ce73df76acdb23 ""
  "/usr/share/texlive/texmf-dist/tex/latex/amsmath/amsbsy.sty" 1480098820 2210 5c54ab129b848a5071554186d0168766 ""
  "/usr/share/texlive/texmf-dist/tex/latex/amsmath/amsgen.sty" 1480098820 4160 c115536cf8d4ff25aa8c1c9bc4ecb79a ""
  "/usr/share/texlive/texmf-dist/tex/latex/amsmath/amsmath.sty" 1485129665 84329 81aa65c5042562f79cb421feff9b8bdc ""
  "/usr/share/texlive/texmf-dist/tex/latex/amsmath/amsopn.sty" 1480098820 4115 318a66090112f3aa3f415aeb6fe8540f ""
  "/usr/share/texlive/texmf-dist/tex/latex/amsmath/amstext.sty" 1480098820 2431 fe3078ec12fc30287f568596f8e0b948 ""
  "/usr/share/texlive/texmf-dist/tex/latex/base/article.cls" 1480098821 19821 310da678527a7dfe2a02c88af38079b7 ""
  "/usr/share/texlive/texmf-dist/tex/latex/base/fontenc.sty" 1488610416 4571 9038da8f43b184392cf48183aeb91e1a ""
  "/usr/share/texlive/texmf-dist/tex/latex/base/ifthen.sty" 1480098821 5159 a08c9bbd48fc492f15b22e458bef961f ""
  "/usr/share/texlive/texmf-dist/tex/latex/base/inputenc.sty" 1480098821 4732 d63eda807ac82cca2ca8488efd31a966 ""
  "/usr/share/texlive/texmf-dist/tex/latex/base/omsenc.dfu" 1488610416 2004 ac51aeac484f08c01026120d62677eca ""
  "/usr/share/texlive/texmf-dist/tex/latex/base/ot1enc.dfu" 1488610416 3181 1cb3e9ad01f4a01127b2ffd821bfeec7 ""
  "/usr/share/texlive/texmf-dist/tex/latex/base/size10.clo" 1480098821 8292 e897c12e1e886ce77fe26afc5d470886 ""
  "/usr/share/texlive/texmf-dist/tex/latex/base/t1enc.dfu" 1488610416 11255 9d97362866549d3d3c994b5f28d1b9b5 ""
  "/usr/share/texlive/texmf-dist/tex/latex/base/t2aenc.dfu" 1488610416 9436 974c01d03e7c6832bde4076474f21ca1 ""
  "/usr/share/texlive/texmf-dist/tex/latex/base/utf8.def" 1488610416 7784 325a2a09984cb5c4ff230f9867145ad3 ""
  "/usr/share/texlive/texmf-dist/tex/latex/caption/caption.sty" 1456094605 66233 8b81cfab95a1f8fc2f0f6c89415b087a ""
  "/usr/share/texlive/texmf-dist/tex/latex/caption/caption3.sty" 1465747931 64866 1ea74c5f2d1685881497f021b8f186b2 ""
  "/usr/share/texlive/texmf-dist/tex/latex/caption/subcaption.sty" 1465747931 5038 413302044f9700cf65465d590c2f4ad1 ""
  "/usr/share/texlive/texmf-dist/tex/latex/chngcntr/chngcntr.sty" 1252025909 4063 effd8d02c8357a7a1b0c045c4e25e292 ""
  "/usr/share/texlive/texmf-dist/tex/latex/cmap/cmap.sty" 1215522782 2883 427a7f7cb58418a0394dbd85c80668f6 ""
  "/usr/share/texlive/texmf-dist/tex/latex/cmap/t2a.cmap" 1215522782 1872 8a484407d6912048284390d9f7606e28 ""
  "/usr/share/texlive/texmf-dist/tex/latex/cyrillic/t2acmr.fd" 1428932888 2350 aea5ec15a9fc621f63498b8910478706 ""
  "/usr/share/texlive/texmf-dist/tex/latex/cyrillic/t2aenc.def" 1428932888 12040 8e32bd761154bb49de9af8d0164b52dc ""
  "/usr/share/texlive/texmf-dist/tex/latex/epigraph/epigraph.sty" 1252025458 4493 37cd2a99f1ea97dde5b8561155682d0e ""
  "/usr/share/texlive/texmf-dist/tex/latex/eso-pic/eso-pic.sty" 1437606041 11954 3abdeb9fbc956bcd048295dd83dd5e7c ""
  "/usr/share/texlive/texmf-dist/tex/latex/fancyhdr/fancyhdr.sty" 1473197494 22494 ab2f238426db63334832f85a72ef1f3b ""
  "/usr/share/texlive/texmf-dist/tex/latex/geometry/geometry.sty" 1284422013 40502 e003406220954b0716679d7928aedd8a ""
  "/usr/share/texlive/texmf-dist/tex/latex/graphics-cfg/color.cfg" 1459978653 1213 620bba36b25224fa9b7e1ccb4ecb76fd ""
  "/usr/share/texlive/texmf-dist/tex/latex/graphics-cfg/graphics.cfg" 1465944070 1224 978390e9c2234eab29404bc21b268d1e ""
  "/usr/share/texlive/texmf-dist/tex/latex/graphics-def/pdftex.def" 1485129666 58250 3792a9d2d1d664ee8c742498e295b051 ""
  "/usr/share/texlive/texmf-dist/tex/latex/graphics/graphics.sty" 1485129665 14574 2878810b0466da67e0d0ab10fdd2f6ff ""
  "/usr/share/texlive/texmf-dist/tex/latex/graphics/graphicx.sty" 1480098830 8125 557ab9f1bfa80d369fb45a914aa8a3b4 ""
  "/usr/share/texlive/texmf-dist/tex/latex/graphics/keyval.sty" 1480098830 2594 d18d5e19aa8239cf867fa670c556d2e9 ""
  "/usr/share/texlive/texmf-dist/tex/latex/graphics/lscape.sty" 1480098830 1757 94e21888eaf2391b7bbc441045c70c12 ""
  "/usr/share/texlive/texmf-dist/tex/latex/graphics/trig.sty" 1480098830 3980 0a268fbfda01e381fa95821ab13b6aee ""
  "/usr/share/texlive/texmf-dist/tex/latex/ifmtarg/ifmtarg.sty" 1278810218 438 4c0f57b7cba6e6ca9226b32da26f82e9 ""
  "/usr/share/texlive/texmf-dist/tex/latex/import/import.sty" 1238175524 5149 44c7223e2a76dc66e41be8c1fb1477de ""
  "/usr/share/texlive/texmf-dist/tex/latex/jknapltx/mathrsfs.sty" 1137110241 300 12fa6f636b617656f2810ee82cb05015 ""
  "/usr/share/texlive/texmf-dist/tex/latex/l3kernel/expl3-code.tex" 1479855016 699007 63c8044940f00369800dd78d8055db99 ""
  "/usr/share/texlive/texmf-dist/tex/latex/l3kernel/expl3.sty" 1479855016 10238 835a9e47ba69af609679d5abf657cfaf ""
  "/usr/share/texlive/texmf-dist/tex/latex/l3kernel/l3pdfmode.def" 1476909500 11199 4171493874042bbbacba0e3c76eaa3b9 ""
  "/usr/share/texlive/texmf-dist/tex/latex/l3packages/xparse/xparse.sty" 1479855016 61747 bc8d4b271647fcbab6a9323c6e413fdc ""
  "/usr/share/texlive/texmf-dist/tex/latex/latexconfig/epstopdf-sys.cfg" 1279039959 678 4792914a8f45be57bb98413425e4c7af ""
  "/usr/share/texlive/texmf-dist/tex/latex/marginnote/marginnote.sty" 1477086085 13505 4d83c5a1bad6c014b6c613c462c4e558 ""
  "/usr/share/texlive/texmf-dist/tex/latex/mathtools/mathtools.sty" 1447366689 52544 230bee00b51474565531682f2222a2d9 ""
  "/usr/share/texlive/texmf-dist/tex/latex/mathtools/mhsetup.sty" 1407448394 5175 696879833890ce832e12746d98d0e932 ""
  "/usr/share/texlive/texmf-dist/tex/latex/multirow/multirow.sty" 1480201744 5015 cd8d25106b58dfc16af57528a07d0bc9 ""
  "/usr/share/texlive/texmf-dist/tex/latex/oberdiek/auxhook.sty" 1463608860 3834 4363110eb0ef1eb2b71c8fcbcdb6c357 ""
  "/usr/share/texlive/texmf-dist/tex/latex/oberdiek/epstopdf-base.sty" 1463608860 12095 5337833c991d80788a43d3ce26bd1c46 ""
  "/usr/share/texlive/texmf-dist/tex/latex/oberdiek/grfext.sty" 1463608860 7075 2fe3d848bba95f139de11ded085e74aa ""
  "/usr/share/texlive/texmf-dist/tex/latex/oberdiek/kvoptions.sty" 1463608860 22417 1d9df1eb66848aa31b18a593099cf45c ""
  "/usr/share/texlive/texmf-dist/tex/latex/oberdiek/pdflscape.sty" 1463348357 6688 c84de1eae6cda82865a6d3d09e339ec9 ""
  "/usr/share/texlive/texmf-dist/tex/latex/oberdiek/transparent.sty" 1463608860 3565 4692144368346ec2c9a7250b7e1a5546 ""
  "/usr/share/texlive/texmf-dist/tex/latex/pdfpages/pdfpages.sty" 1484611267 53017 803f45246fe24847b392eece8792bb19 ""
  "/usr/share/texlive/texmf-dist/tex/latex/pdfpages/pppdftex.def" 1484611267 6364 984404758f5e5b042d04324b5c48cda1 ""
  "/usr/share/texlive/texmf-dist/tex/latex/t2/mathtext.sty" 1137110910 4343 49ccf6e6f0927f24f20b51a6aaa48261 ""
  "/usr/share/texlive/texmf-dist/tex/latex/titlesec/titlesec.sty" 1458858524 37387 afa86533e532701faf233f3f592c61e0 ""
  "/usr/share/texlive/texmf-dist/tex/latex/titlesec/ttlkeys.def" 1458858524 3476 5840a38d3fbbea105c892be7110502b8 ""
  "/usr/share/texlive/texmf-dist/tex/latex/tools/array.sty" 1485129666 12396 d41f82b039f900e95f351e54ae740f31 ""
  "/usr/share/texlive/texmf-dist/tex/latex/tools/calc.sty" 1480098841 10214 d03d065f799d54f6b7e9b175f8d84279 ""
  "/usr/share/texlive/texmf-dist/tex/latex/tools/indentfirst.sty" 1480098841 1617 820bc46185ca5aeeda2ecc6c21866b18 ""
  "/usr/share/texlive/texmf-dist/tex/latex/tools/multicol.sty" 1480098841 29824 08f95a42addbc2524015cbf3bc7ad24a ""
  "/usr/share/texlive/texmf-dist/tex/latex/tools/tabularx.sty" 1480098841 7141 64e8a94c3d083215654cd9a5b9dcc136 ""
  "/usr/share/texlive/texmf-dist/tex/latex/was/icomma.sty" 1137111079 1018 df058db1896806f044e2233bb506d425 ""
  "/usr/share/texlive/texmf-dist/tex/latex/wrapfig/wrapfig.sty" 1137111090 26220 3701aebf80ccdef248c0c20dd062fea9 ""
  "/usr/share/texlive/texmf-dist/tex/latex/xcolor/xcolor.sty" 1463002160 55589 34128738f682d033422ca125f82e5d62 ""
  "/usr/share/texlive/texmf-dist/tex/latex/xifthen/xifthen.sty" 1448319911 5689 1bfa68243e89a54479e7d0580773c57e ""
  "/usr/share/texlive/texmf-dist/web2c/texmf.cnf" 1488610416 31340 0f53f8665296bf8fe6c697f9505e31d8 ""
  "/usr/share/texmf/fonts/enc/dvips/cm-super/cm-super-t2a.enc" 1367894768 3141 82d5616418ed8d5de703b3951bedecb4 ""
  "/usr/share/texmf/fonts/type1/public/cm-super/sfbx1000.pfb" 1367894767 145408 43d44302ca7d82d487f511f83e309505 ""
  "/usr/share/texmf/fonts/type1/public/cm-super/sfbx1200.pfb" 1550051060 140176 d4962f948b4cc0adf4d3dde77a128c95 ""
  "/usr/share/texmf/fonts/type1/public/cm-super/sfbx1440.pfb" 1550051060 135942 859a90cad7494a1e79c94baf546d7de5 ""
  "/usr/share/texmf/fonts/type1/public/cm-super/sfrm1000.pfb" 1367894767 138258 6525c253f16cededa14c7fd0da7f67b2 ""
  "/usr/share/texmf/web2c/texmf.cnf" 1488610416 31340 0f53f8665296bf8fe6c697f9505e31d8 ""
  "/var/lib/texmf/fonts/map/pdftex/updmap/pdftex.map" 1550051160 2044936 0edf5ca64352b50b145b46ea2ee03d92 ""
  "/var/lib/texmf/web2c/pdftex/pdflatex.fmt" 1550051184 3869669 b27bfd5b9d70b8e5e19244952c9bc1de ""
  "rk1.aux" 1571832841 1002 17d502f6d0a97a1896f9928eedd6c6e6 ""
  "rk1.tex" 1571832816 15894 97a1cdf1a6adf839af8b51bb18e6b907 ""
  (generated)
  "/home/ndgorelov/git/lectures/Otrabotka/rk1.pdf"
  "rk1.log"
  "rk1.aux"
  "/home/ndgorelov/git/lectures/Otrabotka/rk1.log"
  "rk1.pdf"
