PWD /home/ndgorelov/git/lectures/Otrabotka
INPUT /etc/texmf/web2c/texmf.cnf
INPUT /usr/share/texmf/web2c/texmf.cnf
INPUT /usr/share/texlive/texmf-dist/web2c/texmf.cnf
INPUT /var/lib/texmf/web2c/pdftex/pdflatex.fmt
INPUT /home/ndgorelov/git/lectures/Otrabotka/rk1.tex
OUTPUT /home/ndgorelov/git/lectures/Otrabotka/rk1.log
INPUT /usr/share/texlive/texmf-dist/tex/latex/base/article.cls
INPUT /usr/share/texlive/texmf-dist/tex/latex/base/article.cls
INPUT /usr/share/texlive/texmf-dist/tex/latex/base/size10.clo
INPUT /usr/share/texlive/texmf-dist/tex/latex/base/size10.clo
INPUT ../latex/preams/pream.tex
INPUT ../latex/preams/pream.tex
INPUT /usr/share/texlive/texmf-dist/tex/generic/babel/babel.sty
INPUT /usr/share/texlive/texmf-dist/tex/generic/babel/babel.sty
INPUT /usr/share/texlive/texmf-dist/tex/generic/babel-english/english.ldf
INPUT /usr/share/texlive/texmf-dist/tex/generic/babel-english/english.ldf
INPUT /usr/share/texlive/texmf-dist/tex/generic/babel/babel.def
INPUT /usr/share/texlive/texmf-dist/tex/generic/babel-russian/russianb.ldf
INPUT /usr/share/texlive/texmf-dist/tex/generic/babel-russian/russianb.ldf
INPUT /usr/share/texlive/texmf-dist/tex/latex/cyrillic/t2aenc.def
INPUT /usr/share/texlive/texmf-dist/tex/latex/cmap/cmap.sty
INPUT /usr/share/texlive/texmf-dist/tex/latex/cmap/cmap.sty
INPUT /usr/share/texlive/texmf-dist/tex/latex/t2/mathtext.sty
INPUT /usr/share/texlive/texmf-dist/tex/latex/t2/mathtext.sty
INPUT /usr/share/texlive/texmf-dist/tex/latex/base/fontenc.sty
INPUT /usr/share/texlive/texmf-dist/tex/latex/base/fontenc.sty
INPUT /usr/share/texlive/texmf-dist/tex/latex/cyrillic/t2aenc.def
INPUT /usr/share/texlive/texmf-dist/tex/latex/cyrillic/t2aenc.def
INPUT /usr/share/texlive/texmf-dist/tex/latex/cyrillic/t2acmr.fd
INPUT /usr/share/texlive/texmf-dist/tex/latex/cyrillic/t2acmr.fd
INPUT /usr/share/texlive/texmf-dist/fonts/map/fontname/texfonts.map
INPUT /home/ndgorelov/.texlive2016/texmf-var/fonts/tfm/lh/lh-t2a/larm1000.tfm
INPUT /usr/share/texlive/texmf-dist/tex/latex/cmap/t2a.cmap
OUTPUT /home/ndgorelov/git/lectures/Otrabotka/rk1.pdf
INPUT /usr/share/texlive/texmf-dist/tex/latex/cmap/t2a.cmap
INPUT /usr/share/texlive/texmf-dist/tex/latex/base/inputenc.sty
INPUT /usr/share/texlive/texmf-dist/tex/latex/base/inputenc.sty
INPUT /usr/share/texlive/texmf-dist/tex/latex/base/utf8.def
INPUT /usr/share/texlive/texmf-dist/tex/latex/base/utf8.def
INPUT /usr/share/texlive/texmf-dist/tex/latex/base/t1enc.dfu
INPUT /usr/share/texlive/texmf-dist/tex/latex/base/t1enc.dfu
INPUT /usr/share/texlive/texmf-dist/tex/latex/base/ot1enc.dfu
INPUT /usr/share/texlive/texmf-dist/tex/latex/base/ot1enc.dfu
INPUT /usr/share/texlive/texmf-dist/tex/latex/base/omsenc.dfu
INPUT /usr/share/texlive/texmf-dist/tex/latex/base/omsenc.dfu
INPUT /usr/share/texlive/texmf-dist/tex/latex/base/t2aenc.dfu
INPUT /usr/share/texlive/texmf-dist/tex/latex/base/t2aenc.dfu
INPUT /usr/share/texlive/texmf-dist/tex/latex/fancyhdr/fancyhdr.sty
INPUT /usr/share/texlive/texmf-dist/tex/latex/fancyhdr/fancyhdr.sty
INPUT /usr/share/texlive/texmf-dist/tex/latex/titlesec/titlesec.sty
INPUT /usr/share/texlive/texmf-dist/tex/latex/titlesec/titlesec.sty
INPUT /usr/share/texlive/texmf-dist/tex/latex/amsmath/amsmath.sty
INPUT /usr/share/texlive/texmf-dist/tex/latex/amsmath/amsmath.sty
INPUT /usr/share/texlive/texmf-dist/tex/latex/amsmath/amstext.sty
INPUT /usr/share/texlive/texmf-dist/tex/latex/amsmath/amstext.sty
INPUT /usr/share/texlive/texmf-dist/tex/latex/amsmath/amsgen.sty
INPUT /usr/share/texlive/texmf-dist/tex/latex/amsmath/amsgen.sty
INPUT /usr/share/texlive/texmf-dist/tex/latex/amsmath/amsbsy.sty
INPUT /usr/share/texlive/texmf-dist/tex/latex/amsmath/amsbsy.sty
INPUT /usr/share/texlive/texmf-dist/tex/latex/amsmath/amsopn.sty
INPUT /usr/share/texlive/texmf-dist/tex/latex/amsmath/amsopn.sty
INPUT /usr/share/texlive/texmf-dist/tex/latex/amsfonts/amsfonts.sty
INPUT /usr/share/texlive/texmf-dist/tex/latex/amsfonts/amsfonts.sty
INPUT /usr/share/texlive/texmf-dist/tex/latex/amsfonts/amssymb.sty
INPUT /usr/share/texlive/texmf-dist/tex/latex/amsfonts/amssymb.sty
INPUT /usr/share/texlive/texmf-dist/tex/latex/amscls/amsthm.sty
INPUT /usr/share/texlive/texmf-dist/tex/latex/amscls/amsthm.sty
INPUT /usr/share/texlive/texmf-dist/tex/latex/mathtools/mathtools.sty
INPUT /usr/share/texlive/texmf-dist/tex/latex/mathtools/mathtools.sty
INPUT /usr/share/texlive/texmf-dist/tex/latex/graphics/keyval.sty
INPUT /usr/share/texlive/texmf-dist/tex/latex/graphics/keyval.sty
INPUT /usr/share/texlive/texmf-dist/tex/latex/tools/calc.sty
INPUT /usr/share/texlive/texmf-dist/tex/latex/tools/calc.sty
INPUT /usr/share/texlive/texmf-dist/tex/latex/mathtools/mhsetup.sty
INPUT /usr/share/texlive/texmf-dist/tex/latex/mathtools/mhsetup.sty
INPUT /usr/share/texlive/texmf-dist/tex/latex/was/icomma.sty
INPUT /usr/share/texlive/texmf-dist/tex/latex/was/icomma.sty
INPUT /usr/share/texlive/texmf-dist/tex/latex/tools/multicol.sty
INPUT /usr/share/texlive/texmf-dist/tex/latex/tools/multicol.sty
INPUT /usr/share/texlive/texmf-dist/tex/latex/amsfonts/euscript.sty
INPUT /usr/share/texlive/texmf-dist/tex/latex/amsfonts/euscript.sty
INPUT /usr/share/texlive/texmf-dist/tex/latex/jknapltx/mathrsfs.sty
INPUT /usr/share/texlive/texmf-dist/tex/latex/jknapltx/mathrsfs.sty
INPUT /usr/share/texlive/texmf-dist/tex/latex/tools/indentfirst.sty
INPUT /usr/share/texlive/texmf-dist/tex/latex/tools/indentfirst.sty
INPUT /usr/share/texlive/texmf-dist/tex/latex/epigraph/epigraph.sty
INPUT /usr/share/texlive/texmf-dist/tex/latex/epigraph/epigraph.sty
INPUT /usr/share/texlive/texmf-dist/tex/latex/marginnote/marginnote.sty
INPUT /usr/share/texlive/texmf-dist/tex/latex/marginnote/marginnote.sty
INPUT /usr/share/texlive/texmf-dist/tex/latex/xcolor/xcolor.sty
INPUT /usr/share/texlive/texmf-dist/tex/latex/xcolor/xcolor.sty
INPUT /usr/share/texlive/texmf-dist/tex/latex/graphics-cfg/color.cfg
INPUT /usr/share/texlive/texmf-dist/tex/latex/graphics-cfg/color.cfg
INPUT /usr/share/texlive/texmf-dist/tex/latex/graphics-def/pdftex.def
INPUT /usr/share/texlive/texmf-dist/tex/latex/graphics-def/pdftex.def
INPUT /usr/share/texlive/texmf-dist/tex/generic/oberdiek/infwarerr.sty
INPUT /usr/share/texlive/texmf-dist/tex/generic/oberdiek/infwarerr.sty
INPUT /usr/share/texlive/texmf-dist/tex/generic/oberdiek/ltxcmds.sty
INPUT /usr/share/texlive/texmf-dist/tex/generic/oberdiek/ltxcmds.sty
INPUT /usr/share/texlive/texmf-dist/tex/latex/tools/tabularx.sty
INPUT /usr/share/texlive/texmf-dist/tex/latex/tools/tabularx.sty
INPUT /usr/share/texlive/texmf-dist/tex/latex/tools/array.sty
INPUT /usr/share/texlive/texmf-dist/tex/latex/tools/array.sty
INPUT /usr/share/texlive/texmf-dist/tex/latex/graphics/graphicx.sty
INPUT /usr/share/texlive/texmf-dist/tex/latex/graphics/graphicx.sty
INPUT /usr/share/texlive/texmf-dist/tex/latex/graphics/graphics.sty
INPUT /usr/share/texlive/texmf-dist/tex/latex/graphics/graphics.sty
INPUT /usr/share/texlive/texmf-dist/tex/latex/graphics/trig.sty
INPUT /usr/share/texlive/texmf-dist/tex/latex/graphics/trig.sty
INPUT /usr/share/texlive/texmf-dist/tex/latex/graphics-cfg/graphics.cfg
INPUT /usr/share/texlive/texmf-dist/tex/latex/graphics-cfg/graphics.cfg
INPUT /usr/share/texlive/texmf-dist/tex/latex/wrapfig/wrapfig.sty
INPUT /usr/share/texlive/texmf-dist/tex/latex/wrapfig/wrapfig.sty
INPUT /usr/share/texlive/texmf-dist/tex/latex/caption/caption.sty
INPUT /usr/share/texlive/texmf-dist/tex/latex/caption/caption.sty
INPUT /usr/share/texlive/texmf-dist/tex/latex/caption/caption3.sty
INPUT /usr/share/texlive/texmf-dist/tex/latex/caption/caption3.sty
INPUT /usr/share/texlive/texmf-dist/tex/latex/caption/subcaption.sty
INPUT /usr/share/texlive/texmf-dist/tex/latex/caption/subcaption.sty
INPUT /usr/share/texlive/texmf-dist/tex/latex/chngcntr/chngcntr.sty
INPUT /usr/share/texlive/texmf-dist/tex/latex/chngcntr/chngcntr.sty
INPUT /usr/share/texlive/texmf-dist/tex/latex/import/import.sty
INPUT /usr/share/texlive/texmf-dist/tex/latex/import/import.sty
INPUT /usr/share/texlive/texmf-dist/tex/latex/xifthen/xifthen.sty
INPUT /usr/share/texlive/texmf-dist/tex/latex/xifthen/xifthen.sty
INPUT /usr/share/texlive/texmf-dist/tex/latex/base/ifthen.sty
INPUT /usr/share/texlive/texmf-dist/tex/latex/base/ifthen.sty
INPUT /usr/share/texlive/texmf-dist/tex/latex/ifmtarg/ifmtarg.sty
INPUT /usr/share/texlive/texmf-dist/tex/latex/ifmtarg/ifmtarg.sty
INPUT /usr/share/texlive/texmf-dist/tex/latex/pdfpages/pdfpages.sty
INPUT /usr/share/texlive/texmf-dist/tex/latex/pdfpages/pdfpages.sty
INPUT /usr/share/texlive/texmf-dist/tex/latex/eso-pic/eso-pic.sty
INPUT /usr/share/texlive/texmf-dist/tex/latex/eso-pic/eso-pic.sty
INPUT /usr/share/texlive/texmf-dist/tex/generic/oberdiek/atbegshi.sty
INPUT /usr/share/texlive/texmf-dist/tex/generic/oberdiek/atbegshi.sty
INPUT /usr/share/texlive/texmf-dist/tex/generic/oberdiek/ifpdf.sty
INPUT /usr/share/texlive/texmf-dist/tex/generic/oberdiek/ifpdf.sty
INPUT /usr/share/texlive/texmf-dist/tex/latex/pdfpages/pppdftex.def
INPUT /usr/share/texlive/texmf-dist/tex/latex/pdfpages/pppdftex.def
INPUT /usr/share/texlive/texmf-dist/tex/latex/oberdiek/transparent.sty
INPUT /usr/share/texlive/texmf-dist/tex/latex/oberdiek/transparent.sty
INPUT /usr/share/texlive/texmf-dist/tex/latex/oberdiek/auxhook.sty
INPUT /usr/share/texlive/texmf-dist/tex/latex/oberdiek/auxhook.sty
INPUT ../latex/preams/title_style/default.tex
INPUT ../latex/preams/title_style/default.tex
INPUT /usr/share/texlive/texmf-dist/tex/latex/titlesec/ttlkeys.def
INPUT /usr/share/texlive/texmf-dist/tex/latex/titlesec/ttlkeys.def
INPUT ../latex/preams/page_style/large.tex
INPUT ../latex/preams/page_style/large.tex
INPUT /usr/share/texlive/texmf-dist/tex/latex/geometry/geometry.sty
INPUT /usr/share/texlive/texmf-dist/tex/latex/geometry/geometry.sty
INPUT /usr/share/texlive/texmf-dist/tex/generic/oberdiek/ifvtex.sty
INPUT /usr/share/texlive/texmf-dist/tex/generic/oberdiek/ifvtex.sty
INPUT /usr/share/texlive/texmf-dist/tex/generic/ifxetex/ifxetex.sty
INPUT /usr/share/texlive/texmf-dist/tex/generic/ifxetex/ifxetex.sty
INPUT ../latex/preams/aliases.tex
INPUT ../latex/preams/aliases.tex
INPUT ../latex/preams/commands.tex
INPUT ../latex/preams/commands.tex
INPUT /usr/share/texlive/texmf-dist/tex/latex/l3packages/xparse/xparse.sty
INPUT /usr/share/texlive/texmf-dist/tex/latex/l3packages/xparse/xparse.sty
INPUT /usr/share/texlive/texmf-dist/tex/latex/l3kernel/expl3.sty
INPUT /usr/share/texlive/texmf-dist/tex/latex/l3kernel/expl3.sty
INPUT /usr/share/texlive/texmf-dist/tex/latex/l3kernel/expl3-code.tex
INPUT /usr/share/texlive/texmf-dist/tex/latex/l3kernel/expl3-code.tex
INPUT /usr/share/texlive/texmf-dist/tex/generic/unicode-data/UnicodeData.txt
INPUT /usr/share/texlive/texmf-dist/tex/generic/unicode-data/CaseFolding.txt
INPUT /usr/share/texlive/texmf-dist/tex/generic/unicode-data/SpecialCasing.txt
INPUT /usr/share/texlive/texmf-dist/tex/latex/l3kernel/l3pdfmode.def
INPUT /usr/share/texlive/texmf-dist/tex/latex/l3kernel/l3pdfmode.def
INPUT /usr/share/texlive/texmf-dist/tex/latex/multirow/multirow.sty
INPUT /usr/share/texlive/texmf-dist/tex/latex/multirow/multirow.sty
INPUT /home/ndgorelov/git/lectures/Otrabotka/rk1.aux
INPUT /home/ndgorelov/git/lectures/Otrabotka/rk1.aux
OUTPUT /home/ndgorelov/git/lectures/Otrabotka/rk1.aux
INPUT /usr/share/texlive/texmf-dist/tex/context/base/mkii/supp-pdf.mkii
INPUT /usr/share/texlive/texmf-dist/tex/context/base/mkii/supp-pdf.mkii
INPUT /usr/share/texlive/texmf-dist/tex/generic/oberdiek/pdftexcmds.sty
INPUT /usr/share/texlive/texmf-dist/tex/generic/oberdiek/pdftexcmds.sty
INPUT /usr/share/texlive/texmf-dist/tex/generic/oberdiek/ifluatex.sty
INPUT /usr/share/texlive/texmf-dist/tex/generic/oberdiek/ifluatex.sty
INPUT /usr/share/texlive/texmf-dist/tex/latex/oberdiek/epstopdf-base.sty
INPUT /usr/share/texlive/texmf-dist/tex/latex/oberdiek/epstopdf-base.sty
INPUT /usr/share/texlive/texmf-dist/tex/latex/oberdiek/grfext.sty
INPUT /usr/share/texlive/texmf-dist/tex/latex/oberdiek/grfext.sty
INPUT /usr/share/texlive/texmf-dist/tex/generic/oberdiek/kvdefinekeys.sty
INPUT /usr/share/texlive/texmf-dist/tex/generic/oberdiek/kvdefinekeys.sty
INPUT /usr/share/texlive/texmf-dist/tex/latex/oberdiek/kvoptions.sty
INPUT /usr/share/texlive/texmf-dist/tex/latex/oberdiek/kvoptions.sty
INPUT /usr/share/texlive/texmf-dist/tex/generic/oberdiek/kvsetkeys.sty
INPUT /usr/share/texlive/texmf-dist/tex/generic/oberdiek/kvsetkeys.sty
INPUT /usr/share/texlive/texmf-dist/tex/generic/oberdiek/etexcmds.sty
INPUT /usr/share/texlive/texmf-dist/tex/generic/oberdiek/etexcmds.sty
INPUT /usr/share/texlive/texmf-dist/tex/latex/latexconfig/epstopdf-sys.cfg
INPUT /usr/share/texlive/texmf-dist/tex/latex/latexconfig/epstopdf-sys.cfg
INPUT /usr/share/texlive/texmf-dist/tex/latex/oberdiek/pdflscape.sty
INPUT /usr/share/texlive/texmf-dist/tex/latex/oberdiek/pdflscape.sty
INPUT /usr/share/texlive/texmf-dist/tex/latex/graphics/lscape.sty
INPUT /usr/share/texlive/texmf-dist/tex/latex/graphics/lscape.sty
INPUT /home/ndgorelov/.texlive2016/texmf-var/fonts/tfm/lh/lh-t2a/larm1440.tfm
INPUT /home/ndgorelov/.texlive2016/texmf-var/fonts/tfm/lh/lh-t2a/labx1440.tfm
INPUT /home/ndgorelov/.texlive2016/texmf-var/fonts/tfm/lh/lh-t2a/larm1200.tfm
INPUT /home/ndgorelov/.texlive2016/texmf-var/fonts/tfm/lh/lh-t2a/labx1200.tfm
INPUT /home/ndgorelov/.texlive2016/texmf-var/fonts/tfm/lh/lh-t2a/labx1000.tfm
INPUT /var/lib/texmf/fonts/map/pdftex/updmap/pdftex.map
INPUT /home/ndgorelov/git/lectures/Otrabotka/rk1.aux
INPUT /usr/share/texmf/fonts/enc/dvips/cm-super/cm-super-t2a.enc
INPUT /usr/share/texmf/fonts/type1/public/cm-super/sfbx1000.pfb
INPUT /usr/share/texmf/fonts/type1/public/cm-super/sfbx1200.pfb
INPUT /usr/share/texmf/fonts/type1/public/cm-super/sfbx1440.pfb
INPUT /usr/share/texmf/fonts/type1/public/cm-super/sfrm1000.pfb
