<?xml version="1.0" encoding="UTF-8" standalone="no"?>
<!-- Created with Inkscape (http://www.inkscape.org/) -->

<svg
   xmlns:dc="http://purl.org/dc/elements/1.1/"
   xmlns:cc="http://creativecommons.org/ns#"
   xmlns:rdf="http://www.w3.org/1999/02/22-rdf-syntax-ns#"
   xmlns:svg="http://www.w3.org/2000/svg"
   xmlns="http://www.w3.org/2000/svg"
   xmlns:sodipodi="http://sodipodi.sourceforge.net/DTD/sodipodi-0.dtd"
   xmlns:inkscape="http://www.inkscape.org/namespaces/inkscape"
   width="210mm"
   height="297mm"
   viewBox="0 0 210 297"
   version="1.1"
   id="svg8"
   inkscape:version="0.92.3 (2405546, 2018-03-11)"
   sodipodi:docname="drawing.svg">
  <defs
     id="defs2">
    <marker
       inkscape:isstock="true"
       style="overflow:visible;"
       id="marker1456"
       refX="0.0"
       refY="0.0"
       orient="auto"
       inkscape:stockid="Arrow1Mend">
      <path
         transform="scale(0.4) rotate(180) translate(10,0)"
         style="fill-rule:evenodd;stroke:#000000;stroke-width:1pt;stroke-opacity:1;fill:#000000;fill-opacity:1"
         d="M 0.0,0.0 L 5.0,-5.0 L -12.5,0.0 L 5.0,5.0 L 0.0,0.0 z "
         id="path1454" />
    </marker>
    <marker
       inkscape:isstock="true"
       style="overflow:visible;"
       id="marker1410"
       refX="0.0"
       refY="0.0"
       orient="auto"
       inkscape:stockid="Arrow1Mend">
      <path
         transform="scale(0.4) rotate(180) translate(10,0)"
         style="fill-rule:evenodd;stroke:#000000;stroke-width:1pt;stroke-opacity:1;fill:#000000;fill-opacity:1"
         d="M 0.0,0.0 L 5.0,-5.0 L -12.5,0.0 L 5.0,5.0 L 0.0,0.0 z "
         id="path1408" />
    </marker>
    <marker
       inkscape:stockid="Arrow1Mend"
       orient="auto"
       refY="0.0"
       refX="0.0"
       id="marker1295"
       style="overflow:visible;"
       inkscape:isstock="true"
       inkscape:collect="always">
      <path
         id="path1293"
         d="M 0.0,0.0 L 5.0,-5.0 L -12.5,0.0 L 5.0,5.0 L 0.0,0.0 z "
         style="fill-rule:evenodd;stroke:#000000;stroke-width:1pt;stroke-opacity:1;fill:#000000;fill-opacity:1"
         transform="scale(0.4) rotate(180) translate(10,0)" />
    </marker>
    <marker
       inkscape:stockid="Arrow1Mend"
       orient="auto"
       refY="0.0"
       refX="0.0"
       id="Arrow1Mend"
       style="overflow:visible;"
       inkscape:isstock="true"
       inkscape:collect="always">
      <path
         id="path956"
         d="M 0.0,0.0 L 5.0,-5.0 L -12.5,0.0 L 5.0,5.0 L 0.0,0.0 z "
         style="fill-rule:evenodd;stroke:#000000;stroke-width:1pt;stroke-opacity:1;fill:#000000;fill-opacity:1"
         transform="scale(0.4) rotate(180) translate(10,0)" />
    </marker>
    <marker
       inkscape:stockid="Arrow2Lend"
       orient="auto"
       refY="0.0"
       refX="0.0"
       id="Arrow2Lend"
       style="overflow:visible;"
       inkscape:isstock="true">
      <path
         id="path968"
         style="fill-rule:evenodd;stroke-width:0.625;stroke-linejoin:round;stroke:#000000;stroke-opacity:1;fill:#000000;fill-opacity:1"
         d="M 8.7185878,4.0337352 L -2.2072895,0.016013256 L 8.7185884,-4.0017078 C 6.9730900,-1.6296469 6.9831476,1.6157441 8.7185878,4.0337352 z "
         transform="scale(1.1) rotate(180) translate(1,0)" />
    </marker>
    <marker
       inkscape:isstock="true"
       style="overflow:visible"
       id="marker1410-3"
       refX="0"
       refY="0"
       orient="auto"
       inkscape:stockid="Arrow1Mend">
      <path
         inkscape:connector-curvature="0"
         transform="matrix(-0.4,0,0,-0.4,-4,0)"
         style="fill:#000000;fill-opacity:1;fill-rule:evenodd;stroke:#000000;stroke-width:1.00000003pt;stroke-opacity:1"
         d="M 0,0 5,-5 -12.5,0 5,5 Z"
         id="path1408-6" />
    </marker>
    <marker
       inkscape:isstock="true"
       style="overflow:visible"
       id="marker1456-7"
       refX="0"
       refY="0"
       orient="auto"
       inkscape:stockid="Arrow1Mend">
      <path
         inkscape:connector-curvature="0"
         transform="matrix(-0.4,0,0,-0.4,-4,0)"
         style="fill:#000000;fill-opacity:1;fill-rule:evenodd;stroke:#000000;stroke-width:1.00000003pt;stroke-opacity:1"
         d="M 0,0 5,-5 -12.5,0 5,5 Z"
         id="path1454-5" />
    </marker>
  </defs>
  <sodipodi:namedview
     id="base"
     pagecolor="#ffffff"
     bordercolor="#666666"
     borderopacity="1.0"
     inkscape:pageopacity="0.0"
     inkscape:pageshadow="2"
     inkscape:zoom="3.959798"
     inkscape:cx="142.07824"
     inkscape:cy="1003.0488"
     inkscape:document-units="mm"
     inkscape:current-layer="layer5"
     showgrid="false"
     inkscape:window-width="1360"
     inkscape:window-height="739"
     inkscape:window-x="0"
     inkscape:window-y="0"
     inkscape:window-maximized="0" />
  <metadata
     id="metadata5">
    <rdf:RDF>
      <cc:Work
         rdf:about="">
        <dc:format>image/svg+xml</dc:format>
        <dc:type
           rdf:resource="http://purl.org/dc/dcmitype/StillImage" />
        <dc:title />
      </cc:Work>
    </rdf:RDF>
  </metadata>
  <g
     inkscape:label="Layer 1"
     inkscape:groupmode="layer"
     id="layer1"
     style="display:none">
    <path
       style="fill:none;stroke:#000000;stroke-width:0.22983982;stroke-linecap:butt;stroke-linejoin:miter;stroke-miterlimit:4;stroke-dasharray:0.68951945, 0.22983982;stroke-dashoffset:0;stroke-opacity:1"
       d="M 34.584822,53.016369 H 113.77083"
       id="path837"
       inkscape:connector-curvature="0" />
    <path
       style="fill:none;stroke:#000000;stroke-width:0.26458332px;stroke-linecap:butt;stroke-linejoin:miter;stroke-opacity:1"
       d="M 40.63244,53.394345 54.617558,46.590772"
       id="path839"
       inkscape:connector-curvature="0" />
    <path
       style="fill:none;stroke:#000000;stroke-width:0.29087853px;stroke-linecap:butt;stroke-linejoin:miter;stroke-opacity:1"
       d="M 49.149939,41.858725 56.702735,34.50279 H 96.297712"
       id="path841"
       inkscape:connector-curvature="0" />
    <path
       style="fill:none;stroke:#000000;stroke-width:0.26458332px;stroke-linecap:butt;stroke-linejoin:miter;stroke-opacity:1"
       d="m 54.617558,46.590772 c 4.027718,-3.140527 10.162548,1.918002 11.264379,6.32533"
       id="path843"
       inkscape:connector-curvature="0" />
    <path
       style="fill:none;stroke:#000000;stroke-width:0.26458332px;stroke-linecap:butt;stroke-linejoin:miter;stroke-opacity:1"
       d="m 75.704093,52.849285 v -4.343128 l 4.13516,-2.387438 h 8.025603 l 2.363023,2.363022"
       id="path845"
       inkscape:connector-curvature="0" />
    <path
       style="fill:none;stroke:#000000;stroke-width:0.26458332px;stroke-linecap:butt;stroke-linejoin:miter;stroke-opacity:1"
       d="m 79.839253,46.118719 c -0.154996,2.833332 -2.485237,5.08731 -4.13516,2.387438"
       id="path847"
       inkscape:connector-curvature="0" />
    <path
       style="fill:#4d4d4d;stroke-width:0.25293583;stroke-miterlimit:4;stroke-dasharray:0.75880747, 0.25293582;stroke-dashoffset:0"
       d="m 290.93513,187.03481 c -0.4667,-0.13439 -1.53399,-0.91434 -2.38914,-1.74595 -1.33932,-1.30245 -1.49638,-1.54948 -1.17677,-1.85088 0.80021,-0.75464 13.62708,-7.94041 13.62708,-7.63407 0,0.83725 -1.07352,4.38257 -1.76707,5.83577 -1.00413,2.10398 -3.0531,4.33643 -4.67188,5.09027 -1.33895,0.62352 -2.24941,0.70015 -3.62222,0.30486 z"
       id="path849"
       inkscape:connector-curvature="0"
       transform="scale(0.26458333)" />
    <path
       style="fill:none;stroke:#000000;stroke-width:0.26458332px;stroke-linecap:butt;stroke-linejoin:miter;stroke-opacity:1"
       d="m 81.249934,31.734992 v 20.980659 l 2.330051,-1.884458"
       id="path851"
       inkscape:connector-curvature="0" />
    <path
       style="fill:none;stroke:#000000;stroke-width:0.26458332px;stroke-linecap:butt;stroke-linejoin:miter;stroke-opacity:1"
       d="m 83.095702,54.610954 -1.84577,-1.895303 h 2.152877"
       id="path853"
       inkscape:connector-curvature="0" />
    <path
       style="fill:none;stroke:#000000;stroke-width:0.26458332px;stroke-linecap:butt;stroke-linejoin:miter;stroke-opacity:1"
       d="M 79.839253,46.118719 V 31.755207"
       id="path855"
       inkscape:connector-curvature="0" />
    <path
       style="fill:none;stroke:#000000;stroke-width:0.26458332px;stroke-linecap:butt;stroke-linejoin:miter;stroke-opacity:1"
       d="m 78.288318,38.865884 1.559153,1.606399 h -1.606399"
       id="path857"
       inkscape:connector-curvature="0" />
    <path
       style="fill:none;stroke:#000000;stroke-width:0.26458332px;stroke-linecap:butt;stroke-linejoin:miter;stroke-opacity:1"
       d="m 79.847471,40.472283 -1.370166,1.370163"
       id="path859"
       inkscape:connector-curvature="0" />
    <circle
       style="fill:#df4d4d;fill-opacity:1;stroke-width:0.26499999;stroke-miterlimit:4;stroke-dasharray:0.79499995, 0.26499998;stroke-dashoffset:0"
       id="path864"
       cx="87.113167"
       cy="52.732353"
       r="1.4532781" />
    <path
       style="fill:none;stroke:#000000;stroke-width:0.26458332px;stroke-linecap:butt;stroke-linejoin:miter;stroke-opacity:1"
       d="M 79.374999,52.260415 74.93378,62.749255 H 64.822916"
       id="path866"
       inkscape:connector-curvature="0" />
    <text
       xml:space="preserve"
       style="font-style:normal;font-weight:normal;font-size:1.23472214px;line-height:1.25;font-family:sans-serif;letter-spacing:0px;word-spacing:0px;fill:#000000;fill-opacity:1;stroke:none;stroke-width:0.26458332"
       x="69.264137"
       y="61.142857"
       id="text870"><tspan
         sodipodi:role="line"
         id="tspan868"
         x="69.264137"
         y="61.142857"
         style="stroke-width:0.26458332">1</tspan></text>
    <path
       style="fill:none;stroke:#000000;stroke-width:0.26458332px;stroke-linecap:butt;stroke-linejoin:miter;stroke-opacity:1"
       d="M 79.847468,36.668897 C 79.658482,36.290922 76.256697,30.43229 76.256697,30.43229 h -6.803573"
       id="path872"
       inkscape:connector-curvature="0" />
    <text
       xml:space="preserve"
       style="font-style:normal;font-weight:normal;font-size:1.23472214px;line-height:1.25;font-family:sans-serif;letter-spacing:0px;word-spacing:0px;fill:#000000;fill-opacity:1;stroke:none;stroke-width:0.26458332"
       x="71.343002"
       y="28.35342"
       id="text876"><tspan
         sodipodi:role="line"
         id="tspan874"
         x="71.343002"
         y="28.35342"
         style="stroke-width:0.26458332">2</tspan></text>
    <path
       style="fill:none;stroke:#000000;stroke-width:0.26458332px;stroke-linecap:butt;stroke-linejoin:miter;stroke-opacity:1"
       d="m 81.453867,39.409224 5.480656,-9.071427 H 93.6436"
       id="path878"
       inkscape:connector-curvature="0" />
    <text
       xml:space="preserve"
       style="font-style:normal;font-weight:normal;font-size:1.23472214px;line-height:1.25;font-family:sans-serif;letter-spacing:0px;word-spacing:0px;fill:#000000;fill-opacity:1;stroke:none;stroke-width:0.26458332"
       x="89.58036"
       y="28.35342"
       id="text882"><tspan
         sodipodi:role="line"
         id="tspan880"
         x="89.58036"
         y="28.35342"
         style="stroke-width:0.26458332">3</tspan></text>
    <path
       style="fill:none;stroke:#fc0000;stroke-width:0.26499999;stroke-linecap:butt;stroke-linejoin:miter;stroke-miterlimit:4;stroke-dasharray:none;stroke-opacity:1"
       d="m 89.958332,51.126487 c 4.280276,-5.489268 8.459822,-2.184524 13.418158,-0.944941"
       id="path884"
       inkscape:connector-curvature="0" />
    <path
       style="fill:none;stroke:#000000;stroke-width:0.26458332px;stroke-linecap:butt;stroke-linejoin:miter;stroke-opacity:1"
       d="m 97.954281,48.305704 c 0.400905,-0.534538 5.345389,-9.755339 5.345389,-9.755339 h 7.88445"
       id="path886"
       inkscape:connector-curvature="0" />
    <text
       xml:space="preserve"
       style="font-style:normal;font-weight:normal;font-size:1.23472214px;line-height:1.25;font-family:sans-serif;letter-spacing:0px;word-spacing:0px;fill:#000000;fill-opacity:1;stroke:none;stroke-width:0.26458332"
       x="106.64054"
       y="34.942226"
       id="text890"><tspan
         sodipodi:role="line"
         id="tspan888"
         x="106.64054"
         y="34.942226"
         style="stroke-width:0.26458332">5</tspan></text>
    <path
       style="fill:none;stroke:#000000;stroke-width:0.26458332px;stroke-linecap:butt;stroke-linejoin:miter;stroke-opacity:1"
       d="M 77.910342,48.433407 64.066964,58.497022 h -7.9375"
       id="path892"
       inkscape:connector-curvature="0" />
    <text
       xml:space="preserve"
       style="font-style:normal;font-weight:normal;font-size:1.23472214px;line-height:1.25;font-family:sans-serif;letter-spacing:0px;word-spacing:0px;fill:#000000;fill-opacity:1;stroke:none;stroke-width:0.26458332"
       x="58.869789"
       y="56.607143"
       id="text896"><tspan
         sodipodi:role="line"
         id="tspan894"
         x="58.869789"
         y="56.607143"
         style="stroke-width:0.26458332">4</tspan></text>
    <path
       style="fill:none;stroke:#000000;stroke-width:0.26458332px;stroke-linecap:butt;stroke-linejoin:miter;stroke-opacity:1"
       d="M 93.549106,34.495536 V 52.921873"
       id="path898"
       inkscape:connector-curvature="0" />
    <path
       style="fill:none;stroke:#000000;stroke-width:0.26458332px;stroke-linecap:butt;stroke-linejoin:miter;stroke-opacity:1"
       d="m 94.914089,34.507913 v 18.41396"
       id="path900"
       inkscape:connector-curvature="0" />
    <path
       style="fill:none;stroke:#000000;stroke-width:0.26458332px;stroke-linecap:butt;stroke-linejoin:miter;stroke-opacity:1"
       d="M 93.619978,39.291109 94.91927,37.235862"
       id="path902"
       inkscape:connector-curvature="0" />
    <path
       style="fill:none;stroke:#000000;stroke-width:0.26458332px;stroke-linecap:butt;stroke-linejoin:miter;stroke-opacity:1"
       d="m 93.619978,39.291109 1.204798,2.007997"
       id="path904"
       inkscape:connector-curvature="0" />
    <path
       style="fill:none;stroke:#000000;stroke-width:0.26458332px;stroke-linecap:butt;stroke-linejoin:miter;stroke-opacity:1"
       d="m 93.549104,52.921873 1.275672,-1.795386"
       id="path906"
       inkscape:connector-curvature="0" />
    <path
       style="fill:none;stroke:#000000;stroke-width:0.26458332px;stroke-linecap:butt;stroke-linejoin:miter;stroke-opacity:1"
       d="m 93.549104,52.921873 1.252048,1.606399"
       id="path908"
       inkscape:connector-curvature="0" />
    <path
       style="fill:none;stroke:#000000;stroke-width:0.26458332px;stroke-linecap:butt;stroke-linejoin:miter;stroke-opacity:1"
       d="m 87.406992,53.205356 2.173364,7.46503 h 7.465029"
       id="path910"
       inkscape:connector-curvature="0" />
    <text
       xml:space="preserve"
       style="font-style:normal;font-weight:normal;font-size:1.23472214px;line-height:1.25;font-family:sans-serif;letter-spacing:0px;word-spacing:0px;fill:#000000;fill-opacity:1;stroke:none;stroke-width:0.26458332"
       x="93.265625"
       y="59.158482"
       id="text914"><tspan
         sodipodi:role="line"
         id="tspan912"
         x="93.265625"
         y="59.158482"
         style="stroke-width:0.26458332">7</tspan></text>
  </g>
  <g
     inkscape:groupmode="layer"
     id="layer2"
     inkscape:label="Layer 2"
     style="display:none">
    <path
       style="fill:none;stroke:#000000;stroke-width:0.26458332px;stroke-linecap:butt;stroke-linejoin:miter;stroke-opacity:1"
       d="m 15.308036,23.439732 c 3.96875,7.370535 13.890625,5.669643 13.890625,5.669643"
       id="path917"
       inkscape:connector-curvature="0" />
    <path
       style="fill:none;stroke:#000000;stroke-width:0.26458332px;stroke-linecap:butt;stroke-linejoin:miter;stroke-opacity:1"
       d="M 47.908481,15.69122 29.198661,29.109375 C 41.860863,20.037946 44.45945,27.810082 44.45945,30.644903"
       id="path919"
       inkscape:connector-curvature="0"
       sodipodi:nodetypes="ccc" />
    <path
       style="fill:none;stroke:#000000;stroke-width:0.26499999;stroke-linecap:butt;stroke-linejoin:miter;stroke-miterlimit:4;stroke-dasharray:1.05999995, 0.52999997, 0.26499999, 0.52999997;stroke-dashoffset:0;stroke-opacity:1"
       d="M 15.213542,33.456101 H 64.539435"
       id="path921"
       inkscape:connector-curvature="0" />
    <path
       style="fill:#ff0000;stroke:#000000;stroke-width:0.26458332px;stroke-linecap:butt;stroke-linejoin:miter;stroke-opacity:1"
       d="m 43.396391,30.739397 h 1.984375"
       id="path923"
       inkscape:connector-curvature="0" />
    <circle
       style="fill:#ff0000;fill-opacity:1;stroke:#fc0000;stroke-width:0.26499999;stroke-miterlimit:4;stroke-dasharray:none;stroke-dashoffset:0;stroke-opacity:1"
       id="path925"
       cx="50.676235"
       cy="33.218716"
       r="1.1024867" />
    <text
       xml:space="preserve"
       style="font-style:normal;font-weight:normal;font-size:1.23472214px;line-height:1.25;font-family:sans-serif;letter-spacing:0px;word-spacing:0px;fill:#000000;fill-opacity:1;stroke:none;stroke-width:0.26458332"
       x="10.619215"
       y="30.579428"
       id="text929"><tspan
         sodipodi:role="line"
         id="tspan927"
         x="10.619215"
         y="30.579428"
         style="stroke-width:0.26458332">воздух</tspan><tspan
         sodipodi:role="line"
         x="10.619215"
         y="32.122829"
         style="stroke-width:0.26458332"
         id="tspan931">из ВЗУ</tspan></text>
    <text
       xml:space="preserve"
       style="font-style:normal;font-weight:normal;font-size:1.23472214px;line-height:1.25;font-family:sans-serif;letter-spacing:0px;word-spacing:0px;fill:#000000;fill-opacity:1;stroke:none;stroke-width:0.26458332"
       x="29.46172"
       y="16.480961"
       id="text935"><tspan
         sodipodi:role="line"
         id="tspan933"
         x="29.46172"
         y="16.480961"
         style="stroke-width:0.26458332">стабилизатор</tspan></text>
    <path
       style="fill:none;stroke:#000000;stroke-width:0.26458332px;stroke-linecap:butt;stroke-linejoin:miter;stroke-opacity:1"
       d="m 29.3949,16.948683 h 9.287616 l 2.142545,3.710998"
       id="path937"
       inkscape:connector-curvature="0" />
    <path
       style="fill:none;stroke:#000000;stroke-width:0.26458332px;stroke-linecap:butt;stroke-linejoin:miter;stroke-opacity:1"
       d="m 18.637301,27.138334 c 0.325535,2.04109 2.165073,2.940617 3.775182,1.804069"
       id="path939"
       inkscape:connector-curvature="0" />
    <path
       style="fill:#999999;fill-opacity:1;stroke:#fc0000;stroke-width:0.0334613;stroke-miterlimit:4;stroke-dasharray:none;stroke-dashoffset:0;stroke-opacity:1"
       d="m 20.587587,29.25929 c -0.741926,-0.161254 -1.34269,-0.722476 -1.642423,-1.534322 -0.04851,-0.131388 -0.08045,-0.246635 -0.07098,-0.256104 0.0095,-0.0095 0.133337,0.05144 0.275262,0.135345 0.745898,0.440987 1.864761,0.911329 2.841173,1.194359 l 0.267135,0.07743 -0.183613,0.104922 c -0.311752,0.178144 -0.67751,0.282613 -1.035475,0.295756 -0.174593,0.0064 -0.377578,-0.0014 -0.451077,-0.01739 z"
       id="path943"
       inkscape:connector-curvature="0" />
    <path
       style="fill:none;stroke:#000000;stroke-width:0.16500001;stroke-linecap:butt;stroke-linejoin:miter;stroke-miterlimit:4;stroke-dasharray:none;stroke-opacity:1;marker-end:url(#Arrow1Mend)"
       d="M 36.380208,18.526041 V 30.148807"
       id="path945"
       inkscape:connector-curvature="0" />
    <text
       xml:space="preserve"
       style="font-style:normal;font-weight:normal;font-size:1.23472214px;line-height:1.25;font-family:sans-serif;letter-spacing:0px;word-spacing:0px;fill:#000000;fill-opacity:1;stroke:none;stroke-width:0.26458332"
       x="33.923363"
       y="19.848957"
       id="text1257"><tspan
         sodipodi:role="line"
         id="tspan1255"
         x="33.923363"
         y="19.848957"
         style="stroke-width:0.26458332">гор</tspan></text>
    <text
       xml:space="preserve"
       style="font-style:normal;font-weight:normal;font-size:1.23472214px;line-height:1.25;font-family:sans-serif;letter-spacing:0px;word-spacing:0px;fill:#000000;fill-opacity:1;stroke:none;stroke-width:0.26458332"
       x="45.419113"
       y="28.394121"
       id="text1285"><tspan
         sodipodi:role="line"
         id="tspan1283"
         x="45.419113"
         y="28.394121"
         style="stroke-width:0.26458332">карб.</tspan><tspan
         sodipodi:role="line"
         x="45.419113"
         y="29.937523"
         style="stroke-width:0.26458332"
         id="tspan1287">смесь</tspan></text>
    <path
       style="fill:none;stroke:#000000;stroke-width:0.16500001;stroke-linecap:butt;stroke-linejoin:miter;stroke-miterlimit:4;stroke-dasharray:none;stroke-opacity:1;marker-end:url(#marker1295)"
       d="m 46.680059,13.801339 c 11.732471,-3.603227 16.74855,13.995283 6.898065,18.142857"
       id="path1291"
       inkscape:connector-curvature="0" />
    <text
       xml:space="preserve"
       style="font-style:normal;font-weight:normal;font-size:1.23472214px;line-height:1.25;font-family:sans-serif;letter-spacing:0px;word-spacing:0px;fill:#000000;fill-opacity:1;stroke:none;stroke-width:0.26458332"
       x="51.688244"
       y="21.644344"
       id="text1329"><tspan
         sodipodi:role="line"
         id="tspan1327"
         x="51.688244"
         y="21.644344"
         style="stroke-width:0.26458332">вихревая</tspan><tspan
         sodipodi:role="line"
         x="51.688244"
         y="23.187748"
         style="stroke-width:0.26458332"
         id="tspan1331">застойная </tspan><tspan
         sodipodi:role="line"
         x="51.688244"
         y="24.73115"
         style="stroke-width:0.26458332"
         id="tspan1333">зона</tspan></text>
    <path
       style="fill:none;stroke:#000000;stroke-width:0.16500001;stroke-linecap:butt;stroke-linejoin:miter;stroke-miterlimit:4;stroke-dasharray:none;stroke-opacity:1"
       d="m 47.908482,14.510044 c 7.9375,-8.0319942 18.9089,-10.7047161 18.9089,-10.7047161"
       id="path1335"
       inkscape:connector-curvature="0" />
    <text
       xml:space="preserve"
       style="font-style:normal;font-weight:normal;font-size:1.23472214px;line-height:1.25;font-family:sans-serif;letter-spacing:0px;word-spacing:0px;fill:#000000;fill-opacity:1;stroke:none;stroke-width:0.26458332"
       x="59.066563"
       y="9.1507187"
       id="text1339"><tspan
         sodipodi:role="line"
         id="tspan1337"
         x="59.066563"
         y="9.1507187"
         style="stroke-width:0.26458332">Косой фронт пламени</tspan></text>
    <rect
       style="fill:none;fill-opacity:1;stroke:none;stroke-width:0.16500001;stroke-miterlimit:4;stroke-dasharray:none;stroke-dashoffset:0;stroke-opacity:1"
       id="rect1341"
       width="72.162773"
       height="37.417732"
       x="3.6081386"
       y="1.1326327" />
  </g>
  <g
     inkscape:groupmode="layer"
     id="layer3"
     inkscape:label="Layer 3"
     style="display:none">
    <path
       style="fill:none;stroke:#000000;stroke-width:0.26499999;stroke-linecap:butt;stroke-linejoin:miter;stroke-miterlimit:4;stroke-dasharray:1.58999992, 0.52999997;stroke-dashoffset:0;stroke-opacity:1"
       d="M 20.045214,33.071342 H 85.392613"
       id="path1344"
       inkscape:connector-curvature="0" />
    <path
       style="fill:none;stroke:#000000;stroke-width:0.26458332px;stroke-linecap:butt;stroke-linejoin:miter;stroke-opacity:1"
       d="m 26.326048,33.138157 9.153981,-5.81311 c 4.6104,-6.280835 12.294399,2.939964 8.95353,5.746294"
       id="path1346"
       inkscape:connector-curvature="0" />
    <path
       style="fill:none;stroke:#000000;stroke-width:0.26458332px;stroke-linecap:butt;stroke-linejoin:miter;stroke-opacity:1"
       d="m 33.007786,22.915099 5.61266,-4.677217 h 44.90128"
       id="path1348"
       inkscape:connector-curvature="0" />
    <path
       style="fill:none;stroke:#000000;stroke-width:0.26458332px;stroke-linecap:butt;stroke-linejoin:miter;stroke-opacity:1"
       d="m 45.735118,24.10119 h 22.2061"
       id="path1350"
       inkscape:connector-curvature="0" />
    <path
       style="fill:none;stroke:#000000;stroke-width:0.26458332px;stroke-linecap:butt;stroke-linejoin:miter;stroke-opacity:1"
       d="m 52.785732,33.071342 v -2.672696 l 2.261317,-1.305574 h 3.685428 l 2.239807,1.717194"
       id="path1352"
       inkscape:connector-curvature="0" />
    <path
       style="fill:none;stroke:#000000;stroke-width:0.26458332px;stroke-linecap:butt;stroke-linejoin:miter;stroke-opacity:1;marker-start:url(#marker1410)"
       d="m 56.260235,14.429291 v 18.575233 l 1.203958,-1.580046"
       id="path1354"
       inkscape:connector-curvature="0" />
    <path
       style="fill:none;stroke:#000000;stroke-width:0.26458332px;stroke-linecap:butt;stroke-linejoin:miter;stroke-opacity:1"
       d="m 56.260235,33.004524 c 0.07003,0.262588 1.014968,1.786305 1.014968,1.786305"
       id="path1356"
       inkscape:connector-curvature="0" />
    <path
       style="fill:none;stroke:#000000;stroke-width:0.26458332px;stroke-linecap:butt;stroke-linejoin:miter;stroke-opacity:1"
       d="m 62.808339,24.184629 v 9.020346"
       id="path1358"
       inkscape:connector-curvature="0" />
    <path
       style="fill:none;stroke:#000000;stroke-width:0.26458332px;stroke-linecap:butt;stroke-linejoin:miter;stroke-opacity:1"
       d="m 63.910826,24.084403 v 9.020345"
       id="path1360"
       inkscape:connector-curvature="0" />
    <path
       style="fill:none;stroke:#000000;stroke-width:0.26458332px;stroke-linecap:butt;stroke-linejoin:miter;stroke-opacity:1"
       d="m 62.875157,27.391862 0.868624,-0.968851"
       id="path1362"
       inkscape:connector-curvature="0" />
    <path
       style="fill:none;stroke:#000000;stroke-width:0.26458332px;stroke-linecap:butt;stroke-linejoin:miter;stroke-opacity:1"
       d="m 62.875157,27.391862 0.935442,1.302941"
       id="path1364"
       inkscape:connector-curvature="0" />
    <path
       style="fill:none;stroke:#000000;stroke-width:0.26458332px;stroke-linecap:butt;stroke-linejoin:miter;stroke-opacity:1"
       d="M 62.808339,33.204975 63.910826,31.56795"
       id="path1366"
       inkscape:connector-curvature="0" />
    <path
       style="fill:none;stroke:#000000;stroke-width:0.26458332px;stroke-linecap:butt;stroke-linejoin:miter;stroke-opacity:1"
       d="M 70.870534,21.171874 V 32.889137"
       id="path1368"
       inkscape:connector-curvature="0" />
    <path
       style="fill:none;stroke:#000000;stroke-width:0.26458332px;stroke-linecap:butt;stroke-linejoin:miter;stroke-opacity:1"
       d="m 70.870534,21.171874 h 3.597436 v 1.576181 z"
       id="path1370"
       inkscape:connector-curvature="0" />
    <path
       style="fill:none;stroke:#000000;stroke-width:0.26458332px;stroke-linecap:butt;stroke-linejoin:miter;stroke-opacity:1"
       d="m 70.92665,28.260489 c 0.133635,-0.133635 3.474505,-1.570209 3.474505,-1.570209 v 2.873147 z"
       id="path1372"
       inkscape:connector-curvature="0" />
    <path
       style="fill:none;stroke:#000000;stroke-width:0.26458332px;stroke-linecap:butt;stroke-linejoin:miter;stroke-opacity:1"
       d="m 83.521726,18.237882 5.288381,3.053249"
       id="path1374"
       inkscape:connector-curvature="0" />
    <path
       style="fill:none;stroke:#000000;stroke-width:0.16500001;stroke-linecap:butt;stroke-linejoin:miter;stroke-miterlimit:4;stroke-dasharray:none;stroke-opacity:1"
       d="m 52.85255,31.734992 -6.080382,7.14946"
       id="path1376"
       inkscape:connector-curvature="0" />
    <path
       style="fill:none;stroke:#000000;stroke-width:0.16500001;stroke-linecap:butt;stroke-linejoin:miter;stroke-miterlimit:4;stroke-dasharray:none;stroke-opacity:1"
       d="m 51.04848,20.242404 -3.407688,-5.61266"
       id="path1378"
       inkscape:connector-curvature="0" />
    <path
       style="fill:none;stroke:#000000;stroke-width:0.16500001;stroke-linecap:butt;stroke-linejoin:miter;stroke-miterlimit:4;stroke-dasharray:none;stroke-opacity:1"
       d="M 74.467968,21.171874 69.089171,14.028387"
       id="path1380"
       inkscape:connector-curvature="0" />
    <text
       xml:space="preserve"
       style="font-style:normal;font-weight:normal;font-size:1.23472214px;line-height:1.25;font-family:sans-serif;letter-spacing:0px;word-spacing:0px;fill:#000000;fill-opacity:1;stroke:none;stroke-width:0.26458332"
       x="67.151466"
       y="12.42477"
       id="text1384"><tspan
         sodipodi:role="line"
         id="tspan1382"
         x="67.151466"
         y="12.42477"
         style="stroke-width:0.26458332">3</tspan></text>
    <text
       xml:space="preserve"
       style="font-style:normal;font-weight:normal;font-size:1.23472214px;line-height:1.25;font-family:sans-serif;letter-spacing:0px;word-spacing:0px;fill:#000000;fill-opacity:1;stroke:none;stroke-width:0.26458332"
       x="46.504898"
       y="12.758857"
       id="text1388"><tspan
         sodipodi:role="line"
         id="tspan1386"
         x="46.504898"
         y="12.758857"
         style="stroke-width:0.26458332">2</tspan></text>
    <text
       xml:space="preserve"
       style="font-style:normal;font-weight:normal;font-size:1.23472214px;line-height:1.25;font-family:sans-serif;letter-spacing:0px;word-spacing:0px;fill:#000000;fill-opacity:1;stroke:none;stroke-width:0.26458332"
       x="45.10173"
       y="40.087166"
       id="text1392"><tspan
         sodipodi:role="line"
         id="tspan1390"
         x="45.10173"
         y="40.087166"
         style="stroke-width:0.26458332">1</tspan></text>
    <path
       style="fill:none;stroke:#000000;stroke-width:0.26458332px;stroke-linecap:butt;stroke-linejoin:miter;stroke-opacity:1;marker-start:url(#marker1456)"
       d="M 58.331573,14.429291 V 38.483547"
       id="path1394"
       inkscape:connector-curvature="0" />
    <path
       style="fill:none;stroke:#000000;stroke-width:0.26458332px;stroke-linecap:butt;stroke-linejoin:miter;stroke-opacity:1"
       d="m 58.208333,26.747023 1.27567,-1.34654"
       id="path1396"
       inkscape:connector-curvature="0" />
    <path
       style="fill:none;stroke:#000000;stroke-width:0.26458332px;stroke-linecap:butt;stroke-linejoin:miter;stroke-opacity:1"
       d="m 58.208333,26.747023 h 1.228423"
       id="path1398"
       inkscape:connector-curvature="0" />
    <path
       style="fill:none;stroke:#000000;stroke-width:0.26458332px;stroke-linecap:butt;stroke-linejoin:miter;stroke-opacity:1"
       d="m 58.208333,26.747023 0.992187,1.441034"
       id="path1400"
       inkscape:connector-curvature="0" />
    <text
       xml:space="preserve"
       style="font-style:normal;font-weight:normal;font-size:1.23472214px;line-height:1.25;font-family:sans-serif;letter-spacing:0px;word-spacing:0px;fill:#000000;fill-opacity:1;stroke:none;stroke-width:0.26458332"
       x="56.885414"
       y="11.25"
       id="text1502"><tspan
         sodipodi:role="line"
         id="tspan1500"
         x="56.885414"
         y="11.25"
         style="stroke-width:0.26458332">Гор</tspan></text>
  </g>
  <g
     inkscape:groupmode="layer"
     id="layer4"
     inkscape:label="Layer 4"
     style="display:none">
    <path
       style="fill:none;stroke:#000000;stroke-width:0.26499999;stroke-linecap:butt;stroke-linejoin:miter;stroke-miterlimit:4;stroke-dasharray:1.58999994, 0.52999997;stroke-dashoffset:0;stroke-opacity:1"
       d="m 21.997427,39.230049 h 65.3474"
       id="path1344-3"
       inkscape:connector-curvature="0" />
    <path
       style="fill:none;stroke:#000000;stroke-width:0.26458332px;stroke-linecap:butt;stroke-linejoin:miter;stroke-opacity:1"
       d="m 28.278261,39.296865 9.153981,-5.813111 c 4.6104,-6.280835 12.294399,2.939964 8.95353,5.746295"
       id="path1346-5"
       inkscape:connector-curvature="0" />
    <path
       style="fill:none;stroke:#000000;stroke-width:0.26458332px;stroke-linecap:butt;stroke-linejoin:miter;stroke-opacity:1"
       d="m 34.959999,29.073806 5.61266,-4.677217 H 85.47394"
       id="path1348-6"
       inkscape:connector-curvature="0" />
    <path
       style="fill:none;stroke:#000000;stroke-width:0.26458332px;stroke-linecap:butt;stroke-linejoin:miter;stroke-opacity:1"
       d="M 47.687331,30.259897 H 69.893432"
       id="path1350-2"
       inkscape:connector-curvature="0" />
    <path
       style="fill:none;stroke:#000000;stroke-width:0.26458332px;stroke-linecap:butt;stroke-linejoin:miter;stroke-opacity:1"
       d="m 54.737945,39.230049 v -2.672696 l 2.261317,-1.305574 h 3.685429 l 2.239806,1.717194"
       id="path1352-9"
       inkscape:connector-curvature="0" />
    <path
       style="fill:none;stroke:#000000;stroke-width:0.26458332px;stroke-linecap:butt;stroke-linejoin:miter;stroke-opacity:1;marker-start:url(#marker1410-3)"
       d="m 58.212448,20.587998 v 18.575234 l 1.203957,-1.580047"
       id="path1354-1"
       inkscape:connector-curvature="0" />
    <path
       style="fill:none;stroke:#000000;stroke-width:0.26458332px;stroke-linecap:butt;stroke-linejoin:miter;stroke-opacity:1"
       d="m 58.212448,39.163232 c 0.07003,0.262588 1.014968,1.786305 1.014968,1.786305"
       id="path1356-2"
       inkscape:connector-curvature="0" />
    <path
       style="fill:none;stroke:#000000;stroke-width:0.26458332px;stroke-linecap:butt;stroke-linejoin:miter;stroke-opacity:1"
       d="m 64.760552,30.343336 v 9.020347"
       id="path1358-7"
       inkscape:connector-curvature="0" />
    <path
       style="fill:none;stroke:#000000;stroke-width:0.26458332px;stroke-linecap:butt;stroke-linejoin:miter;stroke-opacity:1"
       d="m 65.863039,30.24311 v 9.020345"
       id="path1360-0"
       inkscape:connector-curvature="0" />
    <path
       style="fill:none;stroke:#000000;stroke-width:0.26458332px;stroke-linecap:butt;stroke-linejoin:miter;stroke-opacity:1"
       d="m 64.82737,33.550569 0.868624,-0.968851"
       id="path1362-9"
       inkscape:connector-curvature="0" />
    <path
       style="fill:none;stroke:#000000;stroke-width:0.26458332px;stroke-linecap:butt;stroke-linejoin:miter;stroke-opacity:1"
       d="m 64.82737,33.550569 0.935442,1.302941"
       id="path1364-3"
       inkscape:connector-curvature="0" />
    <path
       style="fill:none;stroke:#000000;stroke-width:0.26458332px;stroke-linecap:butt;stroke-linejoin:miter;stroke-opacity:1"
       d="m 64.760552,39.363683 1.102487,-1.637025"
       id="path1366-6"
       inkscape:connector-curvature="0" />
    <path
       style="fill:none;stroke:#000000;stroke-width:0.26458332px;stroke-linecap:butt;stroke-linejoin:miter;stroke-opacity:1"
       d="M 72.822748,27.330581 V 39.047845"
       id="path1368-0"
       inkscape:connector-curvature="0" />
    <path
       style="fill:none;stroke:#000000;stroke-width:0.26458332px;stroke-linecap:butt;stroke-linejoin:miter;stroke-opacity:1"
       d="m 72.822748,27.330581 h 3.597436 v 1.576181 z"
       id="path1370-6"
       inkscape:connector-curvature="0" />
    <path
       style="fill:none;stroke:#000000;stroke-width:0.26458332px;stroke-linecap:butt;stroke-linejoin:miter;stroke-opacity:1"
       d="m 72.878863,34.419197 c 0.133636,-0.133635 3.474506,-1.57021 3.474506,-1.57021 v 2.873148 z"
       id="path1372-2"
       inkscape:connector-curvature="0" />
    <path
       style="fill:none;stroke:#000000;stroke-width:0.26458332px;stroke-linecap:butt;stroke-linejoin:miter;stroke-opacity:1"
       d="m 85.47394,24.396589 5.28838,3.053249"
       id="path1374-6"
       inkscape:connector-curvature="0" />
    <path
       style="fill:none;stroke:#000000;stroke-width:0.26458332px;stroke-linecap:butt;stroke-linejoin:miter;stroke-opacity:1;marker-start:url(#marker1456-7)"
       d="M 60.283786,20.587998 V 44.642254"
       id="path1394-5"
       inkscape:connector-curvature="0" />
    <path
       style="fill:none;stroke:#000000;stroke-width:0.26458332px;stroke-linecap:butt;stroke-linejoin:miter;stroke-opacity:1"
       d="m 60.160546,32.90573 1.27567,-1.34654"
       id="path1396-9"
       inkscape:connector-curvature="0" />
    <path
       style="fill:none;stroke:#000000;stroke-width:0.26458332px;stroke-linecap:butt;stroke-linejoin:miter;stroke-opacity:1"
       d="m 60.160546,32.90573 h 1.228423"
       id="path1398-2"
       inkscape:connector-curvature="0" />
    <path
       style="fill:none;stroke:#000000;stroke-width:0.26458332px;stroke-linecap:butt;stroke-linejoin:miter;stroke-opacity:1"
       d="m 60.160546,32.90573 0.992187,1.441034"
       id="path1400-2"
       inkscape:connector-curvature="0" />
    <text
       xml:space="preserve"
       style="font-style:normal;font-weight:normal;font-size:1.23472214px;line-height:1.25;font-family:sans-serif;letter-spacing:0px;word-spacing:0px;fill:#000000;fill-opacity:1;stroke:none;stroke-width:0.26458332"
       x="58.837631"
       y="17.408707"
       id="text1502-8"><tspan
         sodipodi:role="line"
         id="tspan1500-9"
         x="58.837631"
         y="17.408707"
         style="stroke-width:0.26458332">Гор</tspan></text>
    <path
       style="fill:none;stroke:#0000ff;stroke-width:0.16500001;stroke-linecap:butt;stroke-linejoin:miter;stroke-miterlimit:4;stroke-dasharray:none;stroke-opacity:1"
       d="m 42.900298,25.802082 h 36.94717 c 0,0 1.751854,-0.353363 5.020723,1.3453 3.179751,1.652353 6.129575,2.906932 6.129575,2.906932"
       id="path1666"
       inkscape:connector-curvature="0"
       sodipodi:nodetypes="ccsc" />
    <circle
       style="fill:none;fill-opacity:1;stroke:#000000;stroke-width:0.16500001;stroke-miterlimit:4;stroke-dasharray:none;stroke-dashoffset:0;stroke-opacity:1"
       id="path1668"
       cx="107.2419"
       cy="36.746296"
       r="8.8867121" />
    <path
       style="fill:none;stroke:#000000;stroke-width:0.16500001;stroke-linecap:butt;stroke-linejoin:miter;stroke-miterlimit:4;stroke-dasharray:none;stroke-opacity:1"
       d="m 104.36875,28.427531 0.43431,1.035672 3.70837,-0.06682 1.13589,-1.102487 v 1.570207 l 1.87089,1.403168 2.20497,-0.501132 -0.7684,1.503392 1.16931,2.037929 1.60361,0.200451 -1.10248,1.57021 -0.10023,2.472242 0.66818,1.603619"
       id="path1670"
       inkscape:connector-curvature="0" />
  </g>
  <g
     inkscape:groupmode="layer"
     id="layer5"
     inkscape:label="Layer 5">
    <path
       style="fill:none;stroke:#000000;stroke-width:0.26499999;stroke-linecap:butt;stroke-linejoin:miter;stroke-miterlimit:4;stroke-dasharray:1.58999992, 1.58999992;stroke-dashoffset:0;stroke-opacity:1"
       d="m 44.034225,38.275297 74.366815,0"
       id="path960"
       inkscape:connector-curvature="0"
       sodipodi:nodetypes="cc" />
    <path
       style="fill:none;stroke:#000000;stroke-width:0.26458332px;stroke-linecap:butt;stroke-linejoin:miter;stroke-opacity:1"
       d="m 50.270833,38.08631 c 0.188989,-1.13393 0,-18.709822 0,-18.709822 h 31.749999 v 18.898809"
       id="path962"
       inkscape:connector-curvature="0" />
    <path
       style="fill:none;stroke:#000000;stroke-width:0.26458332px;stroke-linecap:butt;stroke-linejoin:miter;stroke-opacity:1"
       d="M 50.365326,23.534226 H 81.926339"
       id="path964"
       inkscape:connector-curvature="0" />
    <path
       style="fill:none;fill-opacity:1;stroke:#000000;stroke-width:0.35770527;stroke-miterlimit:4;stroke-dasharray:2.14623162, 2.14623162;stroke-dashoffset:0;stroke-opacity:1"
       d="m 190.65189,81.212583 v -7.142857 h 59.28571 59.28572 v 7.142857 7.142857 H 249.9376 190.65189 Z"
       id="path966"
       inkscape:connector-curvature="0"
       transform="scale(0.26458333)" />
    <path
       style="fill:#666666;fill-opacity:1;stroke:#000000;stroke-width:0.35770527;stroke-miterlimit:4;stroke-dasharray:2.14623162, 2.14623162000000001;stroke-dashoffset:0;stroke-opacity:1"
       d="m 191.25576,87.930059 c -0.27069,-0.167296 -0.40352,-2.410943 -0.41232,-6.964285 l -0.013,-6.717477 58.82413,0.0146 c 32.35327,0.008 58.95148,0.141969 59.10714,0.297638 0.15566,0.15567 0.28302,3.283027 0.28302,6.949683 v 6.666648 h -58.69482 c -32.28215,0 -58.87453,-0.111064 -59.09417,-0.24681 z"
       id="path969"
       inkscape:connector-curvature="0"
       transform="scale(0.26458333)" />
    <path
       style="fill:none;stroke:#000000;stroke-width:0.26458332px;stroke-linecap:butt;stroke-linejoin:miter;stroke-opacity:1"
       d="M 50.176339,25.991071 C 40.287635,22.918586 49.020592,6.7828201 34.584822,7.4702378"
       id="path971"
       inkscape:connector-curvature="0" />
    <path
       style="fill:none;stroke:#000000;stroke-width:0.26458332px;stroke-linecap:butt;stroke-linejoin:miter;stroke-opacity:1"
       d="m 34.395833,10.683035 c 5.569886,6.990592 1.639168,23.028535 12.378719,27.119792"
       id="path973"
       inkscape:connector-curvature="0" />
    <path
       style="fill:#ffaaaa;stroke:#000000;stroke-width:0.26458332px;stroke-linecap:butt;stroke-linejoin:miter;stroke-opacity:1"
       d="m 44.695684,19.187499 c 1.68716,-0.41647 4.485192,0.03328 5.575149,0.188989"
       id="path975"
       inkscape:connector-curvature="0" />
    <path
       style="fill:#ffaaaa;fill-opacity:1;stroke:#000000;stroke-width:0.35770527;stroke-miterlimit:4;stroke-dasharray:2.14623162, 2.14623162;stroke-dashoffset:0;stroke-opacity:1"
       d="m 191.65635,87.754328 c 0.25782,-0.103168 0.56585,-0.09048 0.68453,0.0282 0.11867,0.118675 -0.0923,0.203086 -0.46875,0.187578 -0.41605,-0.01714 -0.50068,-0.101764 -0.21578,-0.215774 z"
       id="path977"
       inkscape:connector-curvature="0"
       transform="scale(0.26458333)" />
    <path
       style="fill:#c8b7b7;fill-opacity:1;stroke:#000000;stroke-width:0.35770527;stroke-miterlimit:4;stroke-dasharray:2.14623162, 2.14623162000000001;stroke-dashoffset:0;stroke-opacity:1"
       d="m 185.42034,95.697946 c -7.21772,-3.621219 -11.35591,-9.305712 -14.41612,-19.802932 -0.62777,-2.153426 -0.68168,-2.693941 -0.29297,-2.937608 0.86066,-0.53952 17.83201,0.313211 18.4456,0.926804 0.0675,0.06747 0.21532,5.360023 0.32857,11.761235 0.18353,10.373953 0.14561,11.638567 -0.34894,11.638567 -0.30516,0 -1.97743,-0.71373 -3.71614,-1.586066 z"
       id="path979"
       inkscape:connector-curvature="0"
       transform="scale(0.26458333)" />
    <path
       style="fill:none;stroke:#000000;stroke-width:0.26458332px;stroke-linecap:butt;stroke-linejoin:miter;stroke-opacity:1"
       d="M 34.584822,7.4702378 34.395833,10.683035"
       id="path981"
       inkscape:connector-curvature="0" />
    <path
       style="fill:none;stroke:#000000;stroke-width:0.26458332px;stroke-linecap:butt;stroke-linejoin:miter;stroke-opacity:1"
       d="m 82.02083,19.376488 c -0.865505,-4.75877 -2.797175,-7.041142 -7.276039,-6.614584"
       id="path983"
       inkscape:connector-curvature="0" />
    <path
       style="fill:none;stroke:#000000;stroke-width:0.26458332px;stroke-linecap:butt;stroke-linejoin:miter;stroke-opacity:1"
       d="m 74.650297,9.738095 c 6.495743,-1.4894001 10.605059,2.945525 10.299851,9.354911 l 21.261162,0.188988 5.37666,-0.02605"
       id="path985"
       inkscape:connector-curvature="0"
       sodipodi:nodetypes="cccc" />
    <path
       style="fill:none;stroke:#000000;stroke-width:0.26458332px;stroke-linecap:butt;stroke-linejoin:miter;stroke-opacity:1"
       d="m 74.650295,9.7380948 0.0945,3.0238092"
       id="path987"
       inkscape:connector-curvature="0" />
    <path
       style="fill:none;stroke:#000000;stroke-width:0.26458332px;stroke-linecap:butt;stroke-linejoin:miter;stroke-opacity:1"
       d="m 74.626673,10.4468 c -0.09449,0.09449 -1.866257,0.933129 -1.866257,0.933129 l 1.866257,0.685081"
       id="path989"
       inkscape:connector-curvature="0" />
    <path
       style="fill:none;stroke:#000000;stroke-width:0.26458332px;stroke-linecap:butt;stroke-linejoin:miter;stroke-opacity:1"
       d="m 34.561197,8.2261899 -3.09468,0.7323289 3.047434,0.8976934"
       id="path991"
       inkscape:connector-curvature="0" />
    <text
       xml:space="preserve"
       style="font-style:normal;font-weight:normal;font-size:1.23472214px;line-height:1.25;font-family:sans-serif;letter-spacing:0px;word-spacing:0px;fill:#000000;fill-opacity:1;stroke:none;stroke-width:0.26458332"
       x="27.929667"
       y="28.126854"
       id="text995"><tspan
         sodipodi:role="line"
         id="tspan993"
         x="27.929667"
         y="28.126854"
         style="stroke-width:0.26458332">1</tspan></text>
    <text
       xml:space="preserve"
       style="font-style:normal;font-weight:normal;font-size:1.23472214px;line-height:1.25;font-family:sans-serif;letter-spacing:0px;word-spacing:0px;fill:#000000;fill-opacity:1;stroke:none;stroke-width:0.26458332"
       x="52.117558"
       y="7.6807361"
       id="text999"><tspan
         sodipodi:role="line"
         id="tspan997"
         x="52.117558"
         y="7.6807361"
         style="stroke-width:0.26458332">2</tspan></text>
    <text
       xml:space="preserve"
       style="font-style:normal;font-weight:normal;font-size:1.23472214px;line-height:1.25;font-family:sans-serif;letter-spacing:0px;word-spacing:0px;fill:#000000;fill-opacity:1;stroke:none;stroke-width:0.26458332"
       x="83.655365"
       y="5.5425806"
       id="text1003"><tspan
         sodipodi:role="line"
         id="tspan1001"
         x="83.655365"
         y="5.5425806"
         style="stroke-width:0.26458332">3</tspan></text>
    <text
       xml:space="preserve"
       style="font-style:normal;font-weight:normal;font-size:1.23472214px;line-height:1.25;font-family:sans-serif;letter-spacing:0px;word-spacing:0px;fill:#000000;fill-opacity:1;stroke:none;stroke-width:0.26458332"
       x="93.009796"
       y="14.095205"
       id="text1007"><tspan
         sodipodi:role="line"
         id="tspan1005"
         x="93.009796"
         y="14.095205"
         style="stroke-width:0.26458332">4</tspan></text>
    <text
       xml:space="preserve"
       style="font-style:normal;font-weight:normal;font-size:1.23472214px;line-height:1.25;font-family:sans-serif;letter-spacing:0px;word-spacing:0px;fill:#000000;fill-opacity:1;stroke:none;stroke-width:0.26458332"
       x="112.78773"
       y="15.698823"
       id="text1011"><tspan
         sodipodi:role="line"
         id="tspan1009"
         x="112.78773"
         y="15.698823"
         style="stroke-width:0.26458332">5</tspan></text>
    <path
       style="fill:none;stroke:#000000;stroke-width:0.165;stroke-linecap:butt;stroke-linejoin:miter;stroke-opacity:1;stroke-miterlimit:4;stroke-dasharray:none"
       d="m 29.132379,27.057776 8.68626,-6.548103"
       id="path1013"
       inkscape:connector-curvature="0" />
    <path
       style="fill:none;stroke:#000000;stroke-width:0.165;stroke-linecap:butt;stroke-linejoin:miter;stroke-opacity:1;stroke-miterlimit:4;stroke-dasharray:none"
       d="M 53.320269,8.3489103 59.868373,19.440595"
       id="path1015"
       inkscape:connector-curvature="0" />
    <path
       style="fill:none;stroke:#000000;stroke-width:0.165;stroke-linecap:butt;stroke-linejoin:miter;stroke-opacity:1;stroke-miterlimit:4;stroke-dasharray:none"
       d="M 84.590804,5.2753106 81.116301,12.090683"
       id="path1017"
       inkscape:connector-curvature="0" />
    <path
       style="fill:none;stroke:#000000;stroke-width:0.165;stroke-linecap:butt;stroke-linejoin:miter;stroke-opacity:1;stroke-miterlimit:4;stroke-dasharray:none"
       d="M 92.87616,14.763379 90.470735,26.656874"
       id="path1019"
       inkscape:connector-curvature="0" />
    <path
       style="fill:none;stroke:#000000;stroke-width:0.26458332px;stroke-linecap:butt;stroke-linejoin:miter;stroke-opacity:1"
       d="m 106.17282,19.30696 c 2.22355,4.52237 8.34685,0.0558 5.41515,-0.05102"
       id="path1021"
       inkscape:connector-curvature="0" />
    <path
       style="fill:none;stroke:#000000;stroke-width:0.165;stroke-linecap:butt;stroke-linejoin:miter;stroke-opacity:1;stroke-miterlimit:4;stroke-dasharray:none"
       d="m 109.51369,20.509673 2.67269,-4.009042"
       id="path1023"
       inkscape:connector-curvature="0" />
  </g>
</svg>
